NWPU_DIgitalCircuiitExperiments_Xmk_Xyr/Test/4/4/test1/simulation/qsim/test1.msim.vcd
$comment
	File created using the following command:
		vcd file test1.msim.vcd -direction
$end
$date
	Tue May 30 21:35:17 2023
$end
$version
	ModelSim Version 10.1d
$end
$timescale
	1ps
$end
$scope module test1_vlg_vec_tst $end
$var reg 1 ! a $end
$var reg 1 " b $end
$var wire 1 # y $end
$var wire 1 $ sampler $end
$scope module i1 $end
$var wire 1 % gnd $end
$var wire 1 & vcc $end
$var wire 1 ' unknown $end
$var tri1 1 ( devclrn $end
$var tri1 1 ) devpor $end
$var tri1 1 * devoe $end
$var wire 1 + ~QUARTUS_CREATED_GND~I_combout $end
$var wire 1 , a~input_o $end
$var wire 1 - b~input_o $end
$var wire 1 . y~0_combout $end
$upscope $end
$upscope $end
$enddefinitions $end
#0
$dumpvars
0!
0"
0#
x$
0%
1&
x'
1(
1)
1*
0+
0,
0-
0.
$end
#10000
1!
1,
0$
1.
1#
#20000
1"
0!
1-
0,
1$
#30000
1!
1,
0$
0.
0#
#40000
0"
0!
0-
0,
1$
#50000
1!
1,
0$
1.
1#
#60000
1"
0!
1-
0,
1$
#70000
1!
1,
0$
0.
0#
#80000
0"
0!
0-
0,
1$
#90000
1!
1,
0$
1.
1#
#100000
1"
0!
1-
0,
1$
#110000
1!
1,
0$
0.
0#
#120000
0"
0!
0-
0,
1$
#130000
1!
1,
0$
1.
1#
#140000
1"
0!
1-
0,
1$
#150000
1!
1,
0$
0.
0#
#160000
0"
0!
0-
0,
1$
#170000
1!
1,
0$
1.
1#
#180000
1"
0!
1-
0,
1$
#190000
1!
1,
0$
0.
0#
#200000
0"
0!
0-
0,
1$
#210000
1!
1,
0$
1.
1#
#220000
1"
0!
1-
0,
1$
#230000
1!
1,
0$
0.
0#
#240000
0"
0!
0-
0,
1$
#250000
1!
1,
0$
1.
1#
#260000
1"
0!
1-
0,
1$
#270000
1!
1,
0$
0.
0#
#280000
0"
0!
0-
0,
1$
#290000
1!
1,
0$
1.
1#
#300000
1"
0!
1-
0,
1$
#310000
1!
1,
0$
0.
0#
#320000
0"
0!
0-
0,
1$
#330000
1!
1,
0$
1.
1#
#340000
1"
0!
1-
0,
1$
#350000
1!
1,
0$
0.
0#
#360000
0"
0!
0-
0,
1$
#370000
1!
1,
0$
1.
1#
#380000
1"
0!
1-
0,
1$
#390000
1!
1,
0$
0.
0#
#400000
0"
0!
0-
0,
1$
#410000
1!
1,
0$
1.
1#
#420000
1"
0!
1-
0,
1$
#430000
1!
1,
0$
0.
0#
#440000
0"
0!
0-
0,
1$
#450000
1!
1,
0$
1.
1#
#460000
1"
0!
1-
0,
1$
#470000
1!
1,
0$
0.
0#
#480000
0"
0!
0-
0,
1$
#490000
1!
1,
0$
1.
1#
#500000
1"
0!
1-
0,
1$
#510000
1!
1,
0$
0.
0#
#520000
0"
0!
0-
0,
1$
#530000
1!
1,
0$
1.
1#
#540000
1"
0!
1-
0,
1$
#550000
1!
1,
0$
0.
0#
#560000
0"
0!
0-
0,
1$
#570000
1!
1,
0$
1.
1#
#580000
1"
0!
1-
0,
1$
#590000
1!
1,
0$
0.
0#
#600000
0"
0!
0-
0,
1$
#610000
1!
1,
0$
1.
1#
#620000
1"
0!
1-
0,
1$
#630000
1!
1,
0$
0.
0#
#640000
0"
0!
0-
0,
1$
#650000
1!
1,
0$
1.
1#
#660000
1"
0!
1-
0,
1$
#670000
1!
1,
0$
0.
0#
#680000
0"
0!
0-
0,
1$
#690000
1!
1,
0$
1.
1#
#700000
1"
0!
1-
0,
1$
#710000
1!
1,
0$
0.
0#
#720000
0"
0!
0-
0,
1$
#730000
1!
1,
0$
1.
1#
#740000
1"
0!
1-
0,
1$
#750000
1!
1,
0$
0.
0#
#760000
0"
0!
0-
0,
1$
#770000
1!
1,
0$
1.
1#
#780000
1"
0!
1-
0,
1$
#790000
1!
1,
0$
0.
0#
#800000
0"
0!
0-
0,
1$
#810000
1!
1,
0$
1.
1#
#820000
1"
0!
1-
0,
1$
#830000
1!
1,
0$
0.
0#
#840000
0"
0!
0-
0,
1$
#850000
1!
1,
0$
1.
1#
#860000
1"
0!
1-
0,
1$
#870000
1!
1,
0$
0.
0#
#880000
0"
0!
0-
0,
1$
#890000
1!
1,
0$
1.
1#
#900000
1"
0!
1-
0,
1$
#910000
1!
1,
0$
0.
0#
#920000
0"
0!
0-
0,
1$
#930000
1!
1,
0$
1.
1#
#940000
1"
0!
1-
0,
1$
#950000
1!
1,
0$
0.
0#
#960000
0"
0!
0-
0,
1$
#970000
1!
1,
0$
1.
1#
#980000
1"
0!
1-
0,
1$
#990000
1!
1,
0$
0.
0#
