NWPU_DIgitalCircuiitExperiments_Xmk_Xyr/Test/4/SD/COUNT4_3/simulation/qsim/COUNT4_3.msim.vcd
$comment
	File created using the following command:
		vcd file COUNT4_3.msim.vcd -direction
$end
$date
	Thu May 25 16:13:15 2023
$end
$version
	ModelSim Version 10.1d
$end
$timescale
	1ps
$end
$scope module COUNT4_3_vlg_vec_tst $end
$var reg 1 ! clk $end
$var reg 1 " RST $end
$var wire 1 # COUT $end
$var wire 1 $ DOUT [3] $end
$var wire 1 % DOUT [2] $end
$var wire 1 & DOUT [1] $end
$var wire 1 ' DOUT [0] $end
$var wire 1 ( sampler $end
$scope module i1 $end
$var wire 1 ) gnd $end
$var wire 1 * vcc $end
$var wire 1 + unknown $end
$var tri1 1 , devclrn $end
$var tri1 1 - devpor $end
$var tri1 1 . devoe $end
$var wire 1 / DOUT[0]~output_o $end
$var wire 1 0 DOUT[1]~output_o $end
$var wire 1 1 DOUT[2]~output_o $end
$var wire 1 2 DOUT[3]~output_o $end
$var wire 1 3 COUT~output_o $end
$var wire 1 4 clk~input_o $end
$var wire 1 5 clk~inputclkctrl_outclk $end
$var wire 1 6 Q1~2_combout $end
$var wire 1 7 RST~input_o $end
$var wire 1 8 RST~inputclkctrl_outclk $end
$var wire 1 9 Q1~3_combout $end
$var wire 1 : Q1~1_combout $end
$var wire 1 ; Q1~0_combout $end
$var wire 1 < LessThan0~0_combout $end
$var wire 1 = COUT~reg0_q $end
$var wire 1 > Q1 [3] $end
$var wire 1 ? Q1 [2] $end
$var wire 1 @ Q1 [1] $end
$var wire 1 A Q1 [0] $end
$upscope $end
$upscope $end
$enddefinitions $end
#0
$dumpvars
0!
1"
0#
0'
0&
0%
0$
x(
0)
1*
x+
1,
1-
1.
0/
00
01
02
03
04
05
06
17
18
09
0:
1;
0<
0=
0A
0@
0?
0>
$end
#20000
1!
14
15
0(
1A
0;
1:
1/
1'
#40000
0!
04
05
1(
#60000
1!
14
15
0(
0A
1@
1;
0/
10
0'
1&
#80000
0!
04
05
1(
#100000
1!
14
15
0(
1A
0;
0:
16
1/
1'
#120000
0!
04
05
1(
#140000
1!
14
15
0(
0A
0@
1?
1;
0/
00
11
0'
0&
1%
#160000
0!
04
05
1(
#180000
1!
14
15
0(
1A
0;
1:
1/
1'
#200000
0!
04
05
1(
#220000
1!
14
15
0(
0A
1@
1;
0/
10
0'
1&
#240000
0!
04
05
1(
#260000
1!
14
15
0(
1A
0;
0:
19
06
1/
1'
#280000
0!
04
05
1(
#300000
1!
14
15
0(
0A
0@
1>
0?
1;
0/
00
12
01
0'
0&
1$
0%
#320000
0!
04
05
1(
#340000
1!
14
15
0(
1A
0;
1:
1/
1'
#360000
0!
04
05
1(
#380000
1!
14
15
0(
0A
1@
1;
0/
10
0'
1&
#400000
0!
04
05
1(
#420000
1!
14
15
0(
1A
0;
0:
16
1/
1'
#440000
0!
04
05
1(
#460000
1!
14
15
0(
0A
0@
1?
1;
0/
00
11
0'
0&
1%
#480000
0!
04
05
1(
#500000
1!
14
15
0(
1A
0;
1:
1/
1'
#520000
0!
04
05
1(
#540000
1!
14
15
0(
0A
1@
0:
09
06
1<
0/
10
0'
1&
#560000
0!
04
05
1(
#580000
1!
14
15
0(
1=
0@
0>
0?
0<
1;
13
00
02
01
1#
0&
0$
0%
#600000
0!
04
05
1(
#620000
1!
14
15
0(
0=
1A
0;
1:
03
1/
0#
1'
#640000
0!
04
05
1(
#660000
1!
14
15
0(
0A
1@
1;
0/
10
0'
1&
#680000
0!
04
05
1(
#700000
1!
14
15
0(
1A
0;
0:
16
1/
1'
#720000
0!
04
05
1(
#740000
1!
14
15
0(
0A
0@
1?
1;
0/
00
11
0'
0&
1%
#760000
0!
04
05
1(
#780000
1!
14
15
0(
1A
0;
1:
1/
1'
#800000
0!
04
05
1(
#820000
1!
14
15
0(
0A
1@
1;
0/
10
0'
1&
#840000
0!
04
05
1(
#860000
1!
14
15
0(
1A
0;
0:
19
06
1/
1'
#880000
0!
04
05
1(
#900000
1!
14
15
0(
0A
0@
1>
0?
1;
0/
00
12
01
0'
0&
1$
0%
#920000
0!
04
05
1(
#940000
1!
14
15
0(
1A
0;
1:
1/
1'
#960000
0!
04
05
1(
#980000
1!
14
15
0(
0A
1@
1;
0/
10
0'
1&
