NWPU_DIgitalCircuiitExperiments_Xmk_Xyr/Test/2/实验二/sdsy/sdsy/simulation/qsim/sdsy.msim.vcd
$comment
	File created using the following command:
		vcd file sdsy.msim.vcd -direction
$end
$date
	Mon May 15 22:49:54 2023
$end
$version
	ModelSim Version 10.1d
$end
$timescale
	1ps
$end
$scope module sdsy_vlg_vec_tst $end
$var reg 1 ! A $end
$var reg 1 " AP $end
$var reg 1 # B $end
$var reg 1 $ BP $end
$var reg 1 % Ci $end
$var reg 1 & N1 $end
$var reg 1 ' N2 $end
$var reg 1 ( N3 $end
$var reg 1 ) N4 $end
$var reg 1 * Tlas $end
$var wire 1 + C0 $end
$var wire 1 , S $end
$var wire 1 - SP $end
$var wire 1 . T $end
$var wire 1 / sampler $end
$scope module i1 $end
$var wire 1 0 gnd $end
$var wire 1 1 vcc $end
$var wire 1 2 unknown $end
$var tri1 1 3 devclrn $end
$var tri1 1 4 devpor $end
$var tri1 1 5 devoe $end
$var wire 1 6 ~QUARTUS_CREATED_GND~I_combout $end
$var wire 1 7 AP~input_o $end
$var wire 1 8 Ci~input_o $end
$var wire 1 9 BP~input_o $end
$var wire 1 : N1~input_o $end
$var wire 1 ; N4~input_o $end
$var wire 1 < N3~input_o $end
$var wire 1 = N2~input_o $end
$var wire 1 > notand1|6~0_combout $end
$var wire 1 ? notand2|6~0_combout $end
$var wire 1 @ B~input_o $end
$var wire 1 A A~input_o $end
$var wire 1 B Tlas~input_o $end
$var wire 1 C notor2~combout $end
$var wire 1 D quanjianqi|9~0_combout $end
$var wire 1 E quanjianqi|10~0_combout $end
$var wire 1 F notand1|6~1_combout $end
$upscope $end
$upscope $end
$enddefinitions $end
#0
$dumpvars
0!
0"
0#
0$
0%
0&
0'
1(
0)
0*
0+
0,
0-
0.
x/
00
11
x2
13
14
15
06
07
08
09
0:
0;
1<
0=
0>
1?
0@
0A
0B
1C
0D
0E
1F
$end
#10000
1%
1*
18
1B
0/
1D
1E
1,
1.
#20000
1$
1#
0%
0*
19
1@
08
0B
1/
#30000
1%
1*
18
1B
0/
0D
0,
#40000
1"
1!
0$
0#
0%
0*
17
1A
09
0@
08
0B
1/
1D
0E
1,
0.
#50000
1%
1*
18
1B
0/
0D
0,
#60000
1$
1#
0%
0*
19
1@
08
0B
1/
#70000
1%
1*
18
1B
0/
1D
1E
1,
1.
#80000
0"
0!
0$
0#
0%
0*
07
0A
09
0@
08
0B
1/
0D
0E
0,
0.
#90000
1%
1*
18
1B
0/
1D
1E
1,
1.
#100000
1$
1#
0%
0*
19
1@
08
0B
1/
#110000
1%
1*
18
1B
0/
0D
0,
#120000
1"
1!
0$
0#
0%
0*
17
1A
09
0@
08
0B
1/
1D
0E
1,
0.
#130000
1%
1*
18
1B
0/
0D
0,
#140000
1$
1#
0%
0*
19
1@
08
0B
1/
#150000
1%
1*
18
1B
0/
1D
1E
1,
1.
#160000
0"
0!
0$
0#
0%
0*
07
0A
09
0@
08
0B
1/
0D
0E
0,
0.
#170000
1%
1*
18
1B
0/
1D
1E
1,
1.
#180000
1$
1#
0%
0*
19
1@
08
0B
1/
#190000
1%
1*
18
1B
0/
0D
0,
#200000
1"
1!
0$
0#
0%
0*
17
1A
09
0@
08
0B
1/
1D
0E
1,
0.
#210000
1%
1*
18
1B
0/
0D
0,
#220000
1$
1#
0%
0*
19
1@
08
0B
1/
#230000
1%
1*
18
1B
0/
1D
1E
1,
1.
#240000
0"
0!
0$
0#
0%
0*
07
0A
09
0@
08
0B
1/
0D
0E
0,
0.
#250000
1%
1*
18
1B
0/
1D
1E
1,
1.
#260000
1$
1#
0%
0*
19
1@
08
0B
1/
#270000
1%
1*
18
1B
0/
0D
0,
#280000
1"
1!
0$
0#
0%
0*
17
1A
09
0@
08
0B
1/
1D
0E
1,
0.
#290000
1%
1*
18
1B
0/
0D
0,
#300000
1$
1#
0%
0*
19
1@
08
0B
1/
#310000
1%
1*
18
1B
0/
1D
1E
1,
1.
#320000
0"
0!
0$
0#
0%
0*
07
0A
09
0@
08
0B
1/
0D
0E
0,
0.
#330000
1%
1*
18
1B
0/
1D
1E
1,
1.
#340000
1$
1#
0%
0*
19
1@
08
0B
1/
#350000
1%
1*
18
1B
0/
0D
0,
#360000
1"
1!
0$
0#
0%
0*
17
1A
09
0@
08
0B
1/
1D
0E
1,
0.
#370000
1%
1*
18
1B
0/
0D
0,
#380000
1$
1#
0%
0*
19
1@
08
0B
1/
#390000
1%
1*
18
1B
0/
1D
1E
1,
1.
#400000
0"
0!
0$
0#
0%
0*
07
0A
09
0@
08
0B
1/
0D
0E
0,
0.
#410000
1%
1*
18
1B
0/
1D
1E
1,
1.
#420000
1$
1#
0%
0*
19
1@
08
0B
1/
#430000
1%
1*
18
1B
0/
0D
0,
#440000
1"
1!
0$
0#
0%
0*
17
1A
09
0@
08
0B
1/
1D
0E
1,
0.
#450000
1%
1*
18
1B
0/
0D
0,
#460000
1$
1#
0%
0*
19
1@
08
0B
1/
#470000
1%
1*
18
1B
0/
1D
1E
1,
1.
#480000
0"
0!
0$
0#
0%
0*
07
0A
09
0@
08
0B
1/
0D
0E
0,
0.
#490000
1%
1*
18
1B
0/
1D
1E
1,
1.
#500000
1$
1#
0%
0*
19
1@
08
0B
1/
#510000
1%
1*
18
1B
0/
0D
0,
#520000
1"
1!
0$
0#
0%
0*
17
1A
09
0@
08
0B
1/
1D
0E
1,
0.
#530000
1%
1*
18
1B
0/
0D
0,
#540000
1$
1#
0%
0*
19
1@
08
0B
1/
#550000
1%
1*
18
1B
0/
1D
1E
1,
1.
#560000
0"
0!
0$
0#
0%
0*
07
0A
09
0@
08
0B
1/
0D
0E
0,
0.
#570000
1%
1*
18
1B
0/
1D
1E
1,
1.
#580000
1$
1#
0%
0*
19
1@
08
0B
1/
#590000
1%
1*
18
1B
0/
0D
0,
#600000
1"
1!
0$
0#
0%
0*
17
1A
09
0@
08
0B
1/
1D
0E
1,
0.
#610000
1%
1*
18
1B
0/
0D
0,
#620000
1$
1#
0%
0*
19
1@
08
0B
1/
#630000
1%
1*
18
1B
0/
1D
1E
1,
1.
#640000
0"
0!
0$
0#
0%
0*
07
0A
09
0@
08
0B
1/
0D
0E
0,
0.
#650000
1%
1*
18
1B
0/
1D
1E
1,
1.
#660000
1$
1#
0%
0*
19
1@
08
0B
1/
#670000
1%
1*
18
1B
0/
0D
0,
#680000
1"
1!
0$
0#
0%
0*
17
1A
09
0@
08
0B
1/
1D
0E
1,
0.
#690000
1%
1*
18
1B
0/
0D
0,
#700000
1$
1#
0%
0*
19
1@
08
0B
1/
#710000
1%
1*
18
1B
0/
1D
1E
1,
1.
#720000
0"
0!
0$
0#
0%
0*
07
0A
09
0@
08
0B
1/
0D
0E
0,
0.
#730000
1%
1*
18
1B
0/
1D
1E
1,
1.
#740000
1$
1#
0%
0*
19
1@
08
0B
1/
#750000
1%
1*
18
1B
0/
0D
0,
#760000
1"
1!
0$
0#
0%
0*
17
1A
09
0@
08
0B
1/
1D
0E
1,
0.
#770000
1%
1*
18
1B
0/
0D
0,
#780000
1$
1#
0%
0*
19
1@
08
0B
1/
#790000
1%
1*
18
1B
0/
1D
1E
1,
1.
#800000
0"
0!
0$
0#
0%
0*
07
0A
09
0@
08
0B
1/
0D
0E
0,
0.
#810000
1%
1*
18
1B
0/
1D
1E
1,
1.
#820000
1$
1#
0%
0*
19
1@
08
0B
1/
#830000
1%
1*
18
1B
0/
0D
0,
#840000
1"
1!
0$
0#
0%
0*
17
1A
09
0@
08
0B
1/
1D
0E
1,
0.
#850000
1%
1*
18
1B
0/
0D
0,
#860000
1$
1#
0%
0*
19
1@
08
0B
1/
#870000
1%
1*
18
1B
0/
1D
1E
1,
1.
#880000
0"
0!
0$
0#
0%
0*
07
0A
09
0@
08
0B
1/
0D
0E
0,
0.
#890000
1%
1*
18
1B
0/
1D
1E
1,
1.
#900000
1$
1#
0%
0*
19
1@
08
0B
1/
#910000
1%
1*
18
1B
0/
0D
0,
#920000
1"
1!
0$
0#
0%
0*
17
1A
09
0@
08
0B
1/
1D
0E
1,
0.
#930000
1%
1*
18
1B
0/
0D
0,
#940000
1$
1#
0%
0*
19
1@
08
0B
1/
#950000
1%
1*
18
1B
0/
1D
1E
1,
1.
#960000
0"
0!
0$
0#
0%
0*
07
0A
09
0@
08
0B
1/
0D
0E
0,
0.
#970000
1%
1*
18
1B
0/
1D
1E
1,
1.
#980000
1$
1#
0%
0*
19
1@
08
0B
1/
#990000
1%
1*
18
1B
0/
0D
0,
