NWPU_DIgitalCircuiitExperiments_Xmk_Xyr/Test/5/51/ROMuse/simulation/qsim/ROMuse.msim.vcd
$comment
	File created using the following command:
		vcd file ROMuse.msim.vcd -direction
$end
$date
	Sun Jun 25 08:45:09 2023
$end
$version
	ModelSim Version 10.1d
$end
$timescale
	1ps
$end
$scope module ROMuse_vlg_vec_tst $end
$var reg 1 ! clk $end
$var wire 1 " dis_out [6] $end
$var wire 1 # dis_out [5] $end
$var wire 1 $ dis_out [4] $end
$var wire 1 % dis_out [3] $end
$var wire 1 & dis_out [2] $end
$var wire 1 ' dis_out [1] $end
$var wire 1 ( dis_out [0] $end
$var wire 1 ) p0 [6] $end
$var wire 1 * p0 [5] $end
$var wire 1 + p0 [4] $end
$var wire 1 , p0 [3] $end
$var wire 1 - p0 [2] $end
$var wire 1 . p0 [1] $end
$var wire 1 / p0 [0] $end
$var wire 1 0 p1 [6] $end
$var wire 1 1 p1 [5] $end
$var wire 1 2 p1 [4] $end
$var wire 1 3 p1 [3] $end
$var wire 1 4 p1 [2] $end
$var wire 1 5 p1 [1] $end
$var wire 1 6 p1 [0] $end
$var wire 1 7 p2 [6] $end
$var wire 1 8 p2 [5] $end
$var wire 1 9 p2 [4] $end
$var wire 1 : p2 [3] $end
$var wire 1 ; p2 [2] $end
$var wire 1 < p2 [1] $end
$var wire 1 = p2 [0] $end
$var wire 1 > q [7] $end
$var wire 1 ? q [6] $end
$var wire 1 @ q [5] $end
$var wire 1 A q [4] $end
$var wire 1 B q [3] $end
$var wire 1 C q [2] $end
$var wire 1 D q [1] $end
$var wire 1 E q [0] $end
$var wire 1 F sampler $end
$scope module i1 $end
$var wire 1 G gnd $end
$var wire 1 H vcc $end
$var wire 1 I unknown $end
$var tri1 1 J devclrn $end
$var tri1 1 K devpor $end
$var tri1 1 L devoe $end
$var wire 1 M dis_out[6]~output_o $end
$var wire 1 N dis_out[5]~output_o $end
$var wire 1 O dis_out[4]~output_o $end
$var wire 1 P dis_out[3]~output_o $end
$var wire 1 Q dis_out[2]~output_o $end
$var wire 1 R dis_out[1]~output_o $end
$var wire 1 S dis_out[0]~output_o $end
$var wire 1 T p0[6]~output_o $end
$var wire 1 U p0[5]~output_o $end
$var wire 1 V p0[4]~output_o $end
$var wire 1 W p0[3]~output_o $end
$var wire 1 X p0[2]~output_o $end
$var wire 1 Y p0[1]~output_o $end
$var wire 1 Z p0[0]~output_o $end
$var wire 1 [ p1[6]~output_o $end
$var wire 1 \ p1[5]~output_o $end
$var wire 1 ] p1[4]~output_o $end
$var wire 1 ^ p1[3]~output_o $end
$var wire 1 _ p1[2]~output_o $end
$var wire 1 ` p1[1]~output_o $end
$var wire 1 a p1[0]~output_o $end
$var wire 1 b p2[6]~output_o $end
$var wire 1 c p2[5]~output_o $end
$var wire 1 d p2[4]~output_o $end
$var wire 1 e p2[3]~output_o $end
$var wire 1 f p2[2]~output_o $end
$var wire 1 g p2[1]~output_o $end
$var wire 1 h p2[0]~output_o $end
$var wire 1 i q[7]~output_o $end
$var wire 1 j q[6]~output_o $end
$var wire 1 k q[5]~output_o $end
$var wire 1 l q[4]~output_o $end
$var wire 1 m q[3]~output_o $end
$var wire 1 n q[2]~output_o $end
$var wire 1 o q[1]~output_o $end
$var wire 1 p q[0]~output_o $end
$var wire 1 q clk~input_o $end
$var wire 1 r clk~inputclkctrl_outclk $end
$var wire 1 s inst5|Q1[0]~5_combout $end
$var wire 1 t inst5|Q1[0]~6 $end
$var wire 1 u inst5|Q1[1]~7_combout $end
$var wire 1 v inst5|Q1[1]~8 $end
$var wire 1 w inst5|Q1[2]~9_combout $end
$var wire 1 x inst5|Q1[2]~10 $end
$var wire 1 y inst5|Q1[3]~11_combout $end
$var wire 1 z inst5|Q1[3]~12 $end
$var wire 1 { inst5|Q1[4]~13_combout $end
$var wire 1 | inst5|LessThan0~0_combout $end
$var wire 1 } inst5|LessThan0~1_combout $end
$var wire 1 ~ inst6|Mux0~0_combout $end
$var wire 1 !! inst6|Mux1~0_combout $end
$var wire 1 "! inst6|Mux2~0_combout $end
$var wire 1 #! inst6|Mux3~0_combout $end
$var wire 1 $! inst6|Mux4~0_combout $end
$var wire 1 %! inst6|Mux5~0_combout $end
$var wire 1 &! inst6|Mux6~0_combout $end
$var wire 1 '! inst2|Q1[0]~8_combout $end
$var wire 1 (! inst2|Q1[0]~9 $end
$var wire 1 )! inst2|Q1[1]~10_combout $end
$var wire 1 *! inst2|Q1[1]~11 $end
$var wire 1 +! inst2|Q1[2]~12_combout $end
$var wire 1 ,! inst2|Q1[2]~13 $end
$var wire 1 -! inst2|Q1[3]~14_combout $end
$var wire 1 .! inst2|Q1[3]~15 $end
$var wire 1 /! inst2|Q1[4]~16_combout $end
$var wire 1 0! inst2|Q1[4]~17 $end
$var wire 1 1! inst2|Q1[5]~18_combout $end
$var wire 1 2! inst2|Q1[5]~19 $end
$var wire 1 3! inst2|Q1[6]~20_combout $end
$var wire 1 4! inst2|Q1[6]~21 $end
$var wire 1 5! inst2|Q1[7]~22_combout $end
$var wire 1 6! inst2|LessThan0~0_combout $end
$var wire 1 7! inst2|LessThan0~1_combout $end
$var wire 1 8! inst2|LessThan0~2_combout $end
$var wire 1 9! inst8|num_0~1_combout $end
$var wire 1 :! inst8|num_0~2_combout $end
$var wire 1 ;! inst8|num_0~0_combout $end
$var wire 1 <! inst8|num_0~4_combout $end
$var wire 1 =! inst8|LessThan2~0_combout $end
$var wire 1 >! inst8|LessThan2~1_combout $end
$var wire 1 ?! inst8|LessThan4~0_combout $end
$var wire 1 @! inst8|LessThan4~1_combout $end
$var wire 1 A! inst8|num_0~3_combout $end
$var wire 1 B! inst8|num_0~5_combout $end
$var wire 1 C! inst8|num_0~7_combout $end
$var wire 1 D! inst8|LessThan6~0_combout $end
$var wire 1 E! inst8|num_0[2]~8_combout $end
$var wire 1 F! inst8|num_0~9_combout $end
$var wire 1 G! inst8|num_0[3]~10_combout $end
$var wire 1 H! inst8|num_0[1]~6_combout $end
$var wire 1 I! inst13|Mux0~0_combout $end
$var wire 1 J! inst13|Mux1~0_combout $end
$var wire 1 K! inst13|Mux2~0_combout $end
$var wire 1 L! inst13|Mux3~0_combout $end
$var wire 1 M! inst13|Mux4~0_combout $end
$var wire 1 N! inst13|Mux5~0_combout $end
$var wire 1 O! inst13|Mux6~0_combout $end
$var wire 1 P! inst8|num_1[0]~0_combout $end
$var wire 1 Q! inst8|num_0~13_combout $end
$var wire 1 R! inst8|LessThan3~0_combout $end
$var wire 1 S! inst8|LessThan3~1_combout $end
$var wire 1 T! inst8|num_1~3_combout $end
$var wire 1 U! inst8|num_0~12_combout $end
$var wire 1 V! inst8|LessThan1~0_combout $end
$var wire 1 W! inst8|num_1~1_combout $end
$var wire 1 X! inst8|num_1~2_combout $end
$var wire 1 Y! inst8|num_0~11_combout $end
$var wire 1 Z! inst8|num_1[3]~8_combout $end
$var wire 1 [! inst8|num_1[1]~4_combout $end
$var wire 1 \! inst8|num_1[2]~5_combout $end
$var wire 1 ]! inst8|num_1[2]~6_combout $end
$var wire 1 ^! inst8|LessThan5~0_combout $end
$var wire 1 _! inst8|num_1[2]~7_combout $end
$var wire 1 `! inst12|Mux0~0_combout $end
$var wire 1 a! inst12|Mux1~0_combout $end
$var wire 1 b! inst12|Mux2~0_combout $end
$var wire 1 c! inst12|Mux3~0_combout $end
$var wire 1 d! inst12|Mux4~0_combout $end
$var wire 1 e! inst12|Mux5~0_combout $end
$var wire 1 f! inst12|Mux6~0_combout $end
$var wire 1 g! inst8|num_2[0]~0_combout $end
$var wire 1 h! inst11|Mux1~0_combout $end
$var wire 1 i! inst11|Mux1~1_combout $end
$var wire 1 j! inst11|Mux1~2_combout $end
$var wire 1 k! inst2|Q1 [7] $end
$var wire 1 l! inst2|Q1 [6] $end
$var wire 1 m! inst2|Q1 [5] $end
$var wire 1 n! inst2|Q1 [4] $end
$var wire 1 o! inst2|Q1 [3] $end
$var wire 1 p! inst2|Q1 [2] $end
$var wire 1 q! inst2|Q1 [1] $end
$var wire 1 r! inst2|Q1 [0] $end
$var wire 1 s! inst10|altsyncram_component|auto_generated|q_a [7] $end
$var wire 1 t! inst10|altsyncram_component|auto_generated|q_a [6] $end
$var wire 1 u! inst10|altsyncram_component|auto_generated|q_a [5] $end
$var wire 1 v! inst10|altsyncram_component|auto_generated|q_a [4] $end
$var wire 1 w! inst10|altsyncram_component|auto_generated|q_a [3] $end
$var wire 1 x! inst10|altsyncram_component|auto_generated|q_a [2] $end
$var wire 1 y! inst10|altsyncram_component|auto_generated|q_a [1] $end
$var wire 1 z! inst10|altsyncram_component|auto_generated|q_a [0] $end
$var wire 1 {! inst3|altsyncram_component|auto_generated|q_a [3] $end
$var wire 1 |! inst3|altsyncram_component|auto_generated|q_a [2] $end
$var wire 1 }! inst3|altsyncram_component|auto_generated|q_a [1] $end
$var wire 1 ~! inst3|altsyncram_component|auto_generated|q_a [0] $end
$var wire 1 !" inst5|Q1 [4] $end
$var wire 1 "" inst5|Q1 [3] $end
$var wire 1 #" inst5|Q1 [2] $end
$var wire 1 $" inst5|Q1 [1] $end
$var wire 1 %" inst5|Q1 [0] $end
$var wire 1 &" inst|altsyncram_component|auto_generated|q_a [7] $end
$var wire 1 '" inst|altsyncram_component|auto_generated|q_a [6] $end
$var wire 1 (" inst|altsyncram_component|auto_generated|q_a [5] $end
$var wire 1 )" inst|altsyncram_component|auto_generated|q_a [4] $end
$var wire 1 *" inst|altsyncram_component|auto_generated|q_a [3] $end
$var wire 1 +" inst|altsyncram_component|auto_generated|q_a [2] $end
$var wire 1 ," inst|altsyncram_component|auto_generated|q_a [1] $end
$var wire 1 -" inst|altsyncram_component|auto_generated|q_a [0] $end
$var wire 1 ." inst3|altsyncram_component|auto_generated|ram_block1a0_PORTADATAOUT_bus [17] $end
$var wire 1 /" inst3|altsyncram_component|auto_generated|ram_block1a0_PORTADATAOUT_bus [16] $end
$var wire 1 0" inst3|altsyncram_component|auto_generated|ram_block1a0_PORTADATAOUT_bus [15] $end
$var wire 1 1" inst3|altsyncram_component|auto_generated|ram_block1a0_PORTADATAOUT_bus [14] $end
$var wire 1 2" inst3|altsyncram_component|auto_generated|ram_block1a0_PORTADATAOUT_bus [13] $end
$var wire 1 3" inst3|altsyncram_component|auto_generated|ram_block1a0_PORTADATAOUT_bus [12] $end
$var wire 1 4" inst3|altsyncram_component|auto_generated|ram_block1a0_PORTADATAOUT_bus [11] $end
$var wire 1 5" inst3|altsyncram_component|auto_generated|ram_block1a0_PORTADATAOUT_bus [10] $end
$var wire 1 6" inst3|altsyncram_component|auto_generated|ram_block1a0_PORTADATAOUT_bus [9] $end
$var wire 1 7" inst3|altsyncram_component|auto_generated|ram_block1a0_PORTADATAOUT_bus [8] $end
$var wire 1 8" inst3|altsyncram_component|auto_generated|ram_block1a0_PORTADATAOUT_bus [7] $end
$var wire 1 9" inst3|altsyncram_component|auto_generated|ram_block1a0_PORTADATAOUT_bus [6] $end
$var wire 1 :" inst3|altsyncram_component|auto_generated|ram_block1a0_PORTADATAOUT_bus [5] $end
$var wire 1 ;" inst3|altsyncram_component|auto_generated|ram_block1a0_PORTADATAOUT_bus [4] $end
$var wire 1 <" inst3|altsyncram_component|auto_generated|ram_block1a0_PORTADATAOUT_bus [3] $end
$var wire 1 =" inst3|altsyncram_component|auto_generated|ram_block1a0_PORTADATAOUT_bus [2] $end
$var wire 1 >" inst3|altsyncram_component|auto_generated|ram_block1a0_PORTADATAOUT_bus [1] $end
$var wire 1 ?" inst3|altsyncram_component|auto_generated|ram_block1a0_PORTADATAOUT_bus [0] $end
$var wire 1 @" inst10|altsyncram_component|auto_generated|ram_block1a0_PORTADATAOUT_bus [17] $end
$var wire 1 A" inst10|altsyncram_component|auto_generated|ram_block1a0_PORTADATAOUT_bus [16] $end
$var wire 1 B" inst10|altsyncram_component|auto_generated|ram_block1a0_PORTADATAOUT_bus [15] $end
$var wire 1 C" inst10|altsyncram_component|auto_generated|ram_block1a0_PORTADATAOUT_bus [14] $end
$var wire 1 D" inst10|altsyncram_component|auto_generated|ram_block1a0_PORTADATAOUT_bus [13] $end
$var wire 1 E" inst10|altsyncram_component|auto_generated|ram_block1a0_PORTADATAOUT_bus [12] $end
$var wire 1 F" inst10|altsyncram_component|auto_generated|ram_block1a0_PORTADATAOUT_bus [11] $end
$var wire 1 G" inst10|altsyncram_component|auto_generated|ram_block1a0_PORTADATAOUT_bus [10] $end
$var wire 1 H" inst10|altsyncram_component|auto_generated|ram_block1a0_PORTADATAOUT_bus [9] $end
$var wire 1 I" inst10|altsyncram_component|auto_generated|ram_block1a0_PORTADATAOUT_bus [8] $end
$var wire 1 J" inst10|altsyncram_component|auto_generated|ram_block1a0_PORTADATAOUT_bus [7] $end
$var wire 1 K" inst10|altsyncram_component|auto_generated|ram_block1a0_PORTADATAOUT_bus [6] $end
$var wire 1 L" inst10|altsyncram_component|auto_generated|ram_block1a0_PORTADATAOUT_bus [5] $end
$var wire 1 M" inst10|altsyncram_component|auto_generated|ram_block1a0_PORTADATAOUT_bus [4] $end
$var wire 1 N" inst10|altsyncram_component|auto_generated|ram_block1a0_PORTADATAOUT_bus [3] $end
$var wire 1 O" inst10|altsyncram_component|auto_generated|ram_block1a0_PORTADATAOUT_bus [2] $end
$var wire 1 P" inst10|altsyncram_component|auto_generated|ram_block1a0_PORTADATAOUT_bus [1] $end
$var wire 1 Q" inst10|altsyncram_component|auto_generated|ram_block1a0_PORTADATAOUT_bus [0] $end
$upscope $end
$upscope $end
$enddefinitions $end
#0
$dumpvars
0!
x(
x'
x&
x%
x$
x#
x"
x/
x.
x-
x,
x+
x*
x)
x6
x5
x4
x3
x2
x1
x0
x=
0<
x;
x:
x9
x8
x7
xE
xD
xC
xB
xA
x@
x?
x>
xF
0G
1H
xI
1J
1K
1L
xM
xN
xO
xP
xQ
xR
xS
xT
xU
xV
xW
xX
xY
xZ
x[
x\
x]
x^
x_
x`
xa
xb
xc
xd
xe
xf
0g
xh
xi
xj
xk
xl
xm
xn
xo
xp
0q
xr
xs
xt
xu
xv
xw
xx
xy
xz
x{
x|
x}
x~
x!!
x"!
x#!
x$!
x%!
x&!
x'!
x(!
x)!
x*!
x+!
x,!
x-!
x.!
x/!
x0!
x1!
x2!
x3!
x4!
x5!
x6!
x7!
x8!
x9!
x:!
x;!
x<!
x=!
x>!
x?!
x@!
xA!
xB!
xC!
xD!
xE!
xF!
xG!
xH!
xI!
xJ!
xK!
xL!
xM!
xN!
xO!
xP!
xQ!
xR!
xS!
xT!
xU!
xV!
xW!
xX!
xY!
xZ!
x[!
x\!
x]!
x^!
x_!
x`!
xa!
xb!
xc!
xd!
xe!
xf!
xg!
xh!
xi!
xj!
0r!
0q!
0p!
0o!
0n!
0m!
0l!
0k!
0z!
0y!
0x!
0w!
0v!
0u!
0t!
0s!
0~!
0}!
0|!
0{!
0%"
0$"
0#"
0""
0!"
0-"
0,"
0+"
0*"
0)"
0("
0'"
0&"
0?"
0>"
0="
0<"
0;"
0:"
09"
08"
07"
06"
05"
04"
03"
02"
01"
00"
0/"
0."
0Q"
0P"
0O"
0N"
0M"
0L"
0K"
0J"
0I"
0H"
0G"
0F"
0E"
0D"
0C"
0B"
0A"
0@"
$end
#145
0r
#448
16!
#449
1|
#451
17!
#558
0%!
#567
0}
#669
0x
#673
04!
#676
00!
#677
0,!
#678
0t
#681
0(!
#717
1s
#720
1'!
#730
08!
#799
12!
#801
1z
#803
1.!
1v
#804
1*!
#830
0#!
#834
0&!
#846
0"!
#848
0!!
#852
0$!
#876
0~
#1046
0S!
#1054
1V!
#1106
0y
#1110
05!
#1113
01!
#1114
0-!
#1115
0u
#1118
0)!
#1139
0R!
#1157
0\!
#1236
03!
#1238
0{
#1240
0w
0/!
#1241
0+!
#1282
0;!
#1291
0W!
#1307
0U!
#1335
1:!
#1363
09!
#1478
0X!
#1880
0>!
#1900
1Q!
#1975
0j!
#2106
1g!
#2108
0Z!
#2109
1^!
#2137
1=!
#2138
1<!
#2168
0A!
#2480
1T!
#2488
0B!
#2499
0]!
#2913
1?!
#2963
0h!
#3039
1i!
#3091
0_!
#3246
0R
0'
#3348
1@!
#3468
0e!
#3530
0S
0(
#3557
0l
0A
#3595
0P
0i
0%
0>
#3615
1M
1"
#3624
0N
0#
#3640
0O
0Q
0$
0&
#3676
1Y!
1D!
#3677
1C!
#3880
0o
0D
#3942
0F!
#3960
0m
0B
#3998
0E!
#4008
1b
1H!
17
#4157
0[!
#4162
1P!
#4220
0k
0@
#4376
0j
0?
#4446
0f
0;
#4511
0p
0E
#4515
0G!
#4665
1`!
#4669
1d!
#4762
1J!
#4910
1a!
#4921
0f!
0c!
#4931
0b!
#5036
0K!
#5050
0d
09
#5069
0N!
#5072
1M!
#5076
0O!
#5083
0L!
#5418
0c
08
#5557
1I!
#5604
0e
0h
0:
0=
#5637
0n
0C
#5943
0`
05
#7379
0a
0^
06
03
#7415
0]
02
#7420
0_
04
#7463
0U
0*
#7476
0\
01
#7597
1[
10
#7757
0V
0+
#7825
0Z
0/
#7828
0Y
0.
#7829
0W
0,
#7888
0X
0-
#8101
1T
1)
#10000
1!
0F
#10775
1q
#10938
1r
#12625
1%"
#12628
1r!
#13265
0s
#13269
0'!
#13334
1t
#13338
1(!
#13789
1u
#13793
1)!
#20000
0!
1F
#20936
0q
#21081
0r
#30000
1!
0F
#30775
1q
#30938
1r
#32625
1$"
0%"
#32628
1q!
0r!
#33019
1?"
1>"
1="
1<"
1~!
1}!
1|!
1{!
#33020
1Q"
1P"
1O"
1N"
1M"
1L"
1K"
1I"
1H"
1G"
1F"
1E"
1D"
1C"
1z!
1y!
1x!
1w!
1v!
1u!
1t!
1-"
1,"
1+"
1*"
1)"
1("
1'"
#33215
0v
#33219
0*!
#33270
0u
#33274
0)!
#33303
0t
#33309
0(!
#33342
1s
#33348
1'!
#33361
1v
#33367
1*!
#33758
1u
#33764
1)!
#33837
1$!
#33840
1%!
#33850
1~
#33863
1#!
#33917
0J!
#33918
1K!
#33919
1L!
#33920
1O!
#33948
0C!
#34062
19!
#34076
0H!
#34115
0<!
#34117
1>!
#34153
1U!
#34271
0V!
#34386
0Y!
#34405
1E!
#34471
1F!
#34573
0@!
#34659
0Q!
#34734
1X!
#34759
0D!
#34832
1<!
#34853
0=!
#34854
0L!
#34856
0O!
#34857
0I!
#34903
1[!
#34940
1C!
#35119
1H!
#35142
0F!
#35207
1B!
#35260
0P!
#35304
1]!
0T!
#35333
0g!
#35334
0^!
#35337
0[!
#35360
0d!
0E!
#35364
0`!
#35365
0a!
#35420
1D!
#35421
1I!
#35448
1@!
#35449
1L!
#35518
1Y!
#35546
1G!
#35767
0C!
#35845
1`!
#35849
1d!
#35862
0L!
#35863
1N!
#35864
0I!
#35873
1J!
#36009
1[!
#36042
0B!
#36049
1c!
#36060
1f!
#36071
1b!
#36206
1h!
#36224
1E!
#36291
0i!
#36406
0G!
#36431
0N!
#36464
0c!
#36469
0f!
#36470
0`!
#36527
1l
1A
#36592
1R
1'
#36641
0H!
#36655
0M
0"
#36678
1P
1%
#36686
1Q
1&
#36711
1V
1+
#36824
1o
1D
#36847
1P!
#36932
1m
1B
#37176
1k
1@
#37330
0T
0)
#37377
1j
1?
#37422
0J!
#37429
1L!
#37432
1I!
#37458
1p
1E
#37576
0d!
#37616
0b!
#37867
1\
11
#38196
1d
19
#38493
1n
1C
#38729
1c
18
#38790
1h
1=
#38793
1e
1:
#39318
0[
00
#39976
1T
1)
#40000
0!
1F
#40050
1U
1*
#40246
1W
1,
#40259
1_
14
#40936
0q
#41081
0r
#50000
1!
0F
#50775
1q
#50938
1r
#52625
1%"
#52628
1r!
#53019
0?"
0>"
0="
0<"
0~!
0}!
0|!
0{!
#53020
0Q"
0O"
0N"
0M"
0L"
0K"
1J"
0I"
0G"
0F"
0E"
0D"
0C"
1B"
0z!
0x!
0w!
0v!
0u!
0t!
1s!
0-"
0+"
0*"
0)"
0("
0'"
1&"
#53265
0s
#53269
0'!
#53334
1t
#53338
1(!
#53392
0v
#53396
0*!
#53577
0%!
#53697
0#!
#53771
0u
#53775
0)!
#53847
1w
#53851
1+!
#53871
0$!
#53895
0~
#53931
1J!
#53932
0I!
#53933
0K!
0L!
#53936
1N!
#53986
1C!
#54074
1V!
#54118
1Q!
#54125
1=!
#54131
0>!
#54179
0]!
#54302
0?!
#54327
0U!
0:!
#54406
0E!
#54446
1W!
#54498
0X!
#54696
0@!
#54698
1T!
#54894
0W!
#54901
1?!
#54920
1>!
#54951
1X!
#54957
0Q!
#55051
0D!
#55053
0C!
#55193
0=!
#55200
0<!
#55324
1F!
#55411
1H!
#55465
1_!
#55468
0J!
#55477
0N!
#55485
0M!
#55510
1E!
#55546
0F!
#55551
1Z!
#55552
0P!
#55602
1]!
0T!
#55695
1g!
#55698
0[!
#55702
1^!
#55788
1@!
#55808
1a!
#55811
1e!
#55816
1B!
#55839
1D!
#56106
0D!
#56117
1C!
#56155
1M!
1G!
#56165
1J!
#56166
1I!
#56206
1`!
#56265
0R
0'
#56332
1d!
#56347
1[!
#56349
0^!
#56363
0e!
#56368
1F!
#56371
0Z!
#56380
0g!
#56382
0B!
#56405
0T
0)
#56462
0P
0%
#56504
0I!
#56508
1K!
#56537
1O!
0E!
#56554
1L!
#56577
0l
0A
#56578
1i
1>
#56589
1P!
#56628
1i!
#56634
1M
1"
#56654
0V
0+
#56659
0Q
0&
#56669
0_!
#56679
0W
0,
#56803
1c!
#56897
0G!
#56980
0m
0B
#57021
0a!
#57043
0`!
#57050
0c!
#57133
0O!
#57153
1N!
#57156
0L!
#57170
1I!
#57180
0K!
#57190
0M!
#57200
0P!
#57240
0k
0@
#57318
0d!
#57338
0i!
#57396
0j
0?
#57531
0p
0E
#57569
0I!
#57608
0N!
#57611
1M!
#57939
1I!
#57980
1d!
#58011
1b!
#58657
0n
0C
#58866
0U
0*
#60000
0!
1F
#60483
1T
1)
#60558
1]
12
#60731
0_
04
#60936
0q
#61081
0r
#70000
1!
0F
#70775
1q
#70938
1r
#72625
0$"
1#"
0%"
#72628
0q!
1p!
0r!
#73020
1Q"
0P"
1O"
1I"
0H"
1G"
1z!
0y!
1x!
1-"
0,"
1+"
#73258
0w
#73269
0+!
#73303
0t
#73309
0(!
#73327
1x
#73342
1s
#73346
1,!
#73348
1'!
#73428
1v
#73432
1*!
#73486
0x
#73490
0,!
#73883
1w
#73887
1+!
#73917
0J!
#73918
1K!
#73919
1L!
#73920
1O!
#73948
0C!
#74104
1E!
#74105
1G!
#74109
0H!
#74404
0E!
#74405
0G!
#74887
0L!
#74889
0O!
#74890
0I!
#76545
1U
1*
#76711
1V
1+
#76900
0o
0D
#77363
0T
0)
#77458
1p
1E
#78493
1n
1C
#80000
0!
1F
#80936
0q
#81081
0r
#90000
1!
0F
#90775
1q
#90938
1r
#92625
1%"
#92628
1r!
#93020
0Q"
0O"
1N"
0I"
0G"
1F"
0z!
0x!
1w!
0-"
0+"
1*"
#93265
0s
#93269
0'!
#93334
1t
#93338
1(!
#93789
1u
#93793
1)!
#93933
0K!
#93935
0M!
#93986
1C!
#93990
1D!
#94116
1<!
1A!
#94322
1H!
#94409
1G!
#94420
1B!
#94426
0F!
#94476
1P!
#94961
1E!
#94967
0H!
#94999
0G!
#95066
1M!
#95076
1J!
#95077
1I!
#95205
0d!
#95206
0P!
#95245
0b!
#95748
0I!
#95982
1N!
#95986
1d!
#96017
1b!
#96654
0V
0+
#96932
1m
1B
#97531
0p
0E
#97777
0U
0*
#98657
0n
0C
#98811
1Y
1.
#100000
0!
1F
#100936
0q
#101081
0r
#110000
1!
0F
#110775
1q
#110938
1r
#112625
1$"
0%"
#112628
1q!
0r!
#113019
1>"
1}!
#113020
1Q"
1P"
1I"
1H"
1z!
1y!
1-"
1,"
#113215
0v
#113219
0*!
#113270
0u
#113273
1x
#113274
0)!
#113277
1,!
#113303
0t
#113309
0(!
#113342
1s
#113348
1'!
#113361
1v
#113367
1*!
#113419
0x
#113425
0,!
#113758
1u
#113764
1)!
#113837
1$!
#113838
1!!
#113850
1~
#113917
0J!
#113918
1K!
#113919
1L!
#113920
1I!
#113922
0N!
#114062
1H!
#114072
1G!
#114080
0E!
#114805
0L!
#114816
1J!
#115112
0I!
#116655
0M
0"
#116671
1N
1#
#116681
0Y
0.
#116686
1Q
1&
#116711
1V
1+
#116824
1o
1D
#117458
1p
1E
#120000
0!
1F
#120936
0q
#121081
0r
#130000
1!
0F
#130775
1q
#130938
1r
#132625
1%"
#132628
1r!
#133019
0>"
0}!
#133020
0Q"
1O"
0I"
1G"
0z!
1x!
0-"
1+"
#133265
0s
#133269
0'!
#133334
1t
#133338
1(!
#133392
0v
#133396
0*!
#133450
1x
#133454
1,!
#133771
0u
#133775
0)!
#133829
0w
#133833
0+!
#133867
0!!
#133871
0$!
#133895
0~
#133905
1y
#133909
1-!
#133933
0K!
#133948
0?!
0C!
#134405
1E!
#134415
0@!
#134746
0Y!
#134782
1C!
#135057
0B!
#135202
0E!
#135253
0[!
#135421
1I!
0G!
#135426
1N!
#135449
0M!
#135522
1_!
#135656
0H!
#135862
1P!
#135865
1a!
#135868
1e!
#136273
0N!
#136276
1M!
#136428
0M!
#136437
0J!
0I!
#136605
1c!
#136609
1f!
#136619
0e!
#136634
1M
1"
#136643
0N
0#
#136654
0V
0+
#136659
0Q
0&
#137531
0p
0E
#138198
1X
1-
#138431
0\
01
#138493
1n
1C
#139065
1U
1*
#139128
1^
13
#139131
1a
16
#140000
0!
1F
#140936
0q
#141081
0r
#150000
1!
0F
#150775
1q
#150938
1r
#152625
0$"
0#"
1""
0%"
#152628
0q!
0p!
1o!
0r!
#152992
0|
#153019
1>"
1="
1<"
1}!
1|!
1{!
#153020
1Q"
0P"
0O"
0N"
1M"
1I"
0H"
0G"
0F"
1E"
1z!
0y!
0x!
0w!
1v!
1-"
0,"
0+"
0*"
1)"
#153214
0z
#153218
0.!
#153267
0y
#153273
0-!
#153294
0x
#153303
0t
#153305
0,!
#153309
0(!
#153316
1|
#153333
1w
#153342
1+!
1s
#153348
1'!
#153352
1z
#153363
1.!
#153428
1v
#153432
1*!
#153558
1$!
1%!
#153749
1y
#153760
1-!
#153850
1~
#153865
0w
#153869
0+!
#153918
1K!
#153923
1M!
#153984
1?!
0C!
#153986
1F!
#153988
0D!
#153990
1B!
#154052
09!
#154063
1;!
#154065
1:!
#154095
1H!
#154128
0A!
#154131
0<!
#154338
0H!
#154419
1@!
#154477
0F!
#154599
0@!
#154610
0>!
#154611
0?!
#154770
1D!
#154890
1A!
#155063
1G!
#155184
0B!
#155246
0P!
#155548
0G!
#155775
1E!
#155776
1H!
#155989
1P!
#156045
1e!
#156051
0c!
#156058
0f!
#156310
1R
1'
#156407
1Q
1&
#156527
1l
1A
#156655
0M
0"
#156711
1V
1+
#156732
1c!
#156736
1f!
#156739
0X
0-
#156746
0e!
#156796
1N!
#156804
1J!
#156900
0o
0D
#156980
0m
0B
#157458
1p
1E
#158657
0n
0C
#159505
0U
0*
#159625
1Y
1.
#160000
0!
1F
#160936
0q
#161081
0r
#170000
1!
0F
#170775
1q
#170938
1r
#172625
1%"
#172628
1r!
#173019
0>"
0="
0<"
0}!
0|!
0{!
#173020
0Q"
1O"
0I"
1G"
0z!
1x!
0-"
1+"
#173206
0|
#173265
0s
#173269
0'!
#173334
1t
#173338
1(!
#173696
0%!
#173789
1u
#173793
1)!
#173871
0$!
#173895
0~
#173934
1L!
#173935
0N!
#173937
1O!
#173950
1C!
1F!
#174370
0E!
#174492
1G!
#175408
0K!
#175448
0O!
#175455
0L!
#176384
0R
0'
#176634
1M
1"
#176659
0Q
0&
#176694
0Y
0.
#177531
0p
0E
#178129
0V
0+
#178493
1n
1C
#180000
0!
1F
#180936
0q
#181081
0r
#190000
1!
0F
#190775
1q
#190938
1r
#192625
1$"
0%"
#192628
1q!
0r!
#193020
1Q"
1P"
1I"
1H"
1z!
1y!
1-"
1,"
#193215
0v
#193219
0*!
#193270
0u
#193274
0)!
#193303
0t
#193309
0(!
#193342
1s
#193348
1'!
#193361
1v
#193367
1*!
#193758
1u
#193764
1)!
#193918
1K!
#194055
0D!
#194076
0H!
#194080
0G!
#194415
1H!
#194556
0P!
#195103
1O!
#195107
0J!
#195113
1L!
#195122
1I!
#195355
1e!
#195361
0c!
#195368
0f!
#196711
1V
1+
#196824
1o
1D
#197458
1p
1E
#197666
1T
1)
#197735
1U
1*
#197819
0^
03
#197826
0a
06
#197894
1`
15
#197917
1Z
1/
#197930
1W
1,
#200000
0!
1F
#200936
0q
#201081
0r
#210000
1!
0F
#210775
1q
#210938
1r
#212625
1%"
#212628
1r!
#213020
0Q"
0O"
1N"
0I"
0G"
1F"
0z!
0x!
1w!
0-"
0+"
1*"
#213265
0s
#213269
0'!
#213334
1t
#213338
1(!
#213392
0v
#213396
0*!
#213771
0u
#213775
0)!
#213847
1w
#213851
1+!
#213931
1J!
#213933
0K!
0L!
#213936
0O!
#213984
0C!
0F!
#213990
1D!
#214115
0A!
#214116
1<!
#214117
1>!
#214279
1?!
#214312
0H!
#214436
1F!
#214441
1E!
#214476
1P!
#214709
0D!
#215069
1H!
#215084
0M!
#215093
0J!
0I!
#215210
0P!
#215219
1c!
#215223
1f!
#215233
0e!
#215462
1N!
#215470
1J!
#215480
1M!
#215803
0N!
#215820
1O!
#215822
1L!
#215823
1K!
#216009
1e!
#216015
0c!
#216022
0f!
#216632
0U
0*
#216932
1m
1B
#217531
0p
0E
#217566
0T
0)
#218657
0n
0C
#220000
0!
1F
#220936
0q
#221081
0r
#230000
1!
0F
#230775
1q
#230938
1r
#232625
0$"
1#"
0%"
#232628
0q!
1p!
0r!
