NWPU_DIgitalCircuiitExperiments_Xmk_Xyr/Test/4/testfinal/test4/simulation/qsim/test4.msim.vcd
$comment
	File created using the following command:
		vcd file test4.msim.vcd -direction
$end
$date
	Sat Jun 24 20:43:01 2023
$end
$version
	ModelSim Version 10.1d
$end
$timescale
	1ps
$end
$scope module test4_vlg_vec_tst $end
$var reg 1 ! clk $end
$var reg 1 " enable $end
$var wire 1 # out_1Hz $end
$var wire 1 $ out_10Hz $end
$var wire 1 % sampler $end
$scope module i1 $end
$var wire 1 & gnd $end
$var wire 1 ' vcc $end
$var wire 1 ( unknown $end
$var tri1 1 ) devclrn $end
$var tri1 1 * devpor $end
$var tri1 1 + devoe $end
$var wire 1 , out_10Hz~output_o $end
$var wire 1 - out_1Hz~output_o $end
$var wire 1 . clk~input_o $end
$var wire 1 / clk~inputclkctrl_outclk $end
$var wire 1 0 Add0~0_combout $end
$var wire 1 1 enable~input_o $end
$var wire 1 2 Add0~1 $end
$var wire 1 3 Add0~2_combout $end
$var wire 1 4 Add0~3 $end
$var wire 1 5 Add0~4_combout $end
$var wire 1 6 Add0~5 $end
$var wire 1 7 Add0~6_combout $end
$var wire 1 8 Add0~7 $end
$var wire 1 9 Add0~8_combout $end
$var wire 1 : Add0~9 $end
$var wire 1 ; Add0~10_combout $end
$var wire 1 < count_10Hz~7_combout $end
$var wire 1 = Equal0~5_combout $end
$var wire 1 > Add0~11 $end
$var wire 1 ? Add0~12_combout $end
$var wire 1 @ Add0~13 $end
$var wire 1 A Add0~14_combout $end
$var wire 1 B count_10Hz~6_combout $end
$var wire 1 C Add0~15 $end
$var wire 1 D Add0~16_combout $end
$var wire 1 E count_10Hz~5_combout $end
$var wire 1 F Add0~17 $end
$var wire 1 G Add0~18_combout $end
$var wire 1 H Add0~19 $end
$var wire 1 I Add0~20_combout $end
$var wire 1 J count_10Hz~4_combout $end
$var wire 1 K Add0~21 $end
$var wire 1 L Add0~22_combout $end
$var wire 1 M Add0~23 $end
$var wire 1 N Add0~24_combout $end
$var wire 1 O Add0~25 $end
$var wire 1 P Add0~26_combout $end
$var wire 1 Q count_10Hz~3_combout $end
$var wire 1 R Equal0~2_combout $end
$var wire 1 S Equal0~3_combout $end
$var wire 1 T Add0~27 $end
$var wire 1 U Add0~28_combout $end
$var wire 1 V Add0~29 $end
$var wire 1 W Add0~30_combout $end
$var wire 1 X Add0~31 $end
$var wire 1 Y Add0~32_combout $end
$var wire 1 Z Add0~33 $end
$var wire 1 [ Add0~34_combout $end
$var wire 1 \ count_10Hz~2_combout $end
$var wire 1 ] Add0~35 $end
$var wire 1 ^ Add0~36_combout $end
$var wire 1 _ count_10Hz~1_combout $end
$var wire 1 ` Add0~37 $end
$var wire 1 a Add0~38_combout $end
$var wire 1 b Add0~39 $end
$var wire 1 c Add0~40_combout $end
$var wire 1 d Add0~41 $end
$var wire 1 e Add0~42_combout $end
$var wire 1 f count_10Hz~0_combout $end
$var wire 1 g Equal0~0_combout $end
$var wire 1 h Equal0~1_combout $end
$var wire 1 i Equal0~4_combout $end
$var wire 1 j Equal0~6_combout $end
$var wire 1 k flipflop_10Hz~0_combout $end
$var wire 1 l flipflop_10Hz~q $end
$var wire 1 m Add1~0_combout $end
$var wire 1 n Add1~1 $end
$var wire 1 o Add1~2_combout $end
$var wire 1 p Add1~3 $end
$var wire 1 q Add1~4_combout $end
$var wire 1 r Add1~5 $end
$var wire 1 s Add1~6_combout $end
$var wire 1 t Add1~7 $end
$var wire 1 u Add1~8_combout $end
$var wire 1 v Add1~9 $end
$var wire 1 w Add1~10_combout $end
$var wire 1 x Add1~11 $end
$var wire 1 y Add1~12_combout $end
$var wire 1 z count_1Hz~11_combout $end
$var wire 1 { Add1~13 $end
$var wire 1 | Add1~14_combout $end
$var wire 1 } Add1~15 $end
$var wire 1 ~ Add1~16_combout $end
$var wire 1 !! Equal1~5_combout $end
$var wire 1 "! Add1~17 $end
$var wire 1 #! Add1~18_combout $end
$var wire 1 $! Add1~19 $end
$var wire 1 %! Add1~20_combout $end
$var wire 1 &! Add1~21 $end
$var wire 1 '! Add1~22_combout $end
$var wire 1 (! count_1Hz~10_combout $end
$var wire 1 )! Add1~23 $end
$var wire 1 *! Add1~24_combout $end
$var wire 1 +! count_1Hz~9_combout $end
$var wire 1 ,! Add1~25 $end
$var wire 1 -! Add1~26_combout $end
$var wire 1 .! count_1Hz~8_combout $end
$var wire 1 /! Add1~27 $end
$var wire 1 0! Add1~28_combout $end
$var wire 1 1! count_1Hz~7_combout $end
$var wire 1 2! Add1~29 $end
$var wire 1 3! Add1~30_combout $end
$var wire 1 4! Add1~31 $end
$var wire 1 5! Add1~32_combout $end
$var wire 1 6! count_1Hz~6_combout $end
$var wire 1 7! Equal1~2_combout $end
$var wire 1 8! Add1~33 $end
$var wire 1 9! Add1~34_combout $end
$var wire 1 :! Add1~35 $end
$var wire 1 ;! Add1~36_combout $end
$var wire 1 <! count_1Hz~5_combout $end
$var wire 1 =! Add1~37 $end
$var wire 1 >! Add1~38_combout $end
$var wire 1 ?! count_1Hz~4_combout $end
$var wire 1 @! Add1~39 $end
$var wire 1 A! Add1~40_combout $end
$var wire 1 B! count_1Hz~3_combout $end
$var wire 1 C! Equal1~1_combout $end
$var wire 1 D! Equal1~3_combout $end
$var wire 1 E! Add1~41 $end
$var wire 1 F! Add1~42_combout $end
$var wire 1 G! count_1Hz~2_combout $end
$var wire 1 H! Add1~43 $end
$var wire 1 I! Add1~44_combout $end
$var wire 1 J! count_1Hz~1_combout $end
$var wire 1 K! Add1~45 $end
$var wire 1 L! Add1~46_combout $end
$var wire 1 M! Add1~47 $end
$var wire 1 N! Add1~48_combout $end
$var wire 1 O! count_1Hz~0_combout $end
$var wire 1 P! Equal1~0_combout $end
$var wire 1 Q! Equal1~4_combout $end
$var wire 1 R! Equal1~6_combout $end
$var wire 1 S! Equal1~7_combout $end
$var wire 1 T! flipflop_1Hz~0_combout $end
$var wire 1 U! flipflop_1Hz~q $end
$var wire 1 V! count_10Hz [21] $end
$var wire 1 W! count_10Hz [20] $end
$var wire 1 X! count_10Hz [19] $end
$var wire 1 Y! count_10Hz [18] $end
$var wire 1 Z! count_10Hz [17] $end
$var wire 1 [! count_10Hz [16] $end
$var wire 1 \! count_10Hz [15] $end
$var wire 1 ]! count_10Hz [14] $end
$var wire 1 ^! count_10Hz [13] $end
$var wire 1 _! count_10Hz [12] $end
$var wire 1 `! count_10Hz [11] $end
$var wire 1 a! count_10Hz [10] $end
$var wire 1 b! count_10Hz [9] $end
$var wire 1 c! count_10Hz [8] $end
$var wire 1 d! count_10Hz [7] $end
$var wire 1 e! count_10Hz [6] $end
$var wire 1 f! count_10Hz [5] $end
$var wire 1 g! count_10Hz [4] $end
$var wire 1 h! count_10Hz [3] $end
$var wire 1 i! count_10Hz [2] $end
$var wire 1 j! count_10Hz [1] $end
$var wire 1 k! count_10Hz [0] $end
$var wire 1 l! count_1Hz [24] $end
$var wire 1 m! count_1Hz [23] $end
$var wire 1 n! count_1Hz [22] $end
$var wire 1 o! count_1Hz [21] $end
$var wire 1 p! count_1Hz [20] $end
$var wire 1 q! count_1Hz [19] $end
$var wire 1 r! count_1Hz [18] $end
$var wire 1 s! count_1Hz [17] $end
$var wire 1 t! count_1Hz [16] $end
$var wire 1 u! count_1Hz [15] $end
$var wire 1 v! count_1Hz [14] $end
$var wire 1 w! count_1Hz [13] $end
$var wire 1 x! count_1Hz [12] $end
$var wire 1 y! count_1Hz [11] $end
$var wire 1 z! count_1Hz [10] $end
$var wire 1 {! count_1Hz [9] $end
$var wire 1 |! count_1Hz [8] $end
$var wire 1 }! count_1Hz [7] $end
$var wire 1 ~! count_1Hz [6] $end
$var wire 1 !" count_1Hz [5] $end
$var wire 1 "" count_1Hz [4] $end
$var wire 1 #" count_1Hz [3] $end
$var wire 1 $" count_1Hz [2] $end
$var wire 1 %" count_1Hz [1] $end
$var wire 1 &" count_1Hz [0] $end
$upscope $end
$upscope $end
$enddefinitions $end
#0
$dumpvars
0!
1"
x0!
x1!
x2!
x3!
x4!
x5!
x6!
x7!
x8!
x9!
x:!
x;!
x<!
x=!
x>!
x?!
x@!
xA!
xB!
xC!
xD!
xE!
xF!
xG!
xH!
xI!
xJ!
xK!
xL!
xM!
xN!
xO!
xP!
xQ!
xR!
xS!
xT!
0U!
0k!
0j!
0i!
0h!
0g!
0f!
0e!
0d!
0c!
0b!
0a!
0`!
0_!
0^!
0]!
0\!
0[!
0Z!
0Y!
0X!
0W!
0V!
x#
x$
x%
0&
1'
x(
1)
1*
1+
x,
x-
0.
x/
x0
11
x2
x3
x4
x5
x6
x7
x8
x9
x:
x;
x<
x=
x>
x?
x@
xA
xB
xC
xD
xE
xF
xG
xH
xI
xJ
xK
xL
xM
xN
xO
xP
xQ
xR
xS
xT
xU
xV
xW
xX
xY
xZ
x[
x\
x]
x^
x_
x`
xa
xb
xc
xd
xe
xf
xg
xh
xi
xj
xk
0l
xm
xn
xo
xp
xq
xr
xs
xt
xu
xv
xw
xx
xy
xz
x{
x|
x}
x~
x!!
x"!
x#!
x$!
x%!
x&!
x'!
x(!
x)!
x*!
x+!
x,!
x-!
x.!
x/!
0&"
0%"
0$"
0#"
0""
0!"
0~!
0}!
0|!
0{!
0z!
0y!
0x!
0w!
0v!
0u!
0t!
0s!
0r!
0q!
0p!
0o!
0n!
0m!
0l!
$end
#145
0/
#416
0R!
#554
0P!
#555
07!
#651
0"!
#653
0v
#654
06
#655
0{
#656
0d
#657
0C!
#661
0&!
0n
0O
0g
#663
0:
0R
#664
0E!
0`
#665
0@
#666
0r
0V
#667
02
#668
0Z
#670
0,!
0S
#677
0=
#698
1m
#706
10
#777
1}
#782
1b
1>
#784
08!
#785
0=!
1$!
#786
14!
#787
1M!
#788
1H!
1:!
1p
14
#789
1T
1M
1H
#791
0K!
1x
1t
1X
18
#793
1]
#794
1)!
#810
02!
#816
0F
#817
0K
#828
0!!
#856
0h
#873
0Q!
#882
0D!
#913
1C
#917
0j
#937
1@!
#938
1/!
#1072
0S!
#1088
0#!
#1090
0w
#1091
07
#1092
0|
#1093
0e
#1098
0P
0o
0'!
#1100
0;
#1101
0a
0F!
#1102
0A
#1103
0W
0s
#1104
03
#1105
0[
#1107
0-!
#1214
0~
#1218
0i
#1219
0?
0c
#1221
09!
#1222
0%!
0>!
#1223
05!
#1224
0N!
#1225
05
0q
0;!
0I!
#1226
0I
0N
0U
#1228
09
0Y
0u
0y
0L!
#1230
0^
#1231
0*!
#1247
03!
#1253
0G
#1254
0L
#1292
0k
#1350
0D
#1374
0A!
#1375
00!
#1412
0f
#1419
0G!
#1424
0\
#1478
0T!
#1548
0(!
#1550
0Q
#1554
0+!
#1581
0B
#1679
0_
#1693
0B!
#1702
0O!
#1710
0<
#1807
0J!
#1819
0.!
#1832
06!
0?!
#1835
0<!
#1836
0J
#1838
0z
#1858
01!
#1995
0E
#3015
0-
0#
#3335
0,
0$
#5000
1!
0%
#5775
1.
#5938
1/
#7609
1k!
#7615
1&"
#8241
00
#8246
0m
#8310
12
#8323
1n
#8765
13
#8778
1o
#10000
0!
1%
#10936
0.
#11081
0/
#15000
1!
0%
#15775
1.
#15938
1/
#17609
0k!
1j!
#17615
0&"
1%"
#18189
04
#18194
0p
#18242
03
#18247
0o
#18276
02
0n
#18313
1m
#18315
10
#18334
14
1p
#18731
1o
13
#20000
0!
1%
#20936
0.
#21081
0/
#25000
1!
0%
#25775
1.
#25938
1/
#27609
1k!
#27615
1&"
#28241
00
#28246
0m
#28310
12
#28323
1n
#28368
04
#28381
0p
#28747
03
#28760
0o
#28823
15
#28836
1q
#30000
0!
1%
#30936
0.
#31081
0/
#35000
1!
0%
#35775
1.
#35938
1/
#37609
0k!
0j!
1i!
#37615
0&"
0%"
1$"
#38229
05
#38246
0q
#38276
02
0n
#38306
16
#38313
1m
#38315
1r
10
#38397
14
#38403
1p
#38455
06
#38461
0r
#38852
15
#38858
1q
#40000
0!
1%
#40936
0.
#41081
0/
#45000
1!
0%
#45775
1.
#45938
1/
#47609
1k!
#47615
1&"
#48241
00
#48246
0m
#48310
12
#48323
1n
#48765
13
#48778
1o
#50000
0!
1%
#50936
0.
#51081
0/
#55000
1!
0%
#55775
1.
#55938
1/
#57609
0k!
1j!
#57615
0&"
1%"
#58189
04
#58194
0p
#58242
03
#58247
16
0o
#58252
1r
#58276
02
0n
#58313
1m
#58315
10
#58334
14
1p
#58392
06
0r
#58731
1o
13
#60000
0!
1%
#60936
0.
#61081
0/
#65000
1!
0%
#65775
1.
#65938
1/
#67609
1k!
#67615
1&"
#68241
00
#68246
0m
#68310
12
#68323
1n
#68368
04
#68381
0p
#68426
16
#68439
1r
#68747
03
#68760
0o
#68805
05
#68818
0q
#68881
17
#68894
1s
#70000
0!
1%
#70936
0.
#71081
0/
#75000
1!
0%
#75775
1.
#75938
1/
#77609
0k!
0j!
0i!
1h!
#77615
0&"
0%"
0$"
1#"
#78190
08
#78196
0t
#78245
07
#78251
0s
#78263
06
#78276
02
0n
#78281
0r
#78300
15
#78313
1m
#78315
10
#78320
1q
#78321
18
#78339
1t
#78397
14
#78403
1p
#78718
17
#78736
1s
#78834
05
#78840
0q
#80000
0!
1%
#80936
0.
#81081
0/
#85000
1!
0%
#85775
1.
#85938
1/
#87609
1k!
#87615
1&"
#88241
00
#88246
0m
#88310
12
#88323
1n
#88765
13
#88778
1o
#90000
0!
1%
#90936
0.
#91081
0/
#95000
1!
0%
#95775
1.
#95938
1/
#97609
0k!
1j!
#97615
0&"
1%"
#98189
04
#98194
0p
#98242
03
#98247
0o
#98276
02
0n
#98313
1m
#98315
10
#98334
14
1p
#98731
1o
13
#100000
0!
1%
#100936
0.
#101081
0/
#105000
1!
0%
#105775
1.
#105938
1/
#107609
1k!
#107615
1&"
#108241
00
#108246
0m
#108310
12
#108323
1n
#108368
04
#108381
0p
#108747
03
#108760
0o
#108823
15
#108836
1q
#110000
0!
1%
#110936
0.
#111081
0/
#115000
1!
0%
#115775
1.
#115938
1/
#117609
0k!
0j!
1i!
#117615
0&"
0%"
1$"
#118229
05
#118246
0q
#118276
02
0n
#118306
16
#118313
1m
#118315
1r
10
#118364
08
#118373
0t
#118397
14
#118403
1p
#118455
06
#118461
0r
#118513
18
#118519
1t
#118852
15
#118858
1q
#120000
0!
1%
#120936
0.
#121081
0/
#125000
1!
0%
#125775
1.
#125938
1/
#127609
1k!
#127615
1&"
#128241
00
#128246
0m
#128310
12
#128323
1n
#128765
13
#128778
1o
#130000
0!
1%
#130936
0.
#131081
0/
#135000
1!
0%
#135775
1.
#135938
1/
#137609
0k!
1j!
#137615
0&"
1%"
#138189
04
#138194
0p
#138242
03
#138247
16
0o
#138252
1r
#138276
02
0n
#138305
08
#138310
0t
#138313
1m
#138315
10
#138334
14
1p
#138392
06
0r
#138450
18
1t
#138731
1o
13
#140000
0!
1%
#140936
0.
#141081
0/
#145000
1!
0%
#145775
1.
#145938
1/
#147609
1k!
#147615
1&"
#148241
00
#148246
0m
#148310
12
#148323
1n
#148368
04
#148381
0p
#148426
16
#148439
1r
#148484
08
#148497
0t
#148747
03
#148760
0o
#148805
05
#148818
0q
#148863
07
#148876
0s
#148939
19
#148952
1u
#150000
0!
1%
#150936
0.
#151081
0/
#155000
1!
0%
#155775
1.
#155938
1/
#157609
0k!
0j!
0i!
0h!
1g!
#157615
0&"
0%"
0$"
0#"
1""
#157970
1R!
#158234
0u
#158241
09
#158263
06
#158276
02
0n
#158281
0r
#158297
0R!
#158300
15
#158311
1v
#158313
1m
#158315
10
#158318
1:
#158320
1q
#158397
14
#158400
18
#158403
1p
#158406
1t
#158458
0:
#158464
0v
#158834
05
#158840
0q
#158855
19
#158861
1u
#160000
0!
1%
#160936
0.
#161081
0/
#165000
1!
0%
#165775
1.
#165938
1/
#167609
1k!
#167615
1&"
#168241
00
#168246
0m
#168310
12
#168323
1n
#168765
13
#168778
1o
#170000
0!
1%
#170936
0.
#171081
0/
#175000
1!
0%
#175775
1.
#175938
1/
#177609
0k!
1j!
#177615
0&"
1%"
#178189
04
#178194
0p
#178242
03
#178247
0o
#178276
02
0n
#178313
1m
#178315
10
#178334
14
1p
#178731
1o
13
#180000
0!
1%
#180936
0.
#181081
0/
#185000
1!
0%
#185775
1.
#185938
1/
#187609
1k!
#187615
1&"
#188241
00
#188246
0m
#188310
12
#188323
1n
#188368
04
#188381
0p
#188747
03
#188760
0o
#188823
15
#188836
1q
#190000
0!
1%
#190936
0.
#191081
0/
#195000
1!
0%
#195775
1.
#195938
1/
#197609
0k!
0j!
1i!
#197615
0&"
0%"
1$"
#198229
05
#198246
0q
#198276
02
0n
#198306
16
#198313
1m
#198315
1r
10
#198397
14
#198403
1p
#198455
06
#198461
0r
#198852
15
#198858
1q
#200000
0!
1%
#200936
0.
#201081
0/
#205000
1!
0%
#205775
1.
#205938
1/
#207609
1k!
#207615
1&"
#208241
00
#208246
0m
#208310
12
#208323
1n
#208765
13
#208778
1o
#210000
0!
1%
#210936
0.
#211081
0/
#215000
1!
0%
#215775
1.
#215938
1/
#217609
0k!
1j!
#217615
0&"
1%"
#218189
04
#218194
0p
#218242
03
#218247
16
0o
#218252
1r
#218276
02
0n
#218313
1m
#218315
10
#218334
14
1p
#218392
06
0r
#218731
1o
13
#220000
0!
1%
#220936
0.
#221081
0/
#225000
1!
0%
#225775
1.
#225938
1/
#227609
1k!
#227615
1&"
#228241
00
#228246
0m
#228310
12
#228323
1n
#228368
04
#228381
0p
#228426
16
#228439
1r
#228747
03
#228760
0o
#228805
05
#228818
0q
#228881
17
#228894
1s
#230000
0!
1%
#230936
0.
#231081
0/
#235000
1!
0%
#235775
1.
#235938
1/
#237609
0k!
0j!
0i!
1h!
#237615
0&"
0%"
0$"
1#"
#238190
08
#238196
0t
#238245
07
#238248
1:
#238251
0s
#238254
1v
#238263
06
#238276
02
0n
#238281
0r
#238300
15
#238313
1m
#238315
10
#238320
1q
#238321
18
#238339
1t
#238379
0:
#238397
0v
14
#238403
1p
#238718
17
#238736
1s
#238834
05
#238840
0q
#240000
0!
1%
#240936
0.
#241081
0/
#245000
1!
0%
#245775
1.
#245938
1/
#247609
1k!
#247615
1&"
#248241
00
#248246
0m
#248310
12
#248323
1n
#248765
13
#248778
1o
#250000
0!
1%
#250936
0.
#251081
0/
#255000
1!
0%
#255775
1.
#255938
1/
#257609
0k!
1j!
#257615
0&"
1%"
#258189
04
#258194
0p
#258242
03
#258247
0o
#258276
02
0n
#258313
1m
#258315
10
#258334
14
1p
#258731
1o
13
#260000
0!
1%
#260936
0.
#261081
0/
#265000
1!
0%
#265775
1.
#265938
1/
#267609
1k!
#267615
1&"
#268241
00
#268246
0m
#268310
12
#268323
1n
#268368
04
#268381
0p
#268747
03
#268760
0o
#268823
15
#268836
1q
#270000
0!
1%
#270936
0.
#271081
0/
#275000
1!
0%
#275775
1.
#275938
1/
#277609
0k!
0j!
1i!
#277615
0&"
0%"
1$"
#278191
1=
#278229
05
#278246
0q
#278276
02
0n
#278306
16
#278313
1m
#278315
1r
10
#278364
08
#278373
0t
#278397
14
#278403
1p
#278422
1:
#278431
1v
#278455
06
#278461
0r
#278513
18
#278519
1t
#278571
0:
#278577
0v
#278852
15
#278858
1q
#280000
0!
1%
#280936
0.
#281081
0/
#285000
1!
0%
#285775
1.
#285938
1/
#287609
1k!
#287615
1&"
#288241
00
#288246
0m
#288310
12
#288323
1n
#288765
13
#288778
1o
#290000
0!
1%
#290936
0.
#291081
0/
#295000
1!
0%
#295775
1.
#295938
1/
#297609
0k!
1j!
#297615
0&"
1%"
#298189
04
#298194
0p
#298242
03
#298247
16
0o
#298252
1r
#298276
02
0n
#298305
08
#298310
0t
#298313
1m
#298315
10
#298323
1R!
#298334
14
1p
#298363
1:
#298368
1v
#298392
06
0r
#298450
18
1t
#298508
0:
0v
#298731
1o
13
#300000
0!
1%
#300936
0.
#301081
0/
#305000
1!
0%
#305775
1.
#305938
1/
#307609
1k!
#307615
1&"
#308241
00
#308246
0m
#308310
12
#308323
1n
#308368
04
#308381
0p
#308426
16
#308439
1r
#308484
08
#308497
0t
#308542
1:
#308555
1v
#308747
03
#308760
0o
#308805
05
#308818
0q
#308863
07
#308876
0s
#308921
09
#308934
0u
#308997
1;
#309010
1w
#309553
1<
#310000
0!
1%
#310936
0.
#311081
0/
#315000
1!
0%
#315775
1.
#315938
1/
#317609
0k!
0j!
0i!
0h!
0g!
1f!
#317615
0&"
0%"
0$"
0#"
0""
1!"
#317951
0=
#318031
0R!
#318178
0>
#318196
0x
#318233
0;
#318251
0w
#318263
06
#318268
0v
#318272
0:
#318276
02
0n
#318281
0r
#318300
15
#318305
1u
#318309
19
#318313
1m
#318315
10
#318320
1q
#318326
1x
#318330
1>
#318375
1!!
#318397
14
#318400
18
#318403
1p
#318406
1t
#318723
1w
#318727
1;
#318834
05
#318837
09
#318840
0q
#318843
0u
0<
#319283
1<
#320000
0!
1%
#320936
0.
#321081
0/
#325000
1!
0%
#325775
1.
#325938
1/
#327609
1k!
#327615
1&"
#328241
00
#328246
0m
#328310
12
#328323
1n
#328765
13
#328778
1o
#330000
0!
1%
#330936
0.
#331081
0/
#335000
1!
0%
#335775
1.
#335938
1/
#337609
0k!
1j!
#337615
0&"
1%"
#338189
04
#338194
0p
#338242
03
#338247
0o
#338276
02
0n
#338313
1m
#338315
10
#338334
14
1p
#338731
1o
13
#340000
0!
1%
#340936
0.
#341081
0/
#345000
1!
0%
#345775
1.
#345938
1/
#347609
1k!
#347615
1&"
#348241
00
#348246
0m
#348310
12
#348323
1n
#348368
04
#348381
0p
#348747
03
#348760
0o
#348823
15
#348836
1q
#350000
0!
1%
#350936
0.
#351081
0/
#355000
1!
0%
#355775
1.
#355938
1/
#357609
0k!
0j!
1i!
#357615
0&"
0%"
1$"
#358229
05
#358246
0q
#358276
02
0n
#358306
16
#358313
1m
#358315
1r
10
#358397
14
#358403
1p
#358455
06
#358461
0r
#358852
15
#358858
1q
#360000
0!
1%
#360936
0.
#361081
0/
#365000
1!
0%
#365775
1.
#365938
1/
#367609
1k!
#367615
1&"
#368241
00
#368246
0m
#368310
12
#368323
1n
#368765
13
#368778
1o
#370000
0!
1%
#370936
0.
#371081
0/
#375000
1!
0%
#375775
1.
#375938
1/
#377609
0k!
1j!
#377615
0&"
1%"
#378189
04
#378194
0p
#378242
03
#378247
16
0o
#378252
1r
#378276
02
0n
#378313
1m
#378315
10
#378334
14
1p
#378392
06
0r
#378731
1o
13
#380000
0!
1%
#380936
0.
#381081
0/
#385000
1!
0%
#385775
1.
#385938
1/
#387609
1k!
#387615
1&"
#388241
00
#388246
0m
#388310
12
#388323
1n
#388368
04
#388381
0p
#388426
16
#388439
1r
#388747
03
#388760
0o
#388805
05
#388818
0q
#388881
17
#388894
1s
#390000
0!
1%
#390936
0.
#391081
0/
#395000
1!
0%
#395775
1.
#395938
1/
#397609
0k!
0j!
0i!
1h!
#397615
0&"
0%"
0$"
1#"
#398190
08
#398196
0t
#398245
07
#398251
0s
#398263
06
#398276
02
0n
#398281
0r
#398300
15
#398313
1m
#398315
10
#398320
1q
#398321
18
#398339
1t
#398397
14
#398403
1p
#398718
17
#398736
1s
#398834
05
#398840
0q
#400000
0!
1%
#400936
0.
#401081
0/
#405000
1!
0%
#405775
1.
#405938
1/
#407609
1k!
#407615
1&"
#408241
00
#408246
0m
#408310
12
#408323
1n
#408765
13
#408778
1o
#410000
0!
1%
#410936
0.
#411081
0/
#415000
1!
0%
#415775
1.
#415938
1/
#417609
0k!
1j!
#417615
0&"
1%"
#418189
04
#418194
0p
#418242
03
#418247
0o
#418276
02
0n
#418313
1m
#418315
10
#418334
14
1p
#418731
1o
13
#420000
0!
1%
#420936
0.
#421081
0/
#425000
1!
0%
#425775
1.
#425938
1/
#427609
1k!
#427615
1&"
#428241
00
#428246
0m
#428310
12
#428323
1n
#428368
04
#428381
0p
#428747
03
#428760
0o
#428823
15
#428836
1q
#430000
0!
1%
#430936
0.
#431081
0/
#435000
1!
0%
#435775
1.
#435938
1/
#437609
0k!
0j!
1i!
#437615
0&"
0%"
1$"
#438229
05
#438246
0q
#438276
02
0n
#438306
16
#438313
1m
#438315
1r
10
#438364
08
#438373
0t
#438397
14
#438403
1p
#438455
06
#438461
0r
#438513
18
#438519
1t
#438852
15
#438858
1q
#440000
0!
1%
#440936
0.
#441081
0/
#445000
1!
0%
#445775
1.
#445938
1/
#447609
1k!
#447615
1&"
#448241
00
#448246
0m
#448310
12
#448323
1n
#448765
13
#448778
1o
#450000
0!
1%
#450936
0.
#451081
0/
#455000
1!
0%
#455775
1.
#455938
1/
#457609
0k!
1j!
#457615
0&"
1%"
#458189
04
#458194
0p
#458242
03
#458247
16
0o
#458252
1r
#458276
02
0n
#458305
08
#458310
0t
#458313
1m
#458315
10
#458334
14
1p
#458392
06
0r
#458450
18
1t
#458731
1o
13
#460000
0!
1%
#460936
0.
#461081
0/
#465000
1!
0%
#465775
1.
#465938
1/
#467609
1k!
#467615
1&"
#468241
00
#468246
0m
#468310
12
#468323
1n
#468368
04
#468381
0p
#468426
16
#468439
1r
#468484
08
#468497
0t
#468747
03
#468760
0o
#468805
05
#468818
0q
#468863
07
#468876
0s
#468939
19
#468952
1u
#470000
0!
1%
#470936
0.
#471081
0/
#475000
1!
0%
#475775
1.
#475938
1/
#477609
0k!
0j!
0i!
0h!
1g!
#477615
0&"
0%"
0$"
0#"
1""
#477970
1R!
#478234
0u
#478241
09
#478263
06
#478276
02
0n
#478281
0r
#478297
0R!
#478300
15
#478311
1v
#478313
1m
#478315
10
#478318
1:
#478320
1q
#478369
0x
#478376
0>
#478397
14
#478400
18
#478403
1p
#478406
1t
#478458
0:
#478464
0v
#478516
1>
#478522
1x
#478834
05
#478840
0q
#478855
19
#478861
1u
#480000
0!
1%
#480936
0.
#481081
0/
#485000
1!
0%
#485775
1.
#485938
1/
#487609
1k!
#487615
1&"
#488241
00
#488246
0m
#488310
12
#488323
1n
#488765
13
#488778
1o
#490000
0!
1%
#490936
0.
#491081
0/
#495000
1!
0%
#495775
1.
#495938
1/
#497609
0k!
1j!
#497615
0&"
1%"
#498189
04
#498194
0p
#498242
03
#498247
0o
#498276
02
0n
#498313
1m
#498315
10
#498334
14
1p
#498731
1o
13
#500000
0!
1%
#500936
0.
#501081
0/
#505000
1!
0%
#505775
1.
#505938
1/
#507609
1k!
#507615
1&"
#508241
00
#508246
0m
#508310
12
#508323
1n
#508368
04
#508381
0p
#508747
03
#508760
0o
#508823
15
#508836
1q
#510000
0!
1%
#510936
0.
#511081
0/
#515000
1!
0%
#515775
1.
#515938
1/
#517609
0k!
0j!
1i!
#517615
0&"
0%"
1$"
#518229
05
#518246
0q
#518276
02
0n
#518306
16
#518313
1m
#518315
1r
10
#518397
14
#518403
1p
#518455
06
#518461
0r
#518852
15
#518858
1q
#520000
0!
1%
#520936
0.
#521081
0/
#525000
1!
0%
#525775
1.
#525938
1/
#527609
1k!
#527615
1&"
#528241
00
#528246
0m
#528310
12
#528323
1n
#528765
13
#528778
1o
#530000
0!
1%
#530936
0.
#531081
0/
#535000
1!
0%
#535775
1.
#535938
1/
#537609
0k!
1j!
#537615
0&"
1%"
#538189
04
#538194
0p
#538242
03
#538247
16
0o
#538252
1r
#538276
02
0n
#538313
1m
#538315
10
#538334
14
1p
#538392
06
0r
#538731
1o
13
#540000
0!
1%
#540936
0.
#541081
0/
#545000
1!
0%
#545775
1.
#545938
1/
#547609
1k!
#547615
1&"
#548241
00
#548246
0m
#548310
12
#548323
1n
#548368
04
#548381
0p
#548426
16
#548439
1r
#548747
03
#548760
0o
#548805
05
#548818
0q
#548881
17
#548894
1s
#550000
0!
1%
#550936
0.
#551081
0/
#555000
1!
0%
#555775
1.
#555938
1/
#557609
0k!
0j!
0i!
1h!
#557615
0&"
0%"
0$"
1#"
#558190
08
#558196
0t
#558245
07
#558248
1:
#558251
0s
#558254
1v
#558263
06
#558276
02
0n
#558281
0r
#558300
15
#558306
0>
#558312
0x
#558313
1m
#558315
10
#558320
1q
#558321
18
#558339
1t
#558379
0:
#558397
0v
14
#558403
1p
#558437
1>
#558455
1x
#558718
17
#558736
1s
#558834
05
#558840
0q
#560000
0!
1%
#560936
0.
#561081
0/
#565000
1!
0%
#565775
1.
#565938
1/
#567609
1k!
#567615
1&"
#568241
00
#568246
0m
#568310
12
#568323
1n
#568765
13
#568778
1o
#570000
0!
1%
#570936
0.
#571081
0/
#575000
1!
0%
#575775
1.
#575938
1/
#577609
0k!
1j!
#577615
0&"
1%"
#578189
04
#578194
0p
#578242
03
#578247
0o
#578276
02
0n
#578313
1m
#578315
10
#578334
14
1p
#578731
1o
13
#580000
0!
1%
#580936
0.
#581081
0/
#585000
1!
0%
#585775
1.
#585938
1/
#587609
1k!
#587615
1&"
#588241
00
#588246
0m
#588310
12
#588323
1n
#588368
04
#588381
0p
#588747
03
#588760
0o
#588823
15
#588836
1q
#590000
0!
1%
#590936
0.
#591081
0/
#595000
1!
0%
#595775
1.
#595938
1/
#597609
0k!
0j!
1i!
#597615
0&"
0%"
1$"
#598229
05
#598246
0q
#598276
02
0n
#598306
16
#598313
1m
#598315
1r
10
#598364
08
#598373
0t
#598397
14
#598403
1p
#598422
1:
#598431
1v
#598455
06
#598461
0r
#598480
0>
#598489
0x
#598513
18
#598519
1t
#598571
0:
#598577
0v
#598629
1>
#598635
1x
#598852
15
#598858
1q
#600000
0!
1%
#600936
0.
#601081
0/
#605000
1!
0%
#605775
1.
#605938
1/
#607609
1k!
#607615
1&"
#608241
00
#608246
0m
#608310
12
#608323
1n
#608765
13
#608778
1o
#610000
0!
1%
#610936
0.
#611081
0/
#615000
1!
0%
#615775
1.
