NWPU_DIgitalCircuiitExperiments_Xmk_Xyr/Test/4/SD/DIVIDE4_4/simulation/qsim/DIVIDE4_4.msim.vcd
$comment
	File created using the following command:
		vcd file DIVIDE4_4.msim.vcd -direction
$end
$date
	Thu May 25 16:49:15 2023
$end
$version
	ModelSim Version 10.1d
$end
$timescale
	1ps
$end
$scope module DIVIDE4_4_vlg_vec_tst $end
$var reg 1 ! clk $end
$var wire 1 " clk_out1 $end
$var wire 1 # clk_out2 $end
$var wire 1 $ sampler $end
$scope module i1 $end
$var wire 1 % gnd $end
$var wire 1 & vcc $end
$var wire 1 ' unknown $end
$var tri1 1 ( devclrn $end
$var tri1 1 ) devpor $end
$var tri1 1 * devoe $end
$var wire 1 + clk_out1~output_o $end
$var wire 1 , clk_out2~output_o $end
$var wire 1 - clk~input_o $end
$var wire 1 . clk~inputclkctrl_outclk $end
$var wire 1 / Add0~0_combout $end
$var wire 1 0 LessThan1~1_combout $end
$var wire 1 1 LessThan1~2_combout $end
$var wire 1 2 LessThan1~0_combout $end
$var wire 1 3 LessThan1~3_combout $end
$var wire 1 4 LessThan1~4_combout $end
$var wire 1 5 LessThan1~5_combout $end
$var wire 1 6 LessThan1~6_combout $end
$var wire 1 7 LessThan1~7_combout $end
$var wire 1 8 LessThan1~8_combout $end
$var wire 1 9 LessThan1~9_combout $end
$var wire 1 : cout1~0_combout $end
$var wire 1 ; Add0~1 $end
$var wire 1 < Add0~2_combout $end
$var wire 1 = cout1~1_combout $end
$var wire 1 > Add0~3 $end
$var wire 1 ? Add0~4_combout $end
$var wire 1 @ cout1~30_combout $end
$var wire 1 A Add0~5 $end
$var wire 1 B Add0~6_combout $end
$var wire 1 C cout1~29_combout $end
$var wire 1 D Add0~7 $end
$var wire 1 E Add0~8_combout $end
$var wire 1 F cout1~28_combout $end
$var wire 1 G Add0~9 $end
$var wire 1 H Add0~10_combout $end
$var wire 1 I cout1~27_combout $end
$var wire 1 J Add0~11 $end
$var wire 1 K Add0~12_combout $end
$var wire 1 L cout1~26_combout $end
$var wire 1 M Add0~13 $end
$var wire 1 N Add0~14_combout $end
$var wire 1 O cout1~25_combout $end
$var wire 1 P Add0~15 $end
$var wire 1 Q Add0~16_combout $end
$var wire 1 R cout1~24_combout $end
$var wire 1 S Add0~17 $end
$var wire 1 T Add0~18_combout $end
$var wire 1 U cout1~23_combout $end
$var wire 1 V Add0~19 $end
$var wire 1 W Add0~20_combout $end
$var wire 1 X cout1~22_combout $end
$var wire 1 Y Add0~21 $end
$var wire 1 Z Add0~22_combout $end
$var wire 1 [ cout1~21_combout $end
$var wire 1 \ Add0~23 $end
$var wire 1 ] Add0~24_combout $end
$var wire 1 ^ cout1~20_combout $end
$var wire 1 _ Add0~25 $end
$var wire 1 ` Add0~26_combout $end
$var wire 1 a cout1~19_combout $end
$var wire 1 b Add0~27 $end
$var wire 1 c Add0~28_combout $end
$var wire 1 d cout1~18_combout $end
$var wire 1 e Add0~29 $end
$var wire 1 f Add0~30_combout $end
$var wire 1 g cout1~17_combout $end
$var wire 1 h Add0~31 $end
$var wire 1 i Add0~32_combout $end
$var wire 1 j cout1~16_combout $end
$var wire 1 k Add0~33 $end
$var wire 1 l Add0~34_combout $end
$var wire 1 m cout1~15_combout $end
$var wire 1 n Add0~35 $end
$var wire 1 o Add0~36_combout $end
$var wire 1 p cout1~14_combout $end
$var wire 1 q Add0~37 $end
$var wire 1 r Add0~38_combout $end
$var wire 1 s cout1~13_combout $end
$var wire 1 t Add0~39 $end
$var wire 1 u Add0~40_combout $end
$var wire 1 v cout1~12_combout $end
$var wire 1 w Add0~41 $end
$var wire 1 x Add0~42_combout $end
$var wire 1 y cout1~11_combout $end
$var wire 1 z Add0~43 $end
$var wire 1 { Add0~44_combout $end
$var wire 1 | cout1~10_combout $end
$var wire 1 } Add0~45 $end
$var wire 1 ~ Add0~46_combout $end
$var wire 1 !! cout1~9_combout $end
$var wire 1 "! Add0~47 $end
$var wire 1 #! Add0~48_combout $end
$var wire 1 $! cout1~8_combout $end
$var wire 1 %! Add0~49 $end
$var wire 1 &! Add0~50_combout $end
$var wire 1 '! cout1~7_combout $end
$var wire 1 (! Add0~51 $end
$var wire 1 )! Add0~52_combout $end
$var wire 1 *! cout1~6_combout $end
$var wire 1 +! Add0~53 $end
$var wire 1 ,! Add0~54_combout $end
$var wire 1 -! cout1~5_combout $end
$var wire 1 .! Add0~55 $end
$var wire 1 /! Add0~56_combout $end
$var wire 1 0! cout1~4_combout $end
$var wire 1 1! Add0~57 $end
$var wire 1 2! Add0~58_combout $end
$var wire 1 3! cout1~3_combout $end
$var wire 1 4! Add0~59 $end
$var wire 1 5! Add0~60_combout $end
$var wire 1 6! cout1~2_combout $end
$var wire 1 7! Add0~61 $end
$var wire 1 8! Add0~62_combout $end
$var wire 1 9! LessThan0~0_combout $end
$var wire 1 :! tmp1~0_combout $end
$var wire 1 ;! tmp1~q $end
$var wire 1 <! Add1~0_combout $end
$var wire 1 =! LessThan3~5_combout $end
$var wire 1 >! LessThan3~2_combout $end
$var wire 1 ?! LessThan3~1_combout $end
$var wire 1 @! LessThan3~0_combout $end
$var wire 1 A! LessThan3~3_combout $end
$var wire 1 B! LessThan3~4_combout $end
$var wire 1 C! LessThan3~6_combout $end
$var wire 1 D! LessThan3~7_combout $end
$var wire 1 E! LessThan3~8_combout $end
$var wire 1 F! cout2~2_combout $end
$var wire 1 G! Add1~1 $end
$var wire 1 H! Add1~2_combout $end
$var wire 1 I! cout2~1_combout $end
$var wire 1 J! Add1~3 $end
$var wire 1 K! Add1~5 $end
$var wire 1 L! Add1~6_combout $end
$var wire 1 M! cout2~27_combout $end
$var wire 1 N! Add1~7 $end
$var wire 1 O! Add1~8_combout $end
$var wire 1 P! cout2~26_combout $end
$var wire 1 Q! Add1~9 $end
$var wire 1 R! Add1~10_combout $end
$var wire 1 S! cout2~25_combout $end
$var wire 1 T! Add1~11 $end
$var wire 1 U! Add1~12_combout $end
$var wire 1 V! cout2~24_combout $end
$var wire 1 W! Add1~13 $end
$var wire 1 X! Add1~14_combout $end
$var wire 1 Y! cout2~23_combout $end
$var wire 1 Z! Add1~15 $end
$var wire 1 [! Add1~16_combout $end
$var wire 1 \! cout2~22_combout $end
$var wire 1 ]! Add1~17 $end
$var wire 1 ^! Add1~18_combout $end
$var wire 1 _! cout2~21_combout $end
$var wire 1 `! Add1~19 $end
$var wire 1 a! Add1~20_combout $end
$var wire 1 b! cout2~20_combout $end
$var wire 1 c! Add1~21 $end
$var wire 1 d! Add1~22_combout $end
$var wire 1 e! cout2~19_combout $end
$var wire 1 f! Add1~23 $end
$var wire 1 g! Add1~24_combout $end
$var wire 1 h! cout2~18_combout $end
$var wire 1 i! Add1~25 $end
$var wire 1 j! Add1~26_combout $end
$var wire 1 k! cout2~17_combout $end
$var wire 1 l! Add1~27 $end
$var wire 1 m! Add1~28_combout $end
$var wire 1 n! cout2~16_combout $end
$var wire 1 o! Add1~29 $end
$var wire 1 p! Add1~30_combout $end
$var wire 1 q! cout2~15_combout $end
$var wire 1 r! Add1~31 $end
$var wire 1 s! Add1~32_combout $end
$var wire 1 t! cout2~14_combout $end
$var wire 1 u! Add1~33 $end
$var wire 1 v! Add1~34_combout $end
$var wire 1 w! cout2~13_combout $end
$var wire 1 x! Add1~35 $end
$var wire 1 y! Add1~36_combout $end
$var wire 1 z! cout2~12_combout $end
$var wire 1 {! Add1~37 $end
$var wire 1 |! Add1~38_combout $end
$var wire 1 }! cout2~11_combout $end
$var wire 1 ~! Add1~39 $end
$var wire 1 !" Add1~40_combout $end
$var wire 1 "" cout2~10_combout $end
$var wire 1 #" Add1~41 $end
$var wire 1 $" Add1~42_combout $end
$var wire 1 %" cout2~9_combout $end
$var wire 1 &" Add1~43 $end
$var wire 1 '" Add1~44_combout $end
$var wire 1 (" cout2~8_combout $end
$var wire 1 )" Add1~45 $end
$var wire 1 *" Add1~46_combout $end
$var wire 1 +" cout2~7_combout $end
$var wire 1 ," Add1~47 $end
$var wire 1 -" Add1~48_combout $end
$var wire 1 ." cout2~6_combout $end
$var wire 1 /" Add1~49 $end
$var wire 1 0" Add1~50_combout $end
$var wire 1 1" cout2~5_combout $end
$var wire 1 2" Add1~51 $end
$var wire 1 3" Add1~52_combout $end
$var wire 1 4" cout2~4_combout $end
$var wire 1 5" Add1~53 $end
$var wire 1 6" Add1~54_combout $end
$var wire 1 7" cout2~3_combout $end
$var wire 1 8" Add1~55 $end
$var wire 1 9" Add1~56_combout $end
$var wire 1 :" cout2~29_combout $end
$var wire 1 ;" Add1~57 $end
$var wire 1 <" Add1~58_combout $end
$var wire 1 =" cout2~28_combout $end
$var wire 1 >" Add1~59 $end
$var wire 1 ?" Add1~60_combout $end
$var wire 1 @" cout2~30_combout $end
$var wire 1 A" Add1~61 $end
$var wire 1 B" Add1~62_combout $end
$var wire 1 C" cout2~0_combout $end
$var wire 1 D" Add1~4_combout $end
$var wire 1 E" LessThan2~0_combout $end
$var wire 1 F" tmp2~0_combout $end
$var wire 1 G" tmp2~q $end
$var wire 1 H" cout2 [31] $end
$var wire 1 I" cout2 [30] $end
$var wire 1 J" cout2 [29] $end
$var wire 1 K" cout2 [28] $end
$var wire 1 L" cout2 [27] $end
$var wire 1 M" cout2 [26] $end
$var wire 1 N" cout2 [25] $end
$var wire 1 O" cout2 [24] $end
$var wire 1 P" cout2 [23] $end
$var wire 1 Q" cout2 [22] $end
$var wire 1 R" cout2 [21] $end
$var wire 1 S" cout2 [20] $end
$var wire 1 T" cout2 [19] $end
$var wire 1 U" cout2 [18] $end
$var wire 1 V" cout2 [17] $end
$var wire 1 W" cout2 [16] $end
$var wire 1 X" cout2 [15] $end
$var wire 1 Y" cout2 [14] $end
$var wire 1 Z" cout2 [13] $end
$var wire 1 [" cout2 [12] $end
$var wire 1 \" cout2 [11] $end
$var wire 1 ]" cout2 [10] $end
$var wire 1 ^" cout2 [9] $end
$var wire 1 _" cout2 [8] $end
$var wire 1 `" cout2 [7] $end
$var wire 1 a" cout2 [6] $end
$var wire 1 b" cout2 [5] $end
$var wire 1 c" cout2 [4] $end
$var wire 1 d" cout2 [3] $end
$var wire 1 e" cout2 [2] $end
$var wire 1 f" cout2 [1] $end
$var wire 1 g" cout2 [0] $end
$var wire 1 h" cout1 [31] $end
$var wire 1 i" cout1 [30] $end
$var wire 1 j" cout1 [29] $end
$var wire 1 k" cout1 [28] $end
$var wire 1 l" cout1 [27] $end
$var wire 1 m" cout1 [26] $end
$var wire 1 n" cout1 [25] $end
$var wire 1 o" cout1 [24] $end
$var wire 1 p" cout1 [23] $end
$var wire 1 q" cout1 [22] $end
$var wire 1 r" cout1 [21] $end
$var wire 1 s" cout1 [20] $end
$var wire 1 t" cout1 [19] $end
$var wire 1 u" cout1 [18] $end
$var wire 1 v" cout1 [17] $end
$var wire 1 w" cout1 [16] $end
$var wire 1 x" cout1 [15] $end
$var wire 1 y" cout1 [14] $end
$var wire 1 z" cout1 [13] $end
$var wire 1 {" cout1 [12] $end
$var wire 1 |" cout1 [11] $end
$var wire 1 }" cout1 [10] $end
$var wire 1 ~" cout1 [9] $end
$var wire 1 !# cout1 [8] $end
$var wire 1 "# cout1 [7] $end
$var wire 1 ## cout1 [6] $end
$var wire 1 $# cout1 [5] $end
$var wire 1 %# cout1 [4] $end
$var wire 1 &# cout1 [3] $end
$var wire 1 '# cout1 [2] $end
$var wire 1 (# cout1 [1] $end
$var wire 1 )# cout1 [0] $end
$upscope $end
$upscope $end
$enddefinitions $end
#0
$dumpvars
0!
0"
0#
x$
0%
1&
x'
1(
1)
1*
0+
0,
0-
0.
1/
10
11
12
13
14
15
16
17
18
19
1:
0;
0<
0=
1>
0?
0@
0A
0B
0C
1D
0E
0F
0G
0H
0I
1J
0K
0L
0M
0N
0O
1P
0Q
0R
0S
0T
0U
1V
0W
0X
0Y
0Z
0[
1\
0]
0^
0_
0`
0a
1b
0c
0d
0e
0f
0g
1h
0i
0j
0k
0l
0m
1n
0o
0p
0q
0r
0s
1t
0u
0v
0w
0x
0y
1z
0{
0|
0}
0~
0!!
1"!
0#!
0$!
0%!
0&!
0'!
1(!
0)!
0*!
0+!
0,!
0-!
1.!
0/!
00!
01!
02!
03!
14!
05!
06!
07!
08!
09!
0:!
0;!
1<!
1=!
1>!
1?!
1@!
1A!
1B!
1C!
1D!
1E!
1F!
0G!
0H!
0I!
1J!
0K!
0L!
0M!
1N!
0O!
0P!
0Q!
0R!
0S!
1T!
0U!
0V!
0W!
0X!
0Y!
1Z!
0[!
0\!
0]!
0^!
0_!
1`!
0a!
0b!
0c!
0d!
0e!
1f!
0g!
0h!
0i!
0j!
0k!
1l!
0m!
0n!
0o!
0p!
0q!
1r!
0s!
0t!
0u!
0v!
0w!
1x!
0y!
0z!
0{!
0|!
0}!
1~!
0!"
0""
0#"
0$"
0%"
1&"
0'"
0("
0)"
0*"
0+"
1,"
0-"
0."
0/"
00"
01"
12"
03"
04"
05"
06"
07"
18"
09"
0:"
0;"
0<"
0="
1>"
0?"
0@"
0A"
0B"
0C"
0D"
0E"
0F"
0G"
0g"
0f"
0e"
0d"
0c"
0b"
0a"
0`"
0_"
0^"
0]"
0\"
0["
0Z"
0Y"
0X"
0W"
0V"
0U"
0T"
0S"
0R"
0Q"
0P"
0O"
0N"
0M"
0L"
0K"
0J"
0I"
0H"
0)#
0(#
0'#
0&#
0%#
0$#
0##
0"#
0!#
0~"
0}"
0|"
0{"
0z"
0y"
0x"
0w"
0v"
0u"
0t"
0s"
0r"
0q"
0p"
0o"
0n"
0m"
0l"
0k"
0j"
0i"
0h"
$end
#20000
1!
1-
1.
0$
1g"
1)#
1G!
0<!
1;
0/
1H!
0F!
1<
0:
1I!
1=
#40000
0!
0-
0.
1$
#60000
1!
1-
1.
0$
1f"
0g"
1(#
0)#
0J!
0H!
0G!
1<!
0>
0<
0;
1/
1D"
0I!
1J!
1H!
1F!
1?
0=
1>
1<
1:
1E"
1C"
0D"
1I!
1@
02
0?
19!
1=
1F"
0E"
0C"
04
0@
12
1:!
0F"
06
14
07
16
08
17
09
18
0:!
0=
0:
19
1:!
1=
1:
#80000
0!
0-
0.
1$
#100000
1!
1-
1.
0$
1g"
1)#
1;!
1G!
0<!
1;
0/
1+
1"
0J!
0H!
0F!
0>
0<
09!
0:
1D"
0I!
1?
0=
0:!
1C"
1@
02
04
06
07
08
09
1:!
0@
#120000
0!
0-
0.
1$
#140000
1!
1-
1.
0$
1e"
0f"
0g"
0(#
0)#
1K!
0D"
1J!
1H!
0G!
1<!
1>
1<
0;
1/
1L!
0C"
0K!
1D"
1I!
0H!
1F!
0?
19!
0<
1M!
0@!
0L!
1E"
1C"
0I!
12
09!
0B!
0M!
1@!
1F"
14
0C!
1B!
16
0D!
1C!
17
0E!
1D!
18
0F"
0C"
0F!
1E!
19
1F"
1C"
1F!
0:!
1:
#160000
0!
0-
0.
1$
#180000
1!
1-
1.
0$
1g"
1)#
1G"
0;!
1G!
0<!
1;
0/
1,
0+
1#
0"
1H!
0E"
0F!
1<
0:
1E"
1I!
0F"
1=
1F"
#200000
0!
0-
0.
1$
#220000
1!
1-
1.
0$
1f"
0g"
1(#
0)#
0J!
0H!
0G!
1<!
0>
0<
0;
1/
1K!
0D"
0I!
1J!
1H!
1F!
1?
0=
1>
1<
1:
1L!
0E"
0C"
0K!
1D"
1I!
1@
02
0?
19!
1=
1M!
0@!
0F"
0L!
1E"
1C"
04
0@
12
1:!
0B!
0M!
1@!
1F"
06
14
0C!
1B!
07
16
0D!
1C!
08
17
0E!
1D!
09
18
0C"
0I!
0F!
1E!
0:!
0=
0:
19
1C"
1I!
1F!
1:!
1=
1:
#240000
0!
0-
0.
1$
#260000
1!
1-
1.
0$
1g"
1)#
1;!
1G!
0<!
1;
0/
1+
1"
0J!
0H!
0F!
0>
0<
09!
0:
1K!
0D"
0E"
0I!
1?
0=
0:!
1L!
0C"
0F"
1@
02
1M!
0@!
04
0B!
06
0C!
07
0D!
08
0E!
09
1F"
0M!
1:!
0@
#280000
0!
0-
0.
1$
#300000
1!
1-
1.
0$
0e"
0f"
0g"
0(#
0)#
0K!
1D"
1J!
1H!
0G!
1<!
1>
1<
0;
1/
0L!
1E"
0D"
0H!
0?
19!
0<
1@!
0E"
12
09!
1B!
14
1C!
16
1D!
17
1E!
18
0F"
1F!
19
0:!
1:
#320000
0!
0-
0.
1$
#340000
1!
1-
1.
0$
1g"
1)#
0G"
0;!
1G!
0<!
1;
0/
0,
0+
0#
0"
1H!
0F!
1<
0:
1I!
1=
#360000
0!
0-
0.
1$
#380000
1!
1-
1.
0$
1f"
0g"
1(#
0)#
0J!
0H!
0G!
1<!
0>
0<
0;
1/
1D"
0I!
1J!
1H!
1F!
1?
0=
1>
1<
1:
1E"
1C"
0D"
1I!
1@
02
0?
19!
1=
1F"
0E"
0C"
04
0@
12
1:!
0F"
06
14
07
16
08
17
09
18
0:!
0=
0:
19
1:!
1=
1:
#400000
0!
0-
0.
1$
#420000
1!
1-
1.
0$
1g"
1)#
1;!
1G!
0<!
1;
0/
1+
1"
0J!
0H!
0F!
0>
0<
09!
0:
1D"
0I!
1?
0=
0:!
1C"
1@
02
04
06
07
08
09
1:!
0@
#440000
0!
0-
0.
1$
#460000
1!
1-
1.
0$
1e"
0f"
0g"
0(#
0)#
1K!
0D"
1J!
1H!
0G!
1<!
1>
1<
0;
1/
1L!
0C"
0K!
1D"
1I!
0H!
1F!
0?
19!
0<
1M!
0@!
0L!
1E"
1C"
0I!
12
09!
0B!
0M!
1@!
1F"
14
0C!
1B!
16
0D!
1C!
17
0E!
1D!
18
0F"
0C"
0F!
1E!
19
1F"
1C"
1F!
0:!
1:
#480000
0!
0-
0.
1$
#500000
1!
1-
1.
0$
1g"
1)#
1G"
0;!
1G!
0<!
1;
0/
1,
0+
1#
0"
1H!
0E"
0F!
1<
0:
1E"
1I!
0F"
1=
1F"
#520000
0!
0-
0.
1$
#540000
1!
1-
1.
0$
1f"
0g"
1(#
0)#
0J!
0H!
0G!
1<!
0>
0<
0;
1/
1K!
0D"
0I!
1J!
1H!
1F!
1?
0=
1>
1<
1:
1L!
0E"
0C"
0K!
1D"
1I!
1@
02
0?
19!
1=
1M!
0@!
0F"
0L!
1E"
1C"
04
0@
12
1:!
0B!
0M!
1@!
1F"
06
14
0C!
1B!
07
16
0D!
1C!
08
17
0E!
1D!
09
18
0C"
0I!
0F!
1E!
0:!
0=
0:
19
1C"
1I!
1F!
1:!
1=
1:
#560000
0!
0-
0.
1$
#580000
1!
1-
1.
0$
1g"
1)#
1;!
1G!
0<!
1;
0/
1+
1"
0J!
0H!
0F!
0>
0<
09!
0:
1K!
0D"
0E"
0I!
1?
0=
0:!
1L!
0C"
0F"
1@
02
1M!
0@!
04
0B!
06
0C!
07
0D!
08
0E!
09
1F"
0M!
1:!
0@
#600000
0!
0-
0.
1$
#620000
1!
1-
1.
0$
0e"
0f"
0g"
0(#
0)#
0K!
1D"
1J!
1H!
0G!
1<!
1>
1<
0;
1/
0L!
1E"
0D"
0H!
0?
19!
0<
1@!
0E"
12
09!
1B!
14
1C!
16
1D!
17
1E!
18
0F"
1F!
19
0:!
1:
#640000
0!
0-
0.
1$
#660000
1!
1-
1.
0$
1g"
1)#
0G"
0;!
1G!
0<!
1;
0/
0,
0+
0#
0"
1H!
0F!
1<
0:
1I!
1=
#680000
0!
0-
0.
1$
#700000
1!
1-
1.
0$
1f"
0g"
1(#
0)#
0J!
0H!
0G!
1<!
0>
0<
0;
1/
1D"
0I!
1J!
1H!
1F!
1?
0=
1>
1<
1:
1E"
1C"
0D"
1I!
1@
02
0?
19!
1=
1F"
0E"
0C"
04
0@
12
1:!
0F"
06
14
07
16
08
17
09
18
0:!
0=
0:
19
1:!
1=
1:
#720000
0!
0-
0.
1$
#740000
1!
1-
1.
0$
1g"
1)#
1;!
1G!
0<!
1;
0/
1+
1"
0J!
0H!
0F!
0>
0<
09!
0:
1D"
0I!
1?
0=
0:!
1C"
1@
02
04
06
07
08
09
1:!
0@
#760000
0!
0-
0.
1$
#780000
1!
1-
1.
0$
1e"
0f"
0g"
0(#
0)#
1K!
0D"
1J!
1H!
0G!
1<!
1>
1<
0;
1/
1L!
0C"
0K!
1D"
1I!
0H!
1F!
0?
19!
0<
1M!
0@!
0L!
1E"
1C"
0I!
12
09!
0B!
0M!
1@!
1F"
14
0C!
1B!
16
0D!
1C!
17
0E!
1D!
18
0F"
0C"
0F!
1E!
19
1F"
1C"
1F!
0:!
1:
#800000
0!
0-
0.
1$
#820000
1!
1-
1.
0$
1g"
1)#
1G"
0;!
1G!
0<!
1;
0/
1,
0+
1#
0"
1H!
0E"
0F!
1<
0:
1E"
1I!
0F"
1=
1F"
#840000
0!
0-
0.
1$
#860000
1!
1-
1.
0$
1f"
0g"
1(#
0)#
0J!
0H!
0G!
1<!
0>
0<
0;
1/
1K!
0D"
0I!
1J!
1H!
1F!
1?
0=
1>
1<
1:
1L!
0E"
0C"
0K!
1D"
1I!
1@
02
0?
19!
1=
1M!
0@!
0F"
0L!
1E"
1C"
04
0@
12
1:!
0B!
0M!
1@!
1F"
06
14
0C!
1B!
07
16
0D!
1C!
08
17
0E!
1D!
09
18
0C"
0I!
0F!
1E!
0:!
0=
0:
19
1C"
1I!
1F!
1:!
1=
1:
#880000
0!
0-
0.
1$
#900000
1!
1-
1.
0$
1g"
1)#
1;!
1G!
0<!
1;
0/
1+
1"
0J!
0H!
0F!
0>
0<
09!
0:
1K!
0D"
0E"
0I!
1?
0=
0:!
1L!
0C"
0F"
1@
02
1M!
0@!
04
0B!
06
0C!
07
0D!
08
0E!
09
1F"
0M!
1:!
0@
#920000
0!
0-
0.
1$
#940000
1!
1-
1.
0$
0e"
0f"
0g"
0(#
0)#
0K!
1D"
1J!
1H!
0G!
1<!
1>
1<
0;
1/
0L!
1E"
0D"
0H!
0?
19!
0<
1@!
0E"
12
09!
1B!
14
1C!
16
1D!
17
1E!
18
0F"
1F!
19
0:!
1:
#960000
0!
0-
0.
1$
#980000
1!
1-
1.
0$
1g"
1)#
0G"
0;!
1G!
0<!
1;
0/
0,
0+
0#
0"
1H!
0F!
1<
0:
1I!
1=
