NWPU_DIgitalCircuiitExperiments_Xmk_Xyr/Test/4/SD/FINAL4_5/simulation/qsim/FINAL4_5.msim.vcd
$comment
	File created using the following command:
		vcd file FINAL4_5.msim.vcd -direction
$end
$date
	Sat Jun 24 21:01:07 2023
$end
$version
	ModelSim Version 10.1d
$end
$timescale
	1ps
$end
$scope module FINAL4_5_vlg_vec_tst $end
$var reg 1 ! CLK $end
$var reg 1 " Switch $end
$var wire 1 # led [6] $end
$var wire 1 $ led [5] $end
$var wire 1 % led [4] $end
$var wire 1 & led [3] $end
$var wire 1 ' led [2] $end
$var wire 1 ( led [1] $end
$var wire 1 ) led [0] $end
$var wire 1 * sampler $end
$scope module i1 $end
$var wire 1 + gnd $end
$var wire 1 , vcc $end
$var wire 1 - unknown $end
$var tri1 1 . devclrn $end
$var tri1 1 / devpor $end
$var tri1 1 0 devoe $end
$var wire 1 1 led[6]~output_o $end
$var wire 1 2 led[5]~output_o $end
$var wire 1 3 led[4]~output_o $end
$var wire 1 4 led[3]~output_o $end
$var wire 1 5 led[2]~output_o $end
$var wire 1 6 led[1]~output_o $end
$var wire 1 7 led[0]~output_o $end
$var wire 1 8 CLK~input_o $end
$var wire 1 9 CLK~inputclkctrl_outclk $end
$var wire 1 : inst|Add1~0_combout $end
$var wire 1 ; inst|cout2~30_combout $end
$var wire 1 < inst|Add1~1 $end
$var wire 1 = inst|Add1~2_combout $end
$var wire 1 > inst|cout2~29_combout $end
$var wire 1 ? inst|Add1~3 $end
$var wire 1 @ inst|Add1~4_combout $end
$var wire 1 A inst|cout2~28_combout $end
$var wire 1 B inst|Add1~5 $end
$var wire 1 C inst|Add1~6_combout $end
$var wire 1 D inst|cout2~27_combout $end
$var wire 1 E inst|Add1~7 $end
$var wire 1 F inst|Add1~8_combout $end
$var wire 1 G inst|cout2~26_combout $end
$var wire 1 H inst|Add1~9 $end
$var wire 1 I inst|Add1~10_combout $end
$var wire 1 J inst|cout2~25_combout $end
$var wire 1 K inst|Add1~11 $end
$var wire 1 L inst|Add1~12_combout $end
$var wire 1 M inst|cout2~24_combout $end
$var wire 1 N inst|Add1~13 $end
$var wire 1 O inst|Add1~14_combout $end
$var wire 1 P inst|cout2~23_combout $end
$var wire 1 Q inst|Add1~15 $end
$var wire 1 R inst|Add1~16_combout $end
$var wire 1 S inst|cout2~22_combout $end
$var wire 1 T inst|Add1~17 $end
$var wire 1 U inst|Add1~18_combout $end
$var wire 1 V inst|cout2~21_combout $end
$var wire 1 W inst|Add1~19 $end
$var wire 1 X inst|Add1~20_combout $end
$var wire 1 Y inst|cout2~20_combout $end
$var wire 1 Z inst|Add1~21 $end
$var wire 1 [ inst|Add1~22_combout $end
$var wire 1 \ inst|cout2~19_combout $end
$var wire 1 ] inst|Add1~23 $end
$var wire 1 ^ inst|Add1~24_combout $end
$var wire 1 _ inst|cout2~18_combout $end
$var wire 1 ` inst|Add1~25 $end
$var wire 1 a inst|Add1~26_combout $end
$var wire 1 b inst|cout2~17_combout $end
$var wire 1 c inst|Add1~27 $end
$var wire 1 d inst|Add1~28_combout $end
$var wire 1 e inst|cout2~16_combout $end
$var wire 1 f inst|Add1~29 $end
$var wire 1 g inst|Add1~30_combout $end
$var wire 1 h inst|cout2~15_combout $end
$var wire 1 i inst|Add1~31 $end
$var wire 1 j inst|Add1~32_combout $end
$var wire 1 k inst|cout2~14_combout $end
$var wire 1 l inst|Add1~33 $end
$var wire 1 m inst|Add1~34_combout $end
$var wire 1 n inst|cout2~13_combout $end
$var wire 1 o inst|Add1~35 $end
$var wire 1 p inst|Add1~36_combout $end
$var wire 1 q inst|cout2~12_combout $end
$var wire 1 r inst|Add1~37 $end
$var wire 1 s inst|Add1~38_combout $end
$var wire 1 t inst|cout2~11_combout $end
$var wire 1 u inst|Add1~39 $end
$var wire 1 v inst|Add1~40_combout $end
$var wire 1 w inst|cout2~10_combout $end
$var wire 1 x inst|Add1~41 $end
$var wire 1 y inst|Add1~42_combout $end
$var wire 1 z inst|cout2~9_combout $end
$var wire 1 { inst|Add1~43 $end
$var wire 1 | inst|Add1~44_combout $end
$var wire 1 } inst|cout2~8_combout $end
$var wire 1 ~ inst|Add1~45 $end
$var wire 1 !! inst|Add1~46_combout $end
$var wire 1 "! inst|cout2~7_combout $end
$var wire 1 #! inst|Add1~47 $end
$var wire 1 $! inst|Add1~49 $end
$var wire 1 %! inst|Add1~50_combout $end
$var wire 1 &! inst|cout2~5_combout $end
$var wire 1 '! inst|Add1~51 $end
$var wire 1 (! inst|Add1~52_combout $end
$var wire 1 )! inst|cout2~4_combout $end
$var wire 1 *! inst|Add1~53 $end
$var wire 1 +! inst|Add1~54_combout $end
$var wire 1 ,! inst|cout2~3_combout $end
$var wire 1 -! inst|Add1~55 $end
$var wire 1 .! inst|Add1~56_combout $end
$var wire 1 /! inst|cout2~2_combout $end
$var wire 1 0! inst|Add1~57 $end
$var wire 1 1! inst|Add1~58_combout $end
$var wire 1 2! inst|cout2~1_combout $end
$var wire 1 3! inst|Add1~59 $end
$var wire 1 4! inst|Add1~60_combout $end
$var wire 1 5! inst|cout2~0_combout $end
$var wire 1 6! inst|Add1~61 $end
$var wire 1 7! inst|Add1~62_combout $end
$var wire 1 8! inst|LessThan3~0_combout $end
$var wire 1 9! inst|LessThan2~0_combout $end
$var wire 1 :! inst|LessThan3~1_combout $end
$var wire 1 ;! inst|LessThan2~2_combout $end
$var wire 1 <! inst|LessThan2~3_combout $end
$var wire 1 =! inst|LessThan2~1_combout $end
$var wire 1 >! inst|tmp2~0_combout $end
$var wire 1 ?! inst|tmp2~1_combout $end
$var wire 1 @! inst|tmp2~2_combout $end
$var wire 1 A! inst|tmp2~3_combout $end
$var wire 1 B! inst|tmp2~4_combout $end
$var wire 1 C! inst|cout2~6_combout $end
$var wire 1 D! inst|Add1~48_combout $end
$var wire 1 E! inst|LessThan3~5_combout $end
$var wire 1 F! inst|LessThan3~6_combout $end
$var wire 1 G! inst|LessThan3~3_combout $end
$var wire 1 H! inst|LessThan3~2_combout $end
$var wire 1 I! inst|LessThan3~4_combout $end
$var wire 1 J! inst|LessThan3~7_combout $end
$var wire 1 K! inst|tmp2~5_combout $end
$var wire 1 L! inst|tmp2~q $end
$var wire 1 M! inst|Add0~0_combout $end
$var wire 1 N! inst|cout1~28_combout $end
$var wire 1 O! inst|Add0~1 $end
$var wire 1 P! inst|Add0~2_combout $end
$var wire 1 Q! inst|cout1~27_combout $end
$var wire 1 R! inst|Add0~3 $end
$var wire 1 S! inst|Add0~4_combout $end
$var wire 1 T! inst|cout1~26_combout $end
$var wire 1 U! inst|Add0~5 $end
$var wire 1 V! inst|Add0~6_combout $end
$var wire 1 W! inst|cout1~25_combout $end
$var wire 1 X! inst|Add0~7 $end
$var wire 1 Y! inst|Add0~8_combout $end
$var wire 1 Z! inst|cout1~24_combout $end
$var wire 1 [! inst|Add0~9 $end
$var wire 1 \! inst|Add0~10_combout $end
$var wire 1 ]! inst|cout1~23_combout $end
$var wire 1 ^! inst|Add0~11 $end
$var wire 1 _! inst|Add0~12_combout $end
$var wire 1 `! inst|cout1~22_combout $end
$var wire 1 a! inst|Add0~13 $end
$var wire 1 b! inst|Add0~14_combout $end
$var wire 1 c! inst|cout1~21_combout $end
$var wire 1 d! inst|Add0~15 $end
$var wire 1 e! inst|Add0~16_combout $end
$var wire 1 f! inst|cout1~20_combout $end
$var wire 1 g! inst|Add0~17 $end
$var wire 1 h! inst|Add0~18_combout $end
$var wire 1 i! inst|cout1~19_combout $end
$var wire 1 j! inst|Add0~19 $end
$var wire 1 k! inst|Add0~20_combout $end
$var wire 1 l! inst|cout1~18_combout $end
$var wire 1 m! inst|Add0~21 $end
$var wire 1 n! inst|Add0~22_combout $end
$var wire 1 o! inst|cout1~17_combout $end
$var wire 1 p! inst|Add0~23 $end
$var wire 1 q! inst|Add0~24_combout $end
$var wire 1 r! inst|cout1~16_combout $end
$var wire 1 s! inst|Add0~25 $end
$var wire 1 t! inst|Add0~26_combout $end
$var wire 1 u! inst|cout1~15_combout $end
$var wire 1 v! inst|Add0~27 $end
$var wire 1 w! inst|Add0~28_combout $end
$var wire 1 x! inst|cout1~14_combout $end
$var wire 1 y! inst|Add0~29 $end
$var wire 1 z! inst|Add0~30_combout $end
$var wire 1 {! inst|cout1~13_combout $end
$var wire 1 |! inst|Add0~31 $end
$var wire 1 }! inst|Add0~32_combout $end
$var wire 1 ~! inst|cout1~12_combout $end
$var wire 1 !" inst|Add0~33 $end
$var wire 1 "" inst|Add0~34_combout $end
$var wire 1 #" inst|cout1~11_combout $end
$var wire 1 $" inst|Add0~35 $end
$var wire 1 %" inst|Add0~36_combout $end
$var wire 1 &" inst|cout1~10_combout $end
$var wire 1 '" inst|Add0~37 $end
$var wire 1 (" inst|Add0~38_combout $end
$var wire 1 )" inst|cout1~9_combout $end
$var wire 1 *" inst|Add0~39 $end
$var wire 1 +" inst|Add0~40_combout $end
$var wire 1 ," inst|cout1~8_combout $end
$var wire 1 -" inst|Add0~41 $end
$var wire 1 ." inst|Add0~42_combout $end
$var wire 1 /" inst|cout1~7_combout $end
$var wire 1 0" inst|Add0~43 $end
$var wire 1 1" inst|Add0~44_combout $end
$var wire 1 2" inst|cout1~6_combout $end
$var wire 1 3" inst|Add0~45 $end
$var wire 1 4" inst|Add0~47 $end
$var wire 1 5" inst|Add0~48_combout $end
$var wire 1 6" inst|cout1~4_combout $end
$var wire 1 7" inst|Add0~49 $end
$var wire 1 8" inst|Add0~50_combout $end
$var wire 1 9" inst|cout1~3_combout $end
$var wire 1 :" inst|Add0~51 $end
$var wire 1 ;" inst|Add0~52_combout $end
$var wire 1 <" inst|cout1~2_combout $end
$var wire 1 =" inst|Add0~53 $end
$var wire 1 >" inst|Add0~54_combout $end
$var wire 1 ?" inst|cout1~1_combout $end
$var wire 1 @" inst|Add0~55 $end
$var wire 1 A" inst|Add0~56_combout $end
$var wire 1 B" inst|cout1~0_combout $end
$var wire 1 C" inst|Add0~57 $end
$var wire 1 D" inst|Add0~58_combout $end
$var wire 1 E" inst|cout1~29_combout $end
$var wire 1 F" inst|Add0~59 $end
$var wire 1 G" inst|Add0~60_combout $end
$var wire 1 H" inst|cout1~30_combout $end
$var wire 1 I" inst|Add0~61 $end
$var wire 1 J" inst|Add0~62_combout $end
$var wire 1 K" inst|LessThan0~10_combout $end
$var wire 1 L" inst|LessThan0~7_combout $end
$var wire 1 M" inst|LessThan0~5_combout $end
$var wire 1 N" inst|LessThan0~3_combout $end
$var wire 1 O" inst|LessThan0~4_combout $end
$var wire 1 P" inst|LessThan0~6_combout $end
$var wire 1 Q" inst|LessThan0~8_combout $end
$var wire 1 R" inst|LessThan0~9_combout $end
$var wire 1 S" inst|LessThan0~0_combout $end
$var wire 1 T" inst|LessThan0~1_combout $end
$var wire 1 U" inst|LessThan0~2_combout $end
$var wire 1 V" inst|tmp1~0_combout $end
$var wire 1 W" inst|cout1~5_combout $end
$var wire 1 X" inst|Add0~46_combout $end
$var wire 1 Y" inst|LessThan1~0_combout $end
$var wire 1 Z" inst|LessThan1~7_combout $end
$var wire 1 [" inst|LessThan1~1_combout $end
$var wire 1 \" inst|LessThan1~2_combout $end
$var wire 1 ]" inst|LessThan1~3_combout $end
$var wire 1 ^" inst|LessThan1~4_combout $end
$var wire 1 _" inst|LessThan1~5_combout $end
$var wire 1 `" inst|LessThan1~6_combout $end
$var wire 1 a" inst|LessThan1~8_combout $end
$var wire 1 b" inst|tmp1~1_combout $end
$var wire 1 c" inst|tmp1~q $end
$var wire 1 d" Switch~input_o $end
$var wire 1 e" inst8~combout $end
$var wire 1 f" inst8~clkctrl_outclk $end
$var wire 1 g" inst3|Q1~0_combout $end
$var wire 1 h" inst3|Q1~3_combout $end
$var wire 1 i" inst3|Q1~2_combout $end
$var wire 1 j" inst3|Q1~1_combout $end
$var wire 1 k" inst2|Mux0~0_combout $end
$var wire 1 l" inst2|Mux1~0_combout $end
$var wire 1 m" inst2|Mux2~0_combout $end
$var wire 1 n" inst2|Mux3~0_combout $end
$var wire 1 o" inst2|Mux4~0_combout $end
$var wire 1 p" inst2|Mux5~0_combout $end
$var wire 1 q" inst2|Mux6~0_combout $end
$var wire 1 r" inst3|Q1 [3] $end
$var wire 1 s" inst3|Q1 [2] $end
$var wire 1 t" inst3|Q1 [1] $end
$var wire 1 u" inst3|Q1 [0] $end
$var wire 1 v" inst|cout1 [31] $end
$var wire 1 w" inst|cout1 [30] $end
$var wire 1 x" inst|cout1 [29] $end
$var wire 1 y" inst|cout1 [28] $end
$var wire 1 z" inst|cout1 [27] $end
$var wire 1 {" inst|cout1 [26] $end
$var wire 1 |" inst|cout1 [25] $end
$var wire 1 }" inst|cout1 [24] $end
$var wire 1 ~" inst|cout1 [23] $end
$var wire 1 !# inst|cout1 [22] $end
$var wire 1 "# inst|cout1 [21] $end
$var wire 1 ## inst|cout1 [20] $end
$var wire 1 $# inst|cout1 [19] $end
$var wire 1 %# inst|cout1 [18] $end
$var wire 1 &# inst|cout1 [17] $end
$var wire 1 '# inst|cout1 [16] $end
$var wire 1 (# inst|cout1 [15] $end
$var wire 1 )# inst|cout1 [14] $end
$var wire 1 *# inst|cout1 [13] $end
$var wire 1 +# inst|cout1 [12] $end
$var wire 1 ,# inst|cout1 [11] $end
$var wire 1 -# inst|cout1 [10] $end
$var wire 1 .# inst|cout1 [9] $end
$var wire 1 /# inst|cout1 [8] $end
$var wire 1 0# inst|cout1 [7] $end
$var wire 1 1# inst|cout1 [6] $end
$var wire 1 2# inst|cout1 [5] $end
$var wire 1 3# inst|cout1 [4] $end
$var wire 1 4# inst|cout1 [3] $end
$var wire 1 5# inst|cout1 [2] $end
$var wire 1 6# inst|cout1 [1] $end
$var wire 1 7# inst|cout1 [0] $end
$var wire 1 8# inst|cout2 [31] $end
$var wire 1 9# inst|cout2 [30] $end
$var wire 1 :# inst|cout2 [29] $end
$var wire 1 ;# inst|cout2 [28] $end
$var wire 1 <# inst|cout2 [27] $end
$var wire 1 =# inst|cout2 [26] $end
$var wire 1 ># inst|cout2 [25] $end
$var wire 1 ?# inst|cout2 [24] $end
$var wire 1 @# inst|cout2 [23] $end
$var wire 1 A# inst|cout2 [22] $end
$var wire 1 B# inst|cout2 [21] $end
$var wire 1 C# inst|cout2 [20] $end
$var wire 1 D# inst|cout2 [19] $end
$var wire 1 E# inst|cout2 [18] $end
$var wire 1 F# inst|cout2 [17] $end
$var wire 1 G# inst|cout2 [16] $end
$var wire 1 H# inst|cout2 [15] $end
$var wire 1 I# inst|cout2 [14] $end
$var wire 1 J# inst|cout2 [13] $end
$var wire 1 K# inst|cout2 [12] $end
$var wire 1 L# inst|cout2 [11] $end
$var wire 1 M# inst|cout2 [10] $end
$var wire 1 N# inst|cout2 [9] $end
$var wire 1 O# inst|cout2 [8] $end
$var wire 1 P# inst|cout2 [7] $end
$var wire 1 Q# inst|cout2 [6] $end
$var wire 1 R# inst|cout2 [5] $end
$var wire 1 S# inst|cout2 [4] $end
$var wire 1 T# inst|cout2 [3] $end
$var wire 1 U# inst|cout2 [2] $end
$var wire 1 V# inst|cout2 [1] $end
$var wire 1 W# inst|cout2 [0] $end
$upscope $end
$upscope $end
$enddefinitions $end
#0
$dumpvars
0!
1"
x)
x(
x'
x&
x%
x$
x#
x*
0+
1,
x-
1.
1/
10
x1
x2
x3
x4
x5
x6
x7
08
x9
x:
x;
x<
x=
x>
x?
x@
xA
xB
xC
xD
xE
xF
xG
xH
xI
xJ
xK
xL
xM
xN
xO
xP
xQ
xR
xS
xT
xU
xV
xW
xX
xY
xZ
x[
x\
x]
x^
x_
x`
xa
xb
xc
xd
xe
xf
xg
xh
xi
xj
xk
xl
xm
xn
xo
xp
xq
xr
xs
xt
xu
xv
xw
xx
xy
xz
x{
x|
x}
x~
x!!
x"!
x#!
x$!
x%!
x&!
x'!
x(!
x)!
x*!
x+!
x,!
x-!
x.!
x/!
x0!
x1!
x2!
x3!
x4!
x5!
x6!
x7!
x8!
x9!
x:!
x;!
x<!
x=!
x>!
x?!
x@!
xA!
xB!
xC!
xD!
xE!
xF!
xG!
xH!
xI!
xJ!
xK!
0L!
xM!
xN!
xO!
xP!
xQ!
xR!
xS!
xT!
xU!
xV!
xW!
xX!
xY!
xZ!
x[!
x\!
x]!
x^!
x_!
x`!
xa!
xb!
xc!
xd!
xe!
xf!
xg!
xh!
xi!
xj!
xk!
xl!
xm!
xn!
xo!
xp!
xq!
xr!
xs!
xt!
xu!
xv!
xw!
xx!
xy!
xz!
x{!
x|!
x}!
x~!
x!"
x""
x#"
x$"
x%"
x&"
x'"
x("
x)"
x*"
x+"
x,"
x-"
x."
x/"
x0"
x1"
x2"
x3"
x4"
x5"
x6"
x7"
x8"
x9"
x:"
x;"
x<"
x="
x>"
x?"
x@"
xA"
xB"
xC"
xD"
xE"
xF"
xG"
xH"
xI"
xJ"
xK"
xL"
xM"
xN"
xO"
xP"
xQ"
xR"
xS"
xT"
xU"
xV"
xW"
xX"
xY"
xZ"
x["
x\"
x]"
x^"
x_"
x`"
xa"
xb"
0c"
1d"
xe"
xf"
xg"
xh"
xi"
xj"
xk"
xl"
xm"
xn"
xo"
xp"
xq"
0u"
0t"
0s"
0r"
07#
06#
05#
04#
03#
02#
01#
00#
0/#
0.#
0-#
0,#
0+#
0*#
0)#
0(#
0'#
0&#
0%#
0$#
0##
0"#
0!#
0~"
0}"
0|"
0{"
0z"
0y"
0x"
0w"
0v"
0W#
0V#
0U#
0T#
0S#
0R#
0Q#
0P#
0O#
0N#
0M#
0L#
0K#
0J#
0I#
0H#
0G#
0F#
0E#
0D#
0C#
0B#
0A#
0@#
0?#
0>#
0=#
0<#
0;#
0:#
09#
08#
$end
#145
09
#447
0j"
#450
0h"
0i"
#463
1g"
#751
0m"
#763
0~
0x
#775
0g!
#779
0[!
#782
0O!
#784
0*!
#796
0I"
#801
0`
#802
0a!
0U!
#812
0f
#818
0l"
#821
1M!
#822
0q"
#891
1F"
10"
#894
1j!
#899
1R!
#902
1X!
#904
1-!
1]
#905
1W
#917
1|!
#919
1#!
#930
1Q
#932
1i
1^!
#935
1c
#936
1d!
#954
0s!
#972
0m!
#977
06!
#980
0r
#1016
00!
#1018
0l
#1021
0$!
#1026
0Z
#1033
03"
#1039
0<
#1041
07"
#1048
0!"
#1054
0H
0T
#1056
0C"
#1059
0N
#1060
0y!
#1064
0-"
#1067
0B
#1068
0'"
#1071
1p!
#1076
1:
#1087
1$"
#1089
0="
#1093
1u
#1109
1E
#1112
1v!
#1135
1{
13!
#1141
1?
#1142
0n"
1o
#1145
0k"
#1146
1'!
#1151
0o"
#1153
0p"
#1160
1K
#1190
1*"
#1192
1:"
#1200
1@"
0y
0!!
#1204
14"
#1212
0h!
#1216
0\!
#1219
0P!
#1221
0+!
#1233
0J"
#1238
0a
#1239
0V!
0b!
#1249
0g
#1281
0e"
#1328
01"
0G"
#1331
0k!
#1336
0S!
#1339
0Y!
#1341
0^
0.!
#1342
0X
#1354
0}!
#1356
0D!
#1367
0R
#1369
0_!
0j
#1372
0d
#1373
0e!
#1391
0t!
#1409
0n!
#1414
07!
#1417
0s
#1453
01!
#1455
0m
#1458
0%!
#1463
0[
#1470
0X"
#1476
0=
#1478
08"
#1485
0""
#1491
0U
0I
#1493
0D"
#1496
0O
#1497
0z!
#1501
0."
#1504
0C
#1505
0("
#1508
0q!
#1524
0%"
#1526
0>"
#1530
0v
#1546
0F
#1549
0w!
#1560
1N"
#1572
04!
0|
#1578
0@
#1579
0p
#1583
0(!
#1597
0L
#1627
0+"
#1629
0;"
#1637
0A"
#1641
05"
#1706
0M"
#1876
0E"
#1877
0H"
#1888
09!
#1913
1["
#1961
0K"
#1969
0,!
#1981
0W!
#1991
0Q!
#1993
0]!
#1997
0c!
#2009
1E!
#2010
0h
#2072
18!
#2079
0T!
#2085
0Z!
#2117
0f"
#2118
0@!
#2119
02!
#2120
05!
#2141
0`!
#2152
0w
#2169
0"!
#2175
0f!
#2176
0z
#2177
0i!
#2178
1G!
#2184
0=!
#2199
0}
#2226
0b
#2240
0P"
#2248
0L"
#2252
0P
#2267
1F!
#2279
0/"
#2288
0{!
#2305
0l!
#2308
0O"
#2311
0~!
#2324
0_
#2328
0C!
#2354
0)!
#2357
0k
#2367
0e
#2369
02"
#2380
0Y
#2386
1H!
0t
0/!
#2406
0?!
#2413
0o!
0u!
#2416
1\"
#2420
1`"
#2425
0S
#2429
0&!
#2438
0A!
#2452
0M
#2459
0V
#2467
0n
#2471
1Z"
0^"
#2475
0r!
#2479
1;!
#2482
0\
#2488
0W"
#2491
0Q"
#2503
0>!
#2522
0S"
#2525
0>
#2532
0D
#2537
0x!
#2540
1]"
#2550
0&"
#2557
0q
#2567
0)"
#2617
0G
#2635
0<"
#2649
06"
#2657
0,"
#2663
0A
#2683
1Y"
#2686
0B"
#2692
1I!
#2698
1:!
#2713
0#"
#2730
0_"
#2744
09"
#2757
0B!
#2800
0<!
#2811
0R"
#2813
0?"
#2864
0J
#2889
1J!
#3000
0T"
#3220
03
0%
#3262
02
0$
#3313
1a"
#3320
0U"
#3408
1;
#3540
0K!
#3623
01
0#
#3625
14
1&
#3638
0V"
#3648
05
0'
#3771
07
0)
#4022
0b"
#4079
06
0(
#4233
1N!
#5000
1!
0*
#5699
18
#5862
19
#7528
17#
#7535
1W#
#8283
0M!
#8352
1O!
#8562
0:
#8639
1<
#8807
1P!
#9040
0N"
#9060
0N!
#9094
1=
#9280
1N"
#9543
1Q!
#9943
0;
#10000
0!
1*
#10112
1>
#10862
08
#11007
09
#15000
1!
0*
#15699
18
#15862
19
#17528
07#
16#
#17535
0W#
#17536
1V#
#18230
0R!
#18283
0P!
#18310
0O!
#18349
1M!
#18368
1R!
#18486
0?
#18539
0=
#18574
0<
#18611
1:
#18632
1?
#18765
1P!
#19029
1=
#19055
0Q!
#19089
1N!
#19501
1Q!
#19957
1;
#20000
0!
1*
#20862
08
#21007
09
#25000
1!
0*
#25699
18
#25862
19
#27528
17#
#27535
1W#
#28283
0M!
#28352
1O!
#28410
0R!
#28562
0:
#28639
1<
#28697
0?
#28789
0P!
#28865
1S!
#29060
0N!
#29076
0=
#29152
1@
#29561
0Q!
#29565
1T!
#29943
0;
#30000
0!
1*
#30125
0>
#30203
1A
#30862
08
#31007
09
#35000
1!
0*
#35699
18
#35862
19
#37528
07#
06#
15#
#37535
0W#
1U#
#37536
0V#
#38310
0O!
#38317
0S!
#38349
1M!
#38394
1U!
#38427
1R!
#38485
0U!
#38574
0<
#38598
0@
#38611
1:
#38667
1B
#38677
1?
#38735
0B
#38882
1S!
#39060
0T!
#39089
1N!
#39132
1@
#39582
1T!
#39957
1;
#40000
0!
1*
#40862
08
#41007
09
#45000
1!
0*
#45699
18
#45862
19
#47528
17#
#47535
1W#
#48283
0M!
#48352
1O!
#48562
0:
#48639
1<
#48807
1P!
#49060
0N!
#49094
1=
#49543
1Q!
#49943
0;
#50000
0!
1*
#50112
1>
#50862
08
#51007
09
#55000
1!
0*
#55699
18
#55862
19
#57528
07#
16#
#57535
0W#
#57536
1V#
#58230
0R!
#58283
0P!
#58288
1U!
#58310
0O!
#58349
1M!
#58368
1R!
#58426
0U!
#58486
0?
#58539
0=
#58544
1B
#58574
0<
#58611
1:
#58632
1?
#58690
0B
#58765
1P!
#59029
1=
#59055
0Q!
#59089
1N!
#59501
1Q!
#59957
1;
#60000
0!
1*
#60862
08
#61007
09
#65000
1!
0*
#65699
18
#65862
19
#67528
17#
#67535
1W#
#68283
0M!
#68352
1O!
#68410
0R!
#68468
1U!
#68562
0:
#68639
1<
#68697
0?
#68755
1B
#68789
0P!
#68847
0S!
#68923
1V!
#69060
0N!
#69076
0=
#69134
0@
#69210
1C
#69561
0Q!
#69590
0T!
#69625
1W!
#69943
0;
#70000
0!
1*
#70125
0>
#70205
1D
#70219
0A
#70862
08
#71007
09
#75000
1!
0*
#75699
18
#75862
19
#77528
07#
06#
05#
14#
#77535
0W#
0U#
#77536
0V#
1T#
#78231
0X!
#78286
0V!
#78310
0O!
#78330
0U!
#78349
1M!
#78367
1S!
#78388
1X!
#78427
1R!
#78474
0E
#78527
0C
#78574
0<
#78602
0B
#78611
1:
#78641
1@
#78660
1E
#78677
1?
#78785
1V!
#78864
0S!
#79028
0W!
#79057
1C
#79067
1T!
#79089
1N!
#79114
0@
#79487
1W!
#79607
0T!
#79957
1;
#80000
0!
1*
#80862
08
#81007
09
#85000
1!
0*
#85699
18
#85862
19
#87528
17#
#87535
1W#
#88283
0M!
#88352
1O!
#88562
0:
#88639
1<
#88807
1P!
#89060
0N!
#89094
1=
#89543
1Q!
#89943
0;
#90000
0!
1*
#90112
1>
#90862
08
#91007
09
#95000
1!
0*
#95699
18
#95862
19
#97528
07#
16#
#97535
0W#
#97536
1V#
#98230
0R!
#98283
0P!
#98310
0O!
#98349
1M!
#98368
1R!
#98486
0?
#98539
0=
#98574
0<
#98611
1:
#98632
1?
#98765
1P!
#99029
1=
#99055
0Q!
#99089
1N!
#99501
1Q!
#99957
1;
#100000
0!
1*
#100862
08
#101007
09
#105000
1!
0*
#105699
18
#105862
19
#107528
17#
#107535
1W#
#108283
0M!
#108352
1O!
#108410
0R!
#108562
0:
#108639
1<
#108697
0?
#108789
0P!
#108865
1S!
#109060
0N!
#109076
0=
#109152
1@
#109561
0Q!
#109565
1T!
#109943
0;
#110000
0!
1*
#110125
0>
#110203
1A
#110862
08
#111007
09
#115000
1!
0*
#115699
18
#115862
19
#117528
07#
06#
15#
#117535
0W#
1U#
#117536
0V#
#118310
0O!
#118317
0S!
#118349
1M!
#118394
1U!
#118427
1R!
#118452
0X!
#118485
0U!
#118543
1X!
#118574
0<
#118598
0@
#118611
1:
#118667
1B
#118677
1?
#118725
0E
#118735
0B
#118793
1E
#118882
1S!
#119060
0T!
#119089
1N!
#119132
1@
#119582
1T!
#119957
1;
#120000
0!
1*
#120862
08
#121007
09
#125000
1!
0*
#125699
18
#125862
19
#127528
17#
#127535
1W#
#128283
0M!
#128352
1O!
#128562
0:
#128639
1<
#128807
1P!
#129060
0N!
#129094
1=
#129543
1Q!
#129943
0;
#130000
0!
1*
#130112
1>
#130862
08
#131007
09
#135000
1!
0*
#135699
18
#135862
19
#137528
07#
16#
#137535
0W#
#137536
1V#
#138230
0R!
#138283
0P!
#138288
1U!
#138310
0O!
#138346
0X!
#138349
1M!
#138368
1R!
#138426
0U!
#138484
1X!
#138486
0?
#138539
0=
#138544
1B
#138574
0<
#138602
0E
#138611
1:
#138632
1?
#138690
0B
#138748
1E
#138765
1P!
#139029
1=
#139055
0Q!
#139089
1N!
#139501
1Q!
#139957
1;
#140000
0!
1*
#140862
08
#141007
09
#145000
1!
0*
#145699
18
#145862
19
#147528
17#
#147535
1W#
#148283
0M!
#148352
1O!
#148410
0R!
#148468
1U!
#148526
0X!
#148562
0:
#148639
1<
#148697
0?
#148755
1B
#148789
0P!
#148813
0E
#148847
0S!
#148905
0V!
#148981
1Y!
#149060
0N!
#149076
0=
#149134
0@
#149192
0C
#149268
1F
#149561
0Q!
#149590
0T!
#149628
0N"
#149647
0W!
#149681
1Z!
#149943
0;
#150000
0!
1*
#150052
0;!
#150125
0>
#150219
0A
#150220
0D
#150309
1G
#150862
08
#151007
09
#155000
1!
0*
#155699
18
#155862
19
#157528
07#
06#
05#
04#
13#
#157535
0W#
0U#
1S#
#157536
0V#
0T#
#158284
0Y!
#158310
0O!
#158330
0U!
#158349
1M!
#158361
1[!
#158367
1S!
#158427
1R!
#158430
1X!
#158488
0[!
#158565
1C
#158574
0<
#158585
0F
#158602
0B
#158611
1:
#158641
1@
#158645
1E
#158677
1?
#158864
0S!
#158885
1Y!
#158929
1N"
#159030
0Z!
#159039
0C
#159067
1T!
#159089
1N!
#159100
1F
#159114
0@
#159585
1Z!
#159607
0T!
#159957
1;
#160000
0!
1*
#160014
1;!
#160862
08
#161007
09
#165000
1!
0*
#165699
18
#165862
19
#167528
17#
#167535
1W#
#168283
0M!
#168352
1O!
#168562
0:
#168639
1<
#168807
1P!
#169040
0N"
#169060
0N!
#169094
1=
#169280
1N"
#169543
1Q!
#169943
0;
#170000
0!
1*
#170112
1>
#170862
08
#171007
09
#175000
1!
0*
#175699
18
#175862
19
#177528
07#
16#
#177535
0W#
#177536
1V#
#178230
0R!
#178283
0P!
#178310
0O!
#178349
1M!
#178368
1R!
#178486
0?
#178539
0=
#178574
0<
#178611
1:
#178632
1?
#178765
1P!
#179029
1=
#179055
0Q!
#179089
1N!
#179501
1Q!
#179957
1;
#180000
0!
1*
#180862
08
#181007
09
#185000
1!
0*
#185699
18
#185862
19
#187528
17#
#187535
1W#
#188283
0M!
#188352
1O!
#188410
0R!
#188562
0:
#188639
1<
#188697
0?
#188789
0P!
#188865
1S!
#189060
0N!
#189076
0=
#189152
1@
#189561
0Q!
#189565
1T!
#189943
0;
#190000
0!
1*
#190125
0>
#190203
1A
#190862
08
#191007
09
#195000
1!
0*
#195699
18
#195862
19
#197528
07#
06#
15#
#197535
0W#
1U#
#197536
0V#
#198310
0O!
#198317
0S!
#198349
1M!
#198394
1U!
#198427
1R!
#198485
0U!
#198574
0<
#198598
0@
#198611
1:
#198667
1B
#198677
1?
#198735
0B
#198882
1S!
#199060
0T!
#199089
1N!
#199132
1@
#199582
1T!
#199957
1;
#200000
0!
1*
#200862
08
#201007
09
#205000
1!
0*
#205699
18
#205862
19
#207528
17#
#207535
1W#
#208283
0M!
#208352
1O!
#208562
0:
#208639
1<
#208807
1P!
#209060
0N!
#209094
1=
#209543
1Q!
#209943
0;
#210000
0!
1*
#210112
1>
#210862
08
#211007
09
#215000
1!
0*
#215699
18
#215862
19
#217528
07#
16#
