NWPU_DIgitalCircuiitExperiments_Xmk_Xyr/Test/4/testfinal/test3/simulation/qsim/test3.msim.vcd
$comment
	File created using the following command:
		vcd file test3.msim.vcd -direction
$end
$date
	Sat Jun 24 20:35:59 2023
$end
$version
	ModelSim Version 10.1d
$end
$timescale
	1ps
$end
$scope module test3_vlg_vec_tst $end
$var reg 1 ! clk $end
$var reg 1 " reset $end
$var wire 1 # OutD [3] $end
$var wire 1 $ OutD [2] $end
$var wire 1 % OutD [1] $end
$var wire 1 & OutD [0] $end
$var wire 1 ' Sign $end
$var wire 1 ( sampler $end
$scope module i1 $end
$var wire 1 ) gnd $end
$var wire 1 * vcc $end
$var wire 1 + unknown $end
$var tri1 1 , devclrn $end
$var tri1 1 - devpor $end
$var tri1 1 . devoe $end
$var wire 1 / OutD[0]~output_o $end
$var wire 1 0 OutD[1]~output_o $end
$var wire 1 1 OutD[2]~output_o $end
$var wire 1 2 OutD[3]~output_o $end
$var wire 1 3 Sign~output_o $end
$var wire 1 4 clk~input_o $end
$var wire 1 5 clk~inputclkctrl_outclk $end
$var wire 1 6 temp[0]~3_combout $end
$var wire 1 7 reset~input_o $end
$var wire 1 8 reset~inputclkctrl_outclk $end
$var wire 1 9 temp[1]~0_combout $end
$var wire 1 : temp[2]~1_combout $end
$var wire 1 ; temp[3]~2_combout $end
$var wire 1 < LessThan0~0_combout $end
$var wire 1 = Sign~reg0_q $end
$var wire 1 > temp [3] $end
$var wire 1 ? temp [2] $end
$var wire 1 @ temp [1] $end
$var wire 1 A temp [0] $end
$upscope $end
$upscope $end
$enddefinitions $end
#0
$dumpvars
0!
0"
x&
x%
x$
x#
x'
x(
0)
1*
x+
1,
1-
1.
x/
x0
x1
x2
x3
04
x5
16
07
x8
x9
x:
x;
x<
0=
0A
0@
0?
0>
$end
#378
08
05
#435
0;
#458
0:
#459
09
#552
0<
#3062
01
0$
#3094
03
0'
#3186
0/
0&
#3199
02
0#
#3261
00
0%
#5000
1!
0(
#5527
14
#5917
15
#7553
1A
#7922
06
#7943
19
#10000
0!
1(
#10701
04
#10818
1/
1&
#11079
05
#15000
1!
0(
#15527
14
#15917
15
#17553
0A
1@
#17906
16
#20000
0!
1(
#20701
04
#20739
0/
0&
#20910
10
1%
#21079
05
#25000
1!
0(
#25527
14
#25917
15
#27553
1A
#27922
06
#27933
09
#27942
1:
#30000
0!
1(
#30701
04
#30818
1/
1&
#31079
05
#35000
1!
0(
#35527
14
#35917
15
#37553
0A
0@
1?
#37906
16
#40000
0!
1(
#40697
11
1$
#40701
04
#40739
0/
0&
#40814
00
0%
#41079
05
#45000
1!
0(
#45527
14
#45917
15
#47553
1A
#47922
06
#47943
19
#50000
0!
1(
#50701
04
#50818
1/
1&
#51079
05
#55000
1!
0(
#55527
14
#55917
15
#57553
0A
1@
#57906
16
#60000
0!
1(
#60701
04
#60739
0/
0&
#60910
10
1%
#61079
05
#65000
1!
0(
#65527
14
#65917
15
#67553
1A
#67922
06
#67932
0:
#67933
09
#68175
1;
#70000
0!
1(
#70701
04
#70818
1/
1&
#71079
05
#75000
1!
0(
#75527
14
#75917
15
#77553
0A
0@
0?
1>
#77906
16
#80000
0!
1(
#80615
01
0$
#80701
04
#80739
0/
0&
#80814
00
0%
#80840
12
1#
#81079
05
#85000
1!
0(
#85527
14
#85917
15
#87553
1A
#87922
06
#87943
19
#90000
0!
1(
#90701
04
#90818
1/
1&
#91079
05
#95000
1!
0(
#95527
14
#95917
15
#97553
0A
1@
#97906
16
#100000
0!
1(
#100701
04
#100739
0/
0&
#100910
10
1%
#101079
05
#105000
1!
0(
#105527
14
#105917
15
#107553
1A
#107922
06
#107933
09
#107942
1:
#110000
0!
1(
#110701
04
#110818
1/
1&
#111079
05
#115000
1!
0(
#115527
14
#115917
15
#117553
0A
0@
1?
#117906
16
#117918
0;
#118259
1;
#120000
0!
1(
#120697
11
1$
#120701
04
#120739
0/
0&
#120814
00
0%
#121079
05
#125000
1!
0(
#125527
14
#125917
15
#127553
1A
#127922
06
#127943
19
#130000
0!
1(
#130701
04
#130818
1/
1&
#131079
05
#135000
1!
0(
#135527
14
#135917
15
#137553
0A
1@
#137906
16
#140000
0!
1(
#140701
04
#140739
0/
0&
#140910
10
1%
#141079
05
#145000
1!
0(
#145527
14
#145917
15
#147553
1A
#147922
06
#147932
0:
#147933
09
#148142
1<
#148174
0;
#150000
0!
1(
#150701
04
#150818
1/
1&
#151079
05
#155000
1!
0(
#155527
14
#155917
15
#157553
0A
0@
0?
0>
1=
#157906
16
#158105
0<
#160000
0!
1(
#160615
01
0$
#160701
04
#160722
13
1'
#160739
0/
0&
#160752
02
0#
#160814
00
0%
#161079
05
#165000
1!
0(
#165527
14
#165917
15
#167553
1A
0=
#167922
06
#167943
19
#170000
0!
1(
#170647
03
0'
#170701
04
#170818
1/
1&
#171079
05
#175000
1!
0(
#175527
14
#175917
15
#177553
0A
1@
#177906
16
#180000
0!
1(
#180701
04
#180739
0/
0&
#180910
10
1%
#181079
05
#185000
1!
0(
#185527
14
#185917
15
#187553
1A
#187922
06
#187933
09
#187942
1:
#190000
0!
1(
#190701
04
#190818
1/
1&
#191079
05
#195000
1!
0(
#195527
14
#195917
15
#197553
0A
0@
1?
#197906
16
#200000
0!
1(
#200697
11
1$
#200701
04
#200739
0/
0&
#200814
00
0%
#201079
05
#205000
1!
0(
#205527
14
#205917
15
#207553
1A
#207922
06
#207943
19
#210000
0!
1(
#210701
04
#210818
1/
1&
#211079
05
#215000
1!
0(
#215527
14
#215917
15
#217553
0A
1@
#217906
16
#220000
0!
1(
#220701
04
#220739
0/
0&
#220910
10
1%
#221079
05
#225000
1!
0(
#225527
14
#225917
15
#227553
1A
#227922
06
#227932
0:
#227933
09
#228175
1;
#230000
0!
1(
#230701
04
#230818
1/
1&
#231079
05
#235000
1!
0(
#235527
14
#235917
15
#237553
0A
0@
0?
1>
#237906
16
#240000
0!
1(
#240615
01
0$
#240701
04
#240739
0/
0&
#240814
00
0%
#240840
12
1#
#241079
05
#245000
1!
0(
#245527
14
#245917
15
#247553
1A
#247922
06
#247943
19
#250000
0!
1(
#250701
04
#250818
1/
1&
#251079
05
#255000
1!
0(
#255527
14
#255917
15
#257553
0A
1@
#257906
16
#260000
0!
1(
#260701
04
#260739
0/
0&
#260910
10
1%
#261079
05
#265000
1!
0(
#265527
14
#265917
15
#267553
1A
#267922
06
#267933
09
#267942
1:
#270000
0!
1(
#270701
04
#270818
1/
1&
#271079
05
#275000
1!
0(
#275527
14
#275917
15
#277553
0A
0@
1?
#277906
16
#277918
0;
#278259
1;
#280000
0!
1(
#280697
11
1$
#280701
04
#280739
0/
0&
#280814
00
0%
#281079
05
#285000
1!
0(
#285527
14
#285917
15
#287553
1A
#287922
06
#287943
19
#290000
0!
1(
#290701
04
#290818
1/
1&
#291079
05
#295000
1!
0(
#295527
14
#295917
15
#297553
0A
1@
#297906
16
#300000
0!
1(
#300701
04
#300739
0/
0&
#300910
10
1%
#301079
05
#305000
1!
0(
#305527
14
#305917
15
#307553
1A
#307922
06
#307932
0:
#307933
09
#308142
1<
#308174
0;
#310000
0!
1(
#310701
04
#310818
1/
1&
#311079
05
#315000
1!
0(
#315527
14
#315917
15
#317553
0A
0@
0?
0>
1=
#317906
16
#318105
0<
#320000
0!
1(
#320615
01
0$
#320701
04
#320722
13
1'
#320739
0/
0&
#320752
02
0#
#320814
00
0%
#321079
05
#325000
1!
0(
#325527
14
#325917
15
#327553
1A
0=
#327922
06
#327943
19
#330000
0!
1(
#330647
03
0'
#330701
04
#330818
1/
1&
#331079
05
#335000
1!
0(
#335527
14
#335917
15
#337553
0A
1@
#337906
16
#340000
0!
1(
#340701
04
#340739
0/
0&
#340910
10
1%
#341079
05
#345000
1!
0(
#345527
14
#345917
15
#347553
1A
#347922
06
#347933
09
#347942
1:
#350000
0!
1(
#350701
04
#350818
1/
1&
#351079
05
#355000
1!
0(
#355527
14
#355917
15
#357553
0A
0@
1?
#357906
16
#360000
0!
1(
#360697
11
1$
#360701
04
#360739
0/
0&
#360814
00
0%
#361079
05
#365000
1!
0(
#365527
14
#365917
15
#367553
1A
#367922
06
#367943
19
#370000
0!
1(
#370701
04
#370818
1/
1&
#371079
05
#375000
1!
0(
#375527
14
#375917
15
#377553
0A
1@
#377906
16
#380000
0!
1(
#380701
04
#380739
0/
0&
#380910
10
1%
#381079
05
#385000
1!
0(
#385527
14
#385917
15
#387553
1A
#387922
06
#387932
0:
#387933
09
#388175
1;
#390000
0!
1(
#390701
04
#390818
1/
1&
#391079
05
#395000
1!
0(
#395527
14
#395917
15
#397553
0A
0@
0?
1>
#397906
16
#400000
0!
1(
#400615
01
0$
#400701
04
#400739
0/
0&
#400814
00
0%
#400840
12
1#
#401079
05
#405000
1!
0(
#405527
14
#405917
15
#407553
1A
#407922
06
#407943
19
#410000
0!
1(
#410701
04
#410818
1/
1&
#411079
05
#415000
1!
0(
#415527
14
#415917
15
#417553
0A
1@
#417906
16
#420000
0!
1(
#420701
04
#420739
0/
0&
#420910
10
1%
#421079
05
#425000
1!
0(
#425527
14
#425917
15
#427553
1A
#427922
06
#427933
09
#427942
1:
#430000
0!
1(
#430701
04
#430818
1/
1&
#431079
05
#435000
1!
0(
#435527
14
#435917
15
#437553
0A
0@
1?
#437906
16
#437918
0;
#438259
1;
#440000
0!
1(
#440697
11
1$
#440701
04
#440739
0/
0&
#440814
00
0%
#441079
05
#445000
1!
0(
#445527
14
#445917
15
#447553
1A
#447922
06
#447943
19
#450000
0!
1(
#450701
04
#450818
1/
1&
#451079
05
#455000
1!
0(
#455527
14
#455917
15
#457553
0A
1@
#457906
16
#460000
0!
1(
#460701
04
#460739
0/
0&
#460910
10
1%
#461079
05
#465000
1!
0(
#465527
14
#465917
15
#467553
1A
#467922
06
#467932
0:
#467933
09
#468142
1<
#468174
0;
#470000
0!
1(
#470701
04
#470818
1/
1&
#471079
05
#475000
1!
0(
#475527
14
#475917
15
#477553
0A
0@
0?
0>
1=
#477906
16
#478105
0<
#480000
0!
1(
#480615
01
0$
#480701
04
#480722
13
1'
#480739
0/
0&
#480752
02
0#
#480814
00
0%
#481079
05
#485000
1!
0(
#485527
14
#485917
15
#487553
1A
0=
#487922
06
#487943
19
#490000
0!
1(
#490647
03
0'
#490701
04
#490818
1/
1&
#491079
05
#495000
1!
0(
#495527
14
#495917
15
#497553
0A
1@
#497906
16
#500000
0!
1(
#500701
04
#500739
0/
0&
#500910
10
1%
#501079
05
#505000
1!
0(
#505527
14
#505917
15
#507553
1A
#507922
06
#507933
09
#507942
1:
#510000
0!
1(
#510701
04
#510818
1/
1&
#511079
05
#515000
1!
0(
#515527
14
#515917
15
#517553
0A
0@
1?
#517906
16
#520000
0!
1(
#520697
11
1$
#520701
04
#520739
0/
0&
#520814
00
0%
#521079
05
#525000
1!
0(
#525527
14
#525917
15
#527553
1A
#527922
06
#527943
19
#530000
0!
1(
#530701
04
#530818
1/
1&
#531079
05
#535000
1!
0(
#535527
14
#535917
15
#537553
0A
1@
#537906
16
#540000
0!
1(
#540701
04
#540739
0/
0&
#540910
10
1%
#541079
05
#545000
1!
0(
#545527
14
#545917
15
#547553
1A
#547922
06
#547932
0:
#547933
09
#548175
1;
#550000
0!
1(
#550701
04
#550818
1/
1&
#551079
05
#555000
1!
0(
#555527
14
#555917
15
#557553
0A
0@
0?
1>
#557906
16
#560000
0!
1(
#560615
01
0$
#560701
04
#560739
0/
0&
#560814
00
0%
#560840
12
1#
#561079
05
#565000
1!
0(
#565527
14
#565917
15
#567553
1A
#567922
06
#567943
19
#570000
0!
1(
#570701
04
#570818
1/
1&
#571079
05
#575000
1!
0(
#575527
14
#575917
15
#577553
0A
1@
#577906
16
#580000
0!
1(
#580701
04
#580739
0/
0&
#580910
10
1%
#581079
05
#585000
1!
0(
#585527
14
#585917
15
#587553
1A
#587922
06
#587933
09
#587942
1:
#590000
0!
1(
#590701
04
#590818
1/
1&
#591079
05
#595000
1!
0(
#595527
14
#595917
15
#597553
0A
0@
1?
#597906
16
#597918
0;
#598259
1;
#600000
0!
1(
#600697
11
1$
#600701
04
#600739
0/
0&
#600814
00
0%
#601079
05
#605000
1!
0(
#605527
14
#605917
15
#607553
1A
#607922
06
#607943
19
#610000
0!
1(
#610701
04
#610818
1/
1&
#611079
05
#615000
1!
0(
#615527
14
#615917
15
#617553
0A
1@
#617906
16
#620000
0!
1(
#620701
04
#620739
0/
0&
#620910
10
1%
#621079
05
#625000
1!
0(
#625527
14
#625917
15
#627553
1A
#627922
06
#627932
0:
#627933
09
#628142
1<
#628174
0;
#630000
0!
1(
#630701
04
#630818
1/
1&
#631079
05
#635000
1!
0(
#635527
14
#635917
15
#637553
0A
0@
0?
0>
1=
#637906
16
#638105
0<
#640000
0!
1(
#640615
01
0$
#640701
04
#640722
13
1'
#640739
0/
0&
#640752
02
0#
#640814
00
0%
#641079
05
#645000
1!
0(
#645527
14
#645917
15
#647553
1A
0=
#647922
06
#647943
19
#650000
0!
1(
#650647
03
0'
#650701
04
#650818
1/
1&
#651079
05
#655000
1!
0(
#655527
14
#655917
15
#657553
0A
1@
#657906
16
#660000
0!
1(
#660701
04
#660739
0/
0&
#660910
10
1%
#661079
05
#665000
1!
0(
#665527
14
#665917
15
#667553
1A
#667922
06
#667933
09
#667942
1:
#670000
0!
1(
#670701
04
#670818
1/
1&
#671079
05
#675000
1!
0(
#675527
14
#675917
15
#677553
0A
0@
1?
#677906
16
#680000
0!
1(
#680697
11
1$
#680701
04
#680739
0/
0&
#680814
00
0%
#681079
05
#685000
1!
0(
#685527
14
#685917
15
#687553
1A
#687922
06
#687943
19
#690000
0!
1(
#690701
04
#690818
1/
1&
#691079
05
#695000
1!
0(
#695527
14
#695917
15
#697553
0A
1@
#697906
16
#700000
0!
1(
#700701
04
#700739
0/
0&
#700910
10
1%
#701079
05
#705000
1!
0(
#705527
14
#705917
15
#707553
1A
#707922
06
#707932
0:
#707933
09
#708175
1;
#710000
0!
1(
#710701
04
#710818
1/
1&
#711079
05
#715000
1!
0(
#715527
14
#715917
15
#717553
0A
0@
0?
1>
#717906
16
#720000
0!
1(
#720615
01
0$
#720701
04
#720739
0/
0&
#720814
00
0%
#720840
12
1#
#721079
05
#725000
1!
0(
#725527
14
#725917
15
#727553
1A
#727922
06
#727943
19
#730000
0!
1(
#730701
04
#730818
1/
1&
#731079
05
#735000
1!
0(
#735527
14
#735917
15
#737553
0A
1@
#737906
16
#740000
0!
1(
#740701
04
#740739
0/
0&
#740910
10
1%
#741079
05
#745000
1!
0(
#745527
14
#745917
15
#747553
1A
#747922
06
#747933
09
#747942
1:
#750000
0!
1(
#750701
04
#750818
1/
1&
#751079
05
#755000
1!
0(
#755527
14
#755917
15
#757553
0A
0@
1?
#757906
16
#757918
0;
#758259
1;
#760000
0!
1(
#760697
11
1$
#760701
04
#760739
0/
0&
#760814
00
0%
#761079
05
#765000
1!
0(
#765527
14
#765917
15
#767553
1A
#767922
06
#767943
19
#770000
0!
1(
#770701
04
#770818
1/
1&
#771079
05
#775000
1!
0(
#775527
14
#775917
15
#777553
0A
1@
#777906
16
#780000
0!
1(
#780701
04
#780739
0/
0&
#780910
10
1%
#781079
05
#785000
1!
0(
#785527
14
#785917
15
#787553
1A
#787922
06
#787932
0:
#787933
09
#788142
1<
#788174
0;
#790000
0!
1(
#790701
04
#790818
1/
1&
#791079
05
#795000
1!
0(
#795527
14
#795917
15
#797553
0A
0@
0?
0>
1=
#797906
16
#798105
0<
#800000
0!
1(
#800615
01
0$
#800701
04
#800722
13
1'
#800739
0/
0&
#800752
02
0#
#800814
00
0%
#801079
05
#805000
1!
0(
#805527
14
#805917
15
#807553
1A
0=
#807922
06
#807943
19
#810000
0!
1(
#810647
03
0'
#810701
04
#810818
1/
1&
#811079
05
#815000
1!
0(
#815527
14
#815917
15
#817553
0A
1@
#817906
16
#820000
0!
1(
#820701
04
#820739
0/
0&
#820910
10
1%
#821079
05
#825000
1!
0(
#825527
14
#825917
15
#827553
1A
#827922
06
#827933
09
#827942
1:
#830000
0!
1(
#830701
04
#830818
1/
1&
#831079
05
#835000
1!
0(
#835527
14
#835917
15
#837553
0A
0@
1?
#837906
16
#840000
0!
1(
#840697
11
1$
#840701
04
#840739
0/
0&
#840814
00
0%
#841079
05
#845000
1!
0(
#845527
14
#845917
15
#847553
1A
#847922
06
#847943
19
#850000
0!
1(
#850701
04
#850818
1/
1&
#851079
05
#855000
1!
0(
#855527
14
#855917
15
#857553
0A
1@
#857906
16
#860000
0!
1(
#860701
04
#860739
0/
0&
#860910
10
1%
#861079
05
#865000
1!
0(
#865527
14
#865917
15
#867553
1A
#867922
06
#867932
0:
#867933
09
#868175
1;
#870000
0!
1(
#870701
04
#870818
1/
1&
#871079
05
#875000
1!
0(
#875527
14
#875917
15
#877553
0A
0@
0?
1>
#877906
16
#880000
0!
1(
#880615
01
0$
#880701
04
#880739
0/
0&
#880814
00
0%
#880840
12
1#
#881079
05
#885000
1!
0(
#885527
14
#885917
15
#887553
1A
#887922
06
#887943
19
#890000
0!
1(
#890701
04
#890818
1/
1&
#891079
05
#895000
1!
0(
#895527
14
#895917
15
#897553
0A
1@
#897906
16
#900000
0!
1(
#900701
04
#900739
0/
0&
#900910
10
1%
#901079
05
#905000
1!
0(
#905527
14
#905917
15
#907553
1A
#907922
06
#907933
09
#907942
1:
#910000
0!
1(
#910701
04
#910818
1/
1&
#911079
05
#915000
1!
0(
#915527
14
#915917
15
#917553
0A
0@
1?
#917906
16
#917918
0;
#918259
1;
#920000
0!
1(
#920697
11
1$
#920701
04
#920739
0/
0&
#920814
00
0%
#921079
05
#925000
1!
0(
#925527
14
#925917
15
#927553
1A
#927922
06
#927943
19
#930000
0!
1(
#930701
04
#930818
1/
1&
#931079
05
#935000
1!
0(
#935527
14
#935917
15
#937553
0A
1@
#937906
16
#940000
0!
1(
#940701
04
#940739
0/
0&
#940910
10
1%
#941079
05
#945000
1!
0(
#945527
14
#945917
15
#947553
1A
#947922
06
#947932
0:
#947933
09
#948142
1<
#948174
0;
#950000
0!
1(
#950701
04
#950818
1/
1&
#951079
05
#955000
1!
0(
#955527
14
#955917
15
#957553
0A
0@
0?
0>
1=
#957906
16
#958105
0<
#960000
0!
1(
#960615
01
0$
#960701
04
#960722
13
1'
#960739
0/
0&
#960752
02
0#
#960814
00
0%
#961079
05
#965000
1!
0(
#965527
14
#965917
15
#967553
1A
0=
#967922
06
#967943
19
#970000
0!
1(
#970647
03
0'
#970701
04
#970818
1/
1&
#971079
05
#975000
1!
0(
#975527
14
#975917
15
#977553
0A
1@
#977906
16
#980000
0!
1(
#980701
04
#980739
0/
0&
#980910
10
1%
#981079
05
#985000
1!
0(
#985527
14
#985917
15
#987553
1A
#987922
06
#987933
09
#987942
1:
#990000
0!
1(
#990701
04
#990818
1/
1&
#991079
05
#995000
1!
0(
#995527
14
#995917
15
#997553
0A
0@
1?
#997906
16
