NWPU_DIgitalCircuiitExperiments_Xmk_Xyr/Test/5/simulation/qsim/test5.msim.vcd
$comment
	File created using the following command:
		vcd file test5.msim.vcd -direction
$end
$date
	Sun Jun 04 14:46:44 2023
$end
$version
	ModelSim Version 10.1d
$end
$timescale
	1ps
$end
$scope module test5_vlg_vec_tst $end
$var reg 1 ! CLK $end
$var wire 1 " out_1Hz $end
$var wire 1 # OutD [7] $end
$var wire 1 $ OutD [6] $end
$var wire 1 % OutD [5] $end
$var wire 1 & OutD [4] $end
$var wire 1 ' OutD [3] $end
$var wire 1 ( OutD [2] $end
$var wire 1 ) OutD [1] $end
$var wire 1 * OutD [0] $end
$var wire 1 + q [7] $end
$var wire 1 , q [6] $end
$var wire 1 - q [5] $end
$var wire 1 . q [4] $end
$var wire 1 / q [3] $end
$var wire 1 0 q [2] $end
$var wire 1 1 q [1] $end
$var wire 1 2 q [0] $end
$var wire 1 3 sampler $end
$scope module i1 $end
$var wire 1 4 gnd $end
$var wire 1 5 vcc $end
$var wire 1 6 unknown $end
$var tri1 1 7 devclrn $end
$var tri1 1 8 devpor $end
$var tri1 1 9 devoe $end
$var wire 1 : out_1Hz~output_o $end
$var wire 1 ; OutD[7]~output_o $end
$var wire 1 < OutD[6]~output_o $end
$var wire 1 = OutD[5]~output_o $end
$var wire 1 > OutD[4]~output_o $end
$var wire 1 ? OutD[3]~output_o $end
$var wire 1 @ OutD[2]~output_o $end
$var wire 1 A OutD[1]~output_o $end
$var wire 1 B OutD[0]~output_o $end
$var wire 1 C q[7]~output_o $end
$var wire 1 D q[6]~output_o $end
$var wire 1 E q[5]~output_o $end
$var wire 1 F q[4]~output_o $end
$var wire 1 G q[3]~output_o $end
$var wire 1 H q[2]~output_o $end
$var wire 1 I q[1]~output_o $end
$var wire 1 J q[0]~output_o $end
$var wire 1 K CLK~input_o $end
$var wire 1 L CLK~inputclkctrl_outclk $end
$var wire 1 M inst2|temp[0]~8_combout $end
$var wire 1 N inst2|LessThan0~1_combout $end
$var wire 1 O inst2|LessThan0~0_combout $end
$var wire 1 P inst2|LessThan0~2_combout $end
$var wire 1 Q inst2|temp[0]~9 $end
$var wire 1 R inst2|temp[1]~10_combout $end
$var wire 1 S inst2|temp[1]~11 $end
$var wire 1 T inst2|temp[2]~12_combout $end
$var wire 1 U inst2|temp[2]~13 $end
$var wire 1 V inst2|temp[3]~14_combout $end
$var wire 1 W inst2|temp[3]~15 $end
$var wire 1 X inst2|temp[4]~16_combout $end
$var wire 1 Y inst2|temp[4]~17 $end
$var wire 1 Z inst2|temp[5]~18_combout $end
$var wire 1 [ inst2|temp[5]~19 $end
$var wire 1 \ inst2|temp[6]~20_combout $end
$var wire 1 ] inst2|temp[6]~21 $end
$var wire 1 ^ inst2|temp[7]~22_combout $end
$var wire 1 _ inst6|altsyncram_component|auto_generated|q_a [7] $end
$var wire 1 ` inst6|altsyncram_component|auto_generated|q_a [6] $end
$var wire 1 a inst6|altsyncram_component|auto_generated|q_a [5] $end
$var wire 1 b inst6|altsyncram_component|auto_generated|q_a [4] $end
$var wire 1 c inst6|altsyncram_component|auto_generated|q_a [3] $end
$var wire 1 d inst6|altsyncram_component|auto_generated|q_a [2] $end
$var wire 1 e inst6|altsyncram_component|auto_generated|q_a [1] $end
$var wire 1 f inst6|altsyncram_component|auto_generated|q_a [0] $end
$var wire 1 g inst2|temp [7] $end
$var wire 1 h inst2|temp [6] $end
$var wire 1 i inst2|temp [5] $end
$var wire 1 j inst2|temp [4] $end
$var wire 1 k inst2|temp [3] $end
$var wire 1 l inst2|temp [2] $end
$var wire 1 m inst2|temp [1] $end
$var wire 1 n inst2|temp [0] $end
$var wire 1 o inst6|altsyncram_component|auto_generated|ram_block1a0_PORTADATAOUT_bus [17] $end
$var wire 1 p inst6|altsyncram_component|auto_generated|ram_block1a0_PORTADATAOUT_bus [16] $end
$var wire 1 q inst6|altsyncram_component|auto_generated|ram_block1a0_PORTADATAOUT_bus [15] $end
$var wire 1 r inst6|altsyncram_component|auto_generated|ram_block1a0_PORTADATAOUT_bus [14] $end
$var wire 1 s inst6|altsyncram_component|auto_generated|ram_block1a0_PORTADATAOUT_bus [13] $end
$var wire 1 t inst6|altsyncram_component|auto_generated|ram_block1a0_PORTADATAOUT_bus [12] $end
$var wire 1 u inst6|altsyncram_component|auto_generated|ram_block1a0_PORTADATAOUT_bus [11] $end
$var wire 1 v inst6|altsyncram_component|auto_generated|ram_block1a0_PORTADATAOUT_bus [10] $end
$var wire 1 w inst6|altsyncram_component|auto_generated|ram_block1a0_PORTADATAOUT_bus [9] $end
$var wire 1 x inst6|altsyncram_component|auto_generated|ram_block1a0_PORTADATAOUT_bus [8] $end
$var wire 1 y inst6|altsyncram_component|auto_generated|ram_block1a0_PORTADATAOUT_bus [7] $end
$var wire 1 z inst6|altsyncram_component|auto_generated|ram_block1a0_PORTADATAOUT_bus [6] $end
$var wire 1 { inst6|altsyncram_component|auto_generated|ram_block1a0_PORTADATAOUT_bus [5] $end
$var wire 1 | inst6|altsyncram_component|auto_generated|ram_block1a0_PORTADATAOUT_bus [4] $end
$var wire 1 } inst6|altsyncram_component|auto_generated|ram_block1a0_PORTADATAOUT_bus [3] $end
$var wire 1 ~ inst6|altsyncram_component|auto_generated|ram_block1a0_PORTADATAOUT_bus [2] $end
$var wire 1 !! inst6|altsyncram_component|auto_generated|ram_block1a0_PORTADATAOUT_bus [1] $end
$var wire 1 "! inst6|altsyncram_component|auto_generated|ram_block1a0_PORTADATAOUT_bus [0] $end
$upscope $end
$upscope $end
$enddefinitions $end
#0
$dumpvars
0!
x"
x*
x)
x(
x'
x&
x%
x$
x#
x2
x1
x0
x/
x.
x-
x,
x+
x3
04
15
x6
17
18
19
x:
x;
x<
x=
x>
x?
x@
xA
xB
xC
xD
xE
xF
xG
xH
xI
xJ
0K
xL
xM
xN
xO
xP
xQ
xR
xS
xT
xU
xV
xW
xX
xY
xZ
x[
x\
x]
x^
0f
0e
0d
0c
0b
0a
0`
0_
0n
0m
0l
0k
0j
0i
0h
0g
0"!
0!!
0~
0}
0|
0{
0z
0y
0x
0w
0v
0u
0t
0s
0r
0q
0p
0o
$end
#378
0L
#448
1O
#669
0Q
#670
0U
#671
0]
#674
0Y
#706
1M
#712
1N
#792
1S
#795
1W
#799
1[
#1106
0R
#1107
0V
#1108
0^
#1111
0Z
#1132
0P
#1229
0T
#1232
0X
#1236
0\
#3491
0?
0'
#3502
0B
0*
#3551
0;
0#
#3553
0H
00
#3594
0=
0%
#3652
0F
0.
#3657
0D
0,
#3804
0C
0+
#3961
0A
0)
#4005
0>
0&
#4161
0@
0(
#4187
0<
0$
#4516
0:
0"
#4550
0I
01
#5119
0G
0/
#5319
0J
02
#5596
0E
0-
#10000
1!
03
#10527
1K
#10917
1L
#12569
1n
#13211
0M
#13288
1Q
#13743
1R
#15061
1:
1"
#16154
1B
1*
#20000
0!
13
#20701
0K
#21079
0L
#25217
0:
0"
#30000
1!
03
#30527
1K
#30917
1L
#32569
0n
1m
#32960
1"!
1!!
1~
1}
1|
1{
1z
1f
1e
1d
1c
1b
1a
1`
#33160
0S
#33213
0R
#33238
0Q
#33275
1M
#33296
1S
#33693
1R
#35061
1:
1"
#36071
0B
0*
#36579
1A
1)
#36623
1H
10
#36671
1F
1.
#36737
1D
1,
#37575
1I
11
#38046
1G
1/
#38313
1J
12
#38519
1E
1-
#40000
0!
13
#40701
0K
#41079
0L
#45217
0:
0"
#50000
1!
03
#50527
1K
#50917
1L
#52569
1n
#52960
0"!
0~
0}
0|
0{
0z
1y
0f
0d
0c
0b
0a
0`
1_
#53211
0M
#53288
1Q
#53346
0S
#53725
0R
#53801
1T
#55061
1:
1"
#56154
1B
1*
#56513
0H
00
#56612
0F
0.
#56617
0D
0,
#56815
1C
1+
#58079
0G
0/
#58279
0J
02
#58556
0E
0-
#60000
0!
13
#60701
0K
#61079
0L
#65217
0:
0"
#70000
1!
03
#70527
1K
#70917
1L
#72569
0n
0m
1l
#72960
1"!
0!!
1~
1f
0e
1d
#73213
0T
#73238
0Q
#73275
1M
#73290
1U
#73361
1S
#73419
0U
#73816
1T
#75061
1:
1"
#76071
0B
0*
#76530
0A
0)
#76623
1H
10
#76837
1@
1(
#77510
0I
01
#78313
1J
12
#80000
0!
13
#80701
0K
#81079
0L
#85217
0:
0"
#90000
1!
03
#90527
1K
#90917
1L
#92569
1n
#92960
0"!
0~
1}
0f
0d
1c
#93211
0M
#93288
1Q
#93743
1R
#95061
1:
1"
#96154
1B
1*
#96513
0H
00
#98046
1G
1/
#98279
0J
02
#100000
0!
13
#100701
0K
#101079
0L
#105217
0:
0"
#110000
1!
03
#110527
1K
#110917
1L
#112569
0n
1m
#112960
1"!
1!!
1f
1e
#113160
0S
#113213
0R
#113218
1U
#113238
0Q
#113275
1M
#113296
1S
#113354
0U
#113693
1R
#115061
1:
1"
#116071
0B
0*
#116579
1A
1)
#117575
1I
11
#118313
1J
12
#120000
0!
13
#120701
0K
#121079
0L
#125217
0:
0"
#130000
1!
03
#130527
1K
#130917
1L
#132569
1n
#132960
0"!
1~
0f
1d
#133211
0M
#133288
1Q
#133346
0S
#133404
1U
#133725
0R
#133783
0T
#133859
1V
#135061
1:
1"
#136154
1B
1*
#136623
1H
10
#138279
0J
02
#140000
0!
13
#140701
0K
#141079
0L
#145217
0:
0"
#150000
1!
03
#150527
1K
#150917
1L
#152569
0n
0m
0l
1k
#152960
1"!
0!!
0~
0}
1|
1f
0e
0d
0c
1b
#153164
0W
#153217
0V
#153238
0Q
#153239
0U
#153275
1M
#153276
1T
#153297
1W
#153361
1S
#153694
1V
#153798
0T
#155061
1:
1"
#156071
0B
0*
#156145
1?
1'
#156513
0H
00
#156530
0A
0)
#156671
1F
1.
#156730
0@
0(
#157510
0I
01
#158079
0G
0/
#158313
1J
12
#160000
0!
13
#160701
0K
#161079
0L
#165217
0:
0"
#170000
1!
03
#170527
1K
#170917
1L
#172569
1n
#172960
0"!
1~
0f
1d
#173211
0M
#173288
1Q
#173743
1R
#175061
1:
1"
#176154
1B
1*
#176623
1H
10
#178279
0J
02
#180000
0!
13
#180701
0K
#181079
0L
#185217
0:
0"
#190000
1!
03
#190527
1K
#190917
1L
#192569
0n
1m
#192960
1"!
1!!
1f
1e
#193160
0S
#193213
0R
#193238
0Q
#193275
1M
#193296
1S
#193693
1R
#195061
1:
1"
#196071
0B
0*
#196579
1A
1)
#197575
1I
11
#198313
1J
12
#200000
0!
13
#200701
0K
#201079
0L
#205217
0:
0"
#210000
1!
03
#210527
1K
#210917
1L
#212569
1n
#212960
0"!
0~
1}
0f
0d
1c
#213211
0M
#213288
1Q
#213346
0S
#213725
0R
#213801
1T
#215061
1:
1"
#216154
1B
1*
#216513
0H
00
#218046
1G
1/
#218279
0J
02
#220000
0!
13
#220701
0K
#221079
0L
#225217
0:
0"
#230000
1!
03
#230527
1K
#230917
1L
#232569
0n
0m
1l
#232960
1"!
0!!
1~
1f
0e
1d
#233213
0T
#233238
0Q
#233275
1M
#233290
1U
#233348
0W
#233361
1S
#233419
0U
#233477
1W
#233816
1T
#235061
1:
1"
#236071
0B
0*
#236530
0A
0)
#236623
1H
10
#236837
1@
1(
#237510
0I
01
#238313
1J
12
#240000
0!
13
#240701
0K
#241079
0L
#245217
0:
0"
#250000
1!
03
#250527
1K
#250917
1L
#252569
1n
#252960
0"!
0~
0}
0|
1{
0f
0d
0c
0b
1a
#253211
0M
#253288
1Q
#253743
1R
#255061
1:
1"
#256154
1B
1*
#256513
0H
00
#256612
0F
0.
#258079
0G
0/
#258279
0J
02
#258519
1E
1-
#260000
0!
13
#260701
0K
#261079
0L
#265217
0:
0"
#270000
1!
03
#270527
1K
#270917
1L
#272569
0n
1m
#272960
1"!
1!!
1f
1e
#273160
0S
#273213
0R
#273218
1U
#273238
0Q
#273275
1M
#273276
0W
#273296
1S
#273354
0U
#273412
1W
#273693
1R
#275061
1:
1"
#276071
0B
0*
#276579
1A
1)
#277575
1I
11
#278313
1J
12
#280000
0!
13
#280701
0K
#281079
0L
#285217
0:
0"
#290000
1!
03
#290527
1K
#290917
1L
#292569
1n
#292960
0"!
1~
0f
1d
#293059
0O
#293211
0M
#293288
1Q
#293346
0S
#293390
1P
#293404
1U
#293462
0W
#293725
0R
#293783
0T
#293841
0V
#293917
1X
#295061
1:
1"
#296154
1B
1*
#296623
1H
10
#298279
0J
02
#300000
0!
13
#300701
0K
#301079
0L
#305217
0:
0"
#310000
1!
03
#310527
1K
#310917
1L
#312569
0n
0m
0l
0k
#312960
1"!
0!!
0~
1}
1f
0e
0d
1c
#313017
1O
#313238
0Q
#313239
0U
#313275
1M
#313276
1T
#313314
0P
#313361
1S
#313364
1W
#313798
0T
#313801
0X
#315061
1:
1"
#316060
0?
0'
#316071
0B
0*
#316513
0H
00
#316530
0A
0)
#316730
0@
0(
#317510
0I
01
#318046
1G
1/
#318313
1J
12
#320000
0!
13
#320701
0K
#321079
0L
#325217
0:
0"
#330000
1!
03
#330527
1K
#330917
1L
#332569
1n
#332960
0"!
1~
0f
1d
#333211
0M
#333288
1Q
#333743
1R
#335061
1:
1"
#336154
1B
1*
#336623
1H
10
#338279
0J
02
#340000
0!
13
#340701
0K
#341079
0L
#345217
0:
0"
#350000
1!
03
#350527
1K
#350917
1L
#352569
0n
1m
#352960
1"!
1!!
1|
1z
0y
1f
1e
1b
1`
0_
#353160
0S
#353213
0R
#353238
0Q
#353275
1M
#353296
1S
#353693
1R
#355061
1:
1"
#356071
0B
0*
#356579
1A
1)
#356671
1F
1.
#356737
1D
1,
#356764
0C
0+
#357575
1I
11
#358313
1J
12
#360000
0!
13
#360701
0K
#361079
0L
#365217
0:
0"
#370000
1!
03
#370527
1K
#370917
1L
#372569
1n
#372960
0"!
0~
0}
0|
0{
0z
1y
0f
0d
0c
0b
0a
0`
1_
#373211
0M
#373288
1Q
#373346
0S
#373725
0R
#373801
1T
#375061
1:
1"
#376154
1B
1*
#376513
0H
00
#376612
0F
0.
#376617
0D
0,
#376815
1C
1+
#378079
0G
0/
#378279
0J
02
#378556
0E
0-
#380000
0!
13
#380701
0K
#381079
0L
#385217
0:
0"
#390000
1!
03
#390527
1K
#390917
1L
#392569
0n
0m
1l
#392960
1"!
0!!
1~
1f
0e
1d
#393213
0T
#393238
0Q
#393275
1M
#393290
1U
#393361
1S
#393419
0U
#393816
1T
#395061
1:
1"
#396071
0B
0*
#396530
0A
0)
#396623
1H
10
#396837
1@
1(
#397510
0I
01
#398313
1J
12
#400000
0!
13
#400701
0K
#401079
0L
#405217
0:
0"
#410000
1!
03
#410527
1K
#410917
1L
#412569
1n
#412960
0"!
0~
1}
0f
0d
1c
#413211
0M
#413288
1Q
#413743
1R
#415061
1:
1"
#416154
1B
1*
#416513
0H
00
#418046
1G
1/
#418279
0J
02
#420000
0!
13
#420701
0K
#421079
0L
#425217
0:
0"
#430000
1!
03
#430527
1K
#430917
1L
#432569
0n
1m
#432960
1"!
1!!
1f
1e
#433160
0S
#433213
0R
#433218
1U
#433238
0Q
#433275
1M
#433296
1S
#433354
0U
#433693
1R
#435061
1:
1"
#436071
0B
0*
#436579
1A
1)
#437575
1I
11
#438313
1J
12
#440000
0!
13
#440701
0K
#441079
0L
#445217
0:
0"
#450000
1!
03
#450527
1K
#450917
1L
#452569
1n
#452960
0"!
1~
0f
1d
#453211
0M
#453288
1Q
#453346
0S
#453404
1U
#453725
0R
#453783
0T
#453859
1V
#455061
1:
1"
#456154
1B
1*
#456623
1H
10
#458279
0J
02
#460000
0!
13
#460701
0K
#461079
0L
#465217
0:
0"
#470000
1!
03
#470527
1K
#470917
1L
#472569
0n
0m
0l
1k
#472960
1"!
0!!
0~
0}
1|
1f
0e
0d
0c
1b
#473164
0W
#473217
0V
#473238
0Q
#473239
0U
#473275
1M
#473276
1T
#473297
1W
#473361
1S
#473694
1V
#473798
0T
#475061
1:
1"
#476071
0B
0*
#476145
1?
1'
#476513
0H
00
#476530
0A
0)
#476671
1F
1.
#476730
0@
0(
#477510
0I
01
#478079
0G
0/
#478313
1J
12
#480000
0!
13
#480701
0K
#481079
0L
#485217
0:
0"
#490000
1!
03
#490527
1K
#490917
1L
#492569
1n
#492960
0"!
1~
0f
1d
#493211
0M
#493288
1Q
#493743
1R
#495061
1:
1"
#496154
1B
1*
#496623
1H
10
#498279
0J
02
#500000
0!
13
#500701
0K
#501079
0L
#505217
0:
0"
#510000
1!
03
#510527
1K
#510917
1L
#512569
0n
1m
#512960
1"!
1!!
1f
1e
#513160
0S
#513213
0R
#513238
0Q
#513275
1M
#513296
1S
#513693
1R
#515061
1:
1"
#516071
0B
0*
#516579
1A
1)
#517575
1I
11
#518313
1J
12
#520000
0!
13
#520701
0K
#521079
0L
#525217
0:
0"
#530000
1!
03
#530527
1K
#530917
1L
#532569
1n
#532960
0"!
0~
1}
0f
0d
1c
#533211
0M
#533288
1Q
#533346
0S
#533725
0R
#533801
1T
#535061
1:
1"
#536154
1B
1*
#536513
0H
00
#538046
1G
1/
#538279
0J
02
#540000
0!
13
#540701
0K
#541079
0L
#545217
0:
0"
#550000
1!
03
#550527
1K
#550917
1L
#552569
0n
0m
1l
#552960
1"!
0!!
1~
1f
0e
1d
#553213
0T
#553238
0Q
#553275
1M
#553290
1U
#553348
0W
#553361
1S
#553419
0U
#553477
1W
#553816
1T
#555061
1:
1"
#556071
0B
0*
#556530
0A
0)
#556623
1H
10
#556837
1@
1(
#557510
0I
01
#558313
1J
12
#560000
0!
13
#560701
0K
#561079
0L
#565217
0:
0"
#570000
1!
03
#570527
1K
#570917
1L
#572569
1n
#572960
0"!
0~
0}
0|
1{
0f
0d
0c
0b
1a
#573211
0M
#573288
1Q
#573743
1R
#575061
1:
1"
#576154
1B
1*
#576513
0H
00
#576612
0F
0.
#578079
0G
0/
#578279
0J
02
#578519
1E
1-
#580000
0!
13
#580701
0K
#581079
0L
#585217
0:
0"
#590000
1!
03
#590527
1K
#590917
1L
#592569
0n
1m
#592960
1"!
1!!
1f
1e
#593160
0S
#593213
0R
#593218
1U
#593238
0Q
#593275
1M
#593276
0W
#593296
1S
#593354
0U
#593412
1W
#593693
1R
#595061
1:
1"
#596071
0B
0*
#596579
1A
1)
#597575
1I
11
#598313
1J
12
#600000
0!
13
#600701
0K
#601079
0L
#605217
0:
0"
#610000
1!
03
#610527
1K
#610917
1L
#612569
1n
#612960
0"!
1~
0f
1d
#613059
0O
#613211
0M
#613288
1Q
#613346
0S
#613390
1P
#613404
1U
#613462
0W
#613725
0R
#613783
0T
#613841
0V
#613917
1X
#615061
1:
1"
#616154
1B
1*
#616623
1H
10
#618279
0J
02
#620000
0!
13
#620701
0K
#621079
0L
#625217
0:
0"
#630000
1!
03
#630527
1K
#630917
1L
#632569
0n
0m
0l
0k
#632960
1"!
0!!
0~
1}
1f
0e
0d
1c
#633017
1O
#633238
0Q
#633239
0U
#633275
1M
#633276
1T
#633314
0P
#633361
1S
#633364
1W
#633798
0T
#633801
0X
#635061
1:
1"
#636060
0?
0'
#636071
0B
0*
#636513
0H
00
#636530
0A
0)
#636730
0@
0(
#637510
0I
01
#638046
1G
1/
#638313
1J
12
#640000
0!
13
#640701
0K
#641079
0L
#645217
0:
0"
#650000
1!
03
#650527
1K
#650917
1L
#652569
1n
#652960
0"!
1~
0f
1d
#653211
0M
#653288
1Q
#653743
1R
#655061
1:
1"
#656154
1B
1*
#656623
1H
10
#658279
0J
02
#660000
0!
13
#660701
0K
#661079
0L
#665217
0:
0"
#670000
1!
03
#670527
1K
#670917
1L
#672569
0n
1m
#672960
1"!
1!!
1|
1z
0y
1f
1e
1b
1`
0_
#673160
0S
#673213
0R
#673238
0Q
#673275
1M
#673296
1S
#673693
1R
#675061
1:
1"
#676071
0B
0*
#676579
1A
1)
#676671
1F
1.
#676737
1D
1,
#676764
0C
0+
#677575
1I
11
#678313
1J
12
#680000
0!
13
#680701
0K
#681079
0L
#685217
0:
0"
#690000
1!
03
#690527
1K
#690917
1L
#692569
1n
#692960
0"!
0~
0}
0|
0{
0z
1y
0f
0d
0c
0b
0a
0`
1_
#693211
0M
#693288
1Q
#693346
0S
#693725
0R
#693801
1T
#695061
1:
1"
#696154
1B
1*
#696513
0H
00
#696612
0F
0.
#696617
0D
0,
#696815
1C
1+
#698079
0G
0/
#698279
0J
02
#698556
0E
0-
#700000
0!
13
#700701
0K
#701079
0L
#705217
0:
0"
#710000
1!
03
#710527
1K
#710917
1L
#712569
0n
0m
1l
#712960
1"!
0!!
1~
1f
0e
1d
#713213
0T
#713238
0Q
#713275
1M
#713290
1U
#713361
1S
#713419
0U
#713816
1T
#715061
1:
1"
#716071
0B
0*
#716530
0A
0)
#716623
1H
10
#716837
1@
1(
#717510
0I
01
#718313
1J
12
#720000
0!
13
#720701
0K
#721079
0L
#725217
0:
0"
#730000
1!
03
#730527
1K
#730917
1L
#732569
1n
#732960
0"!
0~
1}
0f
0d
1c
#733211
0M
#733288
1Q
#733743
1R
#735061
1:
1"
#736154
1B
1*
#736513
0H
00
#738046
1G
1/
#738279
0J
02
#740000
0!
13
#740701
0K
#741079
0L
#745217
0:
0"
#750000
1!
03
#750527
1K
#750917
1L
#752569
0n
1m
#752960
1"!
1!!
1f
1e
#753160
0S
#753213
0R
#753218
1U
#753238
0Q
#753275
1M
#753296
1S
#753354
0U
#753693
1R
#755061
1:
1"
#756071
0B
0*
#756579
1A
1)
#757575
1I
11
#758313
1J
12
#760000
0!
13
#760701
0K
#761079
0L
#765217
0:
0"
#770000
1!
03
#770527
1K
#770917
1L
#772569
1n
#772960
0"!
1~
0f
1d
#773211
0M
#773288
1Q
#773346
0S
#773404
1U
#773725
0R
#773783
0T
#773859
1V
#775061
1:
1"
#776154
1B
1*
#776623
1H
10
#778279
0J
02
#780000
0!
13
#780701
0K
#781079
0L
#785217
0:
0"
#790000
1!
03
#790527
1K
#790917
1L
#792569
0n
0m
0l
1k
#792960
1"!
0!!
0~
0}
1|
1f
0e
0d
0c
1b
#793164
0W
#793217
0V
#793238
0Q
#793239
0U
#793275
1M
#793276
1T
#793297
1W
#793361
1S
#793694
1V
#793798
0T
#795061
1:
1"
#796071
0B
0*
#796145
1?
1'
#796513
0H
00
#796530
0A
0)
#796671
1F
1.
#796730
0@
0(
#797510
0I
01
#798079
0G
0/
#798313
1J
12
#800000
0!
13
#800701
0K
#801079
0L
#805217
0:
0"
#810000
1!
03
#810527
1K
#810917
1L
#812569
1n
#812960
0"!
1~
0f
1d
#813211
0M
#813288
1Q
#813743
1R
#815061
1:
1"
#816154
1B
1*
#816623
1H
10
#818279
0J
02
#820000
0!
13
#820701
0K
#821079
0L
#825217
0:
0"
#830000
1!
03
#830527
1K
#830917
1L
#832569
0n
1m
#832960
1"!
1!!
1f
1e
#833160
0S
#833213
0R
#833238
0Q
#833275
1M
#833296
1S
#833693
1R
#835061
1:
1"
#836071
0B
0*
#836579
1A
1)
#837575
1I
11
#838313
1J
12
#840000
0!
13
#840701
0K
#841079
0L
#845217
0:
0"
#850000
1!
03
#850527
1K
#850917
1L
#852569
1n
#852960
0"!
0~
1}
0f
0d
1c
#853211
0M
#853288
1Q
#853346
0S
#853725
0R
#853801
1T
#855061
1:
1"
#856154
1B
1*
#856513
0H
00
#858046
1G
1/
#858279
0J
02
#860000
0!
13
#860701
0K
#861079
0L
#865217
0:
0"
#870000
1!
03
#870527
1K
#870917
1L
#872569
0n
0m
1l
#872960
1"!
0!!
1~
1f
0e
1d
#873213
0T
#873238
0Q
#873275
1M
#873290
1U
#873348
0W
#873361
1S
#873419
0U
#873477
1W
#873816
1T
#875061
1:
1"
#876071
0B
0*
#876530
0A
0)
#876623
1H
10
#876837
1@
1(
#877510
0I
01
#878313
1J
12
#880000
0!
13
#880701
0K
#881079
0L
#885217
0:
0"
#890000
1!
03
#890527
1K
#890917
1L
#892569
1n
#892960
0"!
0~
0}
0|
1{
0f
0d
0c
0b
1a
#893211
0M
#893288
1Q
#893743
1R
#895061
1:
1"
#896154
1B
1*
#896513
0H
00
#896612
0F
0.
#898079
0G
0/
#898279
0J
02
#898519
1E
1-
#900000
0!
13
#900701
0K
#901079
0L
#905217
0:
0"
#910000
1!
03
#910527
1K
#910917
1L
#912569
0n
1m
#912960
1"!
1!!
1f
1e
#913160
0S
#913213
0R
#913218
1U
#913238
0Q
#913275
1M
#913276
0W
#913296
1S
#913354
0U
#913412
1W
#913693
1R
#915061
1:
1"
#916071
0B
0*
#916579
1A
1)
#917575
1I
11
#918313
1J
12
#920000
0!
13
#920701
0K
#921079
0L
#925217
0:
0"
#930000
1!
03
#930527
1K
#930917
1L
#932569
1n
#932960
0"!
1~
0f
1d
#933059
0O
#933211
0M
#933288
1Q
#933346
0S
#933390
1P
#933404
1U
#933462
0W
#933725
0R
#933783
0T
#933841
0V
#933917
1X
#935061
1:
1"
#936154
1B
1*
#936623
1H
10
#938279
0J
02
#940000
0!
13
#940701
0K
#941079
0L
#945217
0:
0"
#950000
1!
03
#950527
1K
#950917
1L
#952569
0n
0m
0l
0k
#952960
1"!
0!!
0~
1}
1f
0e
0d
1c
#953017
1O
#953238
0Q
#953239
0U
#953275
1M
#953276
1T
#953314
0P
#953361
1S
#953364
1W
#953798
0T
#953801
0X
#955061
1:
1"
#956060
0?
0'
#956071
0B
0*
#956513
0H
00
#956530
0A
0)
#956730
0@
0(
#957510
0I
01
#958046
1G
1/
#958313
1J
12
#960000
0!
13
#960701
0K
#961079
0L
#965217
0:
0"
#970000
1!
03
#970527
1K
#970917
1L
#972569
1n
#972960
0"!
1~
0f
1d
#973211
0M
#973288
1Q
#973743
1R
#975061
1:
1"
#976154
1B
1*
#976623
1H
10
#978279
0J
02
#980000
0!
13
#980701
0K
#981079
0L
#985217
0:
0"
#990000
1!
03
#990527
1K
#990917
1L
#992569
0n
1m
#992960
1"!
1!!
1|
1z
0y
1f
1e
1b
1`
0_
#993160
0S
#993213
0R
#993238
0Q
#993275
1M
#993296
1S
#993693
1R
#995061
1:
1"
#996071
0B
0*
#996579
1A
1)
#996671
1F
1.
#996737
1D
1,
#996764
0C
0+
#997575
1I
11
#998313
1J
12
