NWPU_DIgitalCircuiitExperiments_Xmk_Xyr/Test/3/2/experience_3/experience_3/iddisplay_1/simulation/qsim/iddisplay_1.msim.vcd
$comment
	File created using the following command:
		vcd file iddisplay_1.msim.vcd -direction
$end
$date
	Sat Jun 24 18:05:17 2023
$end
$version
	ModelSim Version 10.1d
$end
$timescale
	1ps
$end
$scope module iddisplay_1_vlg_vec_tst $end
$var reg 1 ! clk $end
$var wire 1 " A $end
$var wire 1 # B $end
$var wire 1 $ C $end
$var wire 1 % D $end
$var wire 1 & E $end
$var wire 1 ' F $end
$var wire 1 ( G $end
$var wire 1 ) H1 $end
$var wire 1 * H2 $end
$var wire 1 + H3 $end
$var wire 1 , H4 $end
$var wire 1 - L1 $end
$var wire 1 . L2 $end
$var wire 1 / L3 $end
$var wire 1 0 L4 $end
$var wire 1 1 OutCLK $end
$var wire 1 2 sampler $end
$scope module i1 $end
$var wire 1 3 gnd $end
$var wire 1 4 vcc $end
$var wire 1 5 unknown $end
$var tri1 1 6 devclrn $end
$var tri1 1 7 devpor $end
$var tri1 1 8 devoe $end
$var wire 1 9 A~output_o $end
$var wire 1 : B~output_o $end
$var wire 1 ; C~output_o $end
$var wire 1 < D~output_o $end
$var wire 1 = E~output_o $end
$var wire 1 > F~output_o $end
$var wire 1 ? G~output_o $end
$var wire 1 @ H1~output_o $end
$var wire 1 A H2~output_o $end
$var wire 1 B H3~output_o $end
$var wire 1 C H4~output_o $end
$var wire 1 D L4~output_o $end
$var wire 1 E L3~output_o $end
$var wire 1 F L2~output_o $end
$var wire 1 G L1~output_o $end
$var wire 1 H OutCLK~output_o $end
$var wire 1 I clk~input_o $end
$var wire 1 J clk~inputclkctrl_outclk $end
$var wire 1 K inst|LPM_COUNTER_component|auto_generated|counter_comb_bita0~combout $end
$var wire 1 L ~GND~combout $end
$var wire 1 M inst|LPM_COUNTER_component|auto_generated|cmpr1|aneb_result_wire[0]~6_combout $end
$var wire 1 N inst|LPM_COUNTER_component|auto_generated|cmpr1|aneb_result_wire[0]~5_combout $end
$var wire 1 O inst|LPM_COUNTER_component|auto_generated|cmpr1|aneb_result_wire[0]~7_combout $end
$var wire 1 P inst|LPM_COUNTER_component|auto_generated|counter_comb_bita25~COUT $end
$var wire 1 Q inst|LPM_COUNTER_component|auto_generated|counter_comb_bita25~0_combout $end
$var wire 1 R inst|LPM_COUNTER_component|auto_generated|cmpr1|aneb_result_wire[0]~2_combout $end
$var wire 1 S inst|LPM_COUNTER_component|auto_generated|cmpr1|aneb_result_wire[0]~1_combout $end
$var wire 1 T inst|LPM_COUNTER_component|auto_generated|cmpr1|aneb_result_wire[0]~3_combout $end
$var wire 1 U inst|LPM_COUNTER_component|auto_generated|cmpr1|aneb_result_wire[0]~0_combout $end
$var wire 1 V inst|LPM_COUNTER_component|auto_generated|cmpr1|aneb_result_wire[0]~4_combout $end
$var wire 1 W inst|LPM_COUNTER_component|auto_generated|cout_actual~combout $end
$var wire 1 X inst|LPM_COUNTER_component|auto_generated|counter_comb_bita0~COUT $end
$var wire 1 Y inst|LPM_COUNTER_component|auto_generated|counter_comb_bita1~combout $end
$var wire 1 Z inst|LPM_COUNTER_component|auto_generated|counter_comb_bita1~COUT $end
$var wire 1 [ inst|LPM_COUNTER_component|auto_generated|counter_comb_bita2~combout $end
$var wire 1 \ inst|LPM_COUNTER_component|auto_generated|counter_comb_bita2~COUT $end
$var wire 1 ] inst|LPM_COUNTER_component|auto_generated|counter_comb_bita3~combout $end
$var wire 1 ^ inst|LPM_COUNTER_component|auto_generated|counter_comb_bita3~COUT $end
$var wire 1 _ inst|LPM_COUNTER_component|auto_generated|counter_comb_bita4~combout $end
$var wire 1 ` inst|LPM_COUNTER_component|auto_generated|counter_comb_bita4~COUT $end
$var wire 1 a inst|LPM_COUNTER_component|auto_generated|counter_comb_bita5~combout $end
$var wire 1 b inst|LPM_COUNTER_component|auto_generated|counter_comb_bita5~COUT $end
$var wire 1 c inst|LPM_COUNTER_component|auto_generated|counter_comb_bita6~combout $end
$var wire 1 d inst|LPM_COUNTER_component|auto_generated|counter_comb_bita6~COUT $end
$var wire 1 e inst|LPM_COUNTER_component|auto_generated|counter_comb_bita7~combout $end
$var wire 1 f inst|LPM_COUNTER_component|auto_generated|counter_comb_bita7~COUT $end
$var wire 1 g inst|LPM_COUNTER_component|auto_generated|counter_comb_bita8~combout $end
$var wire 1 h inst|LPM_COUNTER_component|auto_generated|counter_comb_bita8~COUT $end
$var wire 1 i inst|LPM_COUNTER_component|auto_generated|counter_comb_bita9~combout $end
$var wire 1 j inst|LPM_COUNTER_component|auto_generated|counter_comb_bita9~COUT $end
$var wire 1 k inst|LPM_COUNTER_component|auto_generated|counter_comb_bita10~combout $end
$var wire 1 l inst|LPM_COUNTER_component|auto_generated|counter_comb_bita10~COUT $end
$var wire 1 m inst|LPM_COUNTER_component|auto_generated|counter_comb_bita11~combout $end
$var wire 1 n inst|LPM_COUNTER_component|auto_generated|counter_comb_bita11~COUT $end
$var wire 1 o inst|LPM_COUNTER_component|auto_generated|counter_comb_bita12~combout $end
$var wire 1 p inst|LPM_COUNTER_component|auto_generated|counter_comb_bita12~COUT $end
$var wire 1 q inst|LPM_COUNTER_component|auto_generated|counter_comb_bita13~combout $end
$var wire 1 r inst|LPM_COUNTER_component|auto_generated|counter_comb_bita13~COUT $end
$var wire 1 s inst|LPM_COUNTER_component|auto_generated|counter_comb_bita14~combout $end
$var wire 1 t inst|LPM_COUNTER_component|auto_generated|counter_comb_bita14~COUT $end
$var wire 1 u inst|LPM_COUNTER_component|auto_generated|counter_comb_bita15~combout $end
$var wire 1 v inst|LPM_COUNTER_component|auto_generated|counter_comb_bita15~COUT $end
$var wire 1 w inst|LPM_COUNTER_component|auto_generated|counter_comb_bita16~combout $end
$var wire 1 x inst|LPM_COUNTER_component|auto_generated|counter_comb_bita16~COUT $end
$var wire 1 y inst|LPM_COUNTER_component|auto_generated|counter_comb_bita17~combout $end
$var wire 1 z inst|LPM_COUNTER_component|auto_generated|counter_comb_bita17~COUT $end
$var wire 1 { inst|LPM_COUNTER_component|auto_generated|counter_comb_bita18~combout $end
$var wire 1 | inst|LPM_COUNTER_component|auto_generated|counter_comb_bita18~COUT $end
$var wire 1 } inst|LPM_COUNTER_component|auto_generated|counter_comb_bita19~combout $end
$var wire 1 ~ inst|LPM_COUNTER_component|auto_generated|counter_comb_bita19~COUT $end
$var wire 1 !! inst|LPM_COUNTER_component|auto_generated|counter_comb_bita20~combout $end
$var wire 1 "! inst|LPM_COUNTER_component|auto_generated|counter_comb_bita20~COUT $end
$var wire 1 #! inst|LPM_COUNTER_component|auto_generated|counter_comb_bita21~combout $end
$var wire 1 $! inst|LPM_COUNTER_component|auto_generated|counter_comb_bita21~COUT $end
$var wire 1 %! inst|LPM_COUNTER_component|auto_generated|counter_comb_bita22~combout $end
$var wire 1 &! inst|LPM_COUNTER_component|auto_generated|counter_comb_bita22~COUT $end
$var wire 1 '! inst|LPM_COUNTER_component|auto_generated|counter_comb_bita23~combout $end
$var wire 1 (! inst|LPM_COUNTER_component|auto_generated|counter_comb_bita23~COUT $end
$var wire 1 )! inst|LPM_COUNTER_component|auto_generated|counter_comb_bita24~combout $end
$var wire 1 *! inst|LPM_COUNTER_component|auto_generated|counter_comb_bita24~COUT $end
$var wire 1 +! inst|LPM_COUNTER_component|auto_generated|counter_comb_bita25~combout $end
$var wire 1 ,! inst|LPM_COUNTER_component|auto_generated|counter_reg_bit[25]~clkctrl_outclk $end
$var wire 1 -! inst2|sub|9~0_combout $end
$var wire 1 .! inst2|sub|9~q $end
$var wire 1 /! inst2|sub|86~combout $end
$var wire 1 0! inst2|sub|87~q $end
$var wire 1 1! inst2|sub|98~0_combout $end
$var wire 1 2! inst2|sub|99~q $end
$var wire 1 3! inst2|sub|108~combout $end
$var wire 1 4! inst2|sub|110~q $end
$var wire 1 5! inst3|81~0_combout $end
$var wire 1 6! inst3|5~0_combout $end
$var wire 1 7! inst3|84~0_combout $end
$var wire 1 8! inst14~0_combout $end
$var wire 1 9! inst3|86~0_combout $end
$var wire 1 :! inst3|87~0_combout $end
$var wire 1 ;! inst1|sub|77~combout $end
$var wire 1 <! inst1|sub|9~q $end
$var wire 1 =! inst1|sub|86~combout $end
$var wire 1 >! inst1|sub|87~q $end
$var wire 1 ?! inst1|sub|98~combout $end
$var wire 1 @! inst1|sub|99~q $end
$var wire 1 A! inst1|sub|104~combout $end
$var wire 1 B! inst9|sub|77~combout $end
$var wire 1 C! inst9|sub|9~q $end
$var wire 1 D! inst9|sub|86~0_combout $end
$var wire 1 E! inst9|sub|87~q $end
$var wire 1 F! inst1|sub|107~combout $end
$var wire 1 G! inst1|sub|108~combout $end
$var wire 1 H! inst1|sub|110~q $end
$var wire 1 I! inst26|48~0_combout $end
$var wire 1 J! inst26|40~q $end
$var wire 1 K! inst26|47~0_combout $end
$var wire 1 L! inst26|39~q $end
$var wire 1 M! inst26|46~0_combout $end
$var wire 1 N! inst26|38~q $end
$var wire 1 O! inst26|49~0_combout $end
$var wire 1 P! inst26|41~q $end
$var wire 1 Q! inst25|47~0_combout $end
$var wire 1 R! inst25|39~q $end
$var wire 1 S! inst25|48~0_combout $end
$var wire 1 T! inst25|40~q $end
$var wire 1 U! inst25|49~0_combout $end
$var wire 1 V! inst25|41~q $end
$var wire 1 W! inst25|46~0_combout $end
$var wire 1 X! inst25|38~q $end
$var wire 1 Y! inst|LPM_COUNTER_component|auto_generated|counter_reg_bit [25] $end
$var wire 1 Z! inst|LPM_COUNTER_component|auto_generated|counter_reg_bit [24] $end
$var wire 1 [! inst|LPM_COUNTER_component|auto_generated|counter_reg_bit [23] $end
$var wire 1 \! inst|LPM_COUNTER_component|auto_generated|counter_reg_bit [22] $end
$var wire 1 ]! inst|LPM_COUNTER_component|auto_generated|counter_reg_bit [21] $end
$var wire 1 ^! inst|LPM_COUNTER_component|auto_generated|counter_reg_bit [20] $end
$var wire 1 _! inst|LPM_COUNTER_component|auto_generated|counter_reg_bit [19] $end
$var wire 1 `! inst|LPM_COUNTER_component|auto_generated|counter_reg_bit [18] $end
$var wire 1 a! inst|LPM_COUNTER_component|auto_generated|counter_reg_bit [17] $end
$var wire 1 b! inst|LPM_COUNTER_component|auto_generated|counter_reg_bit [16] $end
$var wire 1 c! inst|LPM_COUNTER_component|auto_generated|counter_reg_bit [15] $end
$var wire 1 d! inst|LPM_COUNTER_component|auto_generated|counter_reg_bit [14] $end
$var wire 1 e! inst|LPM_COUNTER_component|auto_generated|counter_reg_bit [13] $end
$var wire 1 f! inst|LPM_COUNTER_component|auto_generated|counter_reg_bit [12] $end
$var wire 1 g! inst|LPM_COUNTER_component|auto_generated|counter_reg_bit [11] $end
$var wire 1 h! inst|LPM_COUNTER_component|auto_generated|counter_reg_bit [10] $end
$var wire 1 i! inst|LPM_COUNTER_component|auto_generated|counter_reg_bit [9] $end
$var wire 1 j! inst|LPM_COUNTER_component|auto_generated|counter_reg_bit [8] $end
$var wire 1 k! inst|LPM_COUNTER_component|auto_generated|counter_reg_bit [7] $end
$var wire 1 l! inst|LPM_COUNTER_component|auto_generated|counter_reg_bit [6] $end
$var wire 1 m! inst|LPM_COUNTER_component|auto_generated|counter_reg_bit [5] $end
$var wire 1 n! inst|LPM_COUNTER_component|auto_generated|counter_reg_bit [4] $end
$var wire 1 o! inst|LPM_COUNTER_component|auto_generated|counter_reg_bit [3] $end
$var wire 1 p! inst|LPM_COUNTER_component|auto_generated|counter_reg_bit [2] $end
$var wire 1 q! inst|LPM_COUNTER_component|auto_generated|counter_reg_bit [1] $end
$var wire 1 r! inst|LPM_COUNTER_component|auto_generated|counter_reg_bit [0] $end
$upscope $end
$upscope $end
$enddefinitions $end
#0
$dumpvars
0!
x"
0#
x$
x%
x&
x'
x(
x)
x*
x+
x,
x-
x.
x/
x0
x1
x2
03
14
x5
16
17
18
x9
0:
x;
x<
x=
x>
x?
x@
xA
xB
xC
xD
xE
xF
xG
xH
0I
xJ
xK
0L
xM
xN
xO
xP
xQ
xR
xS
xT
xU
xV
xW
xX
xY
xZ
x[
x\
x]
x^
x_
x`
xa
xb
xc
xd
xe
xf
xg
xh
xi
xj
xk
xl
xm
xn
xo
xp
xq
xr
xs
xt
xu
xv
xw
xx
xy
xz
x{
x|
x}
x~
x!!
x"!
x#!
x$!
x%!
x&!
x'!
x(!
x)!
x*!
x+!
x,!
1-!
0.!
x/!
00!
x1!
02!
x3!
04!
x5!
x6!
x7!
x8!
x9!
x:!
x;!
0<!
x=!
0>!
x?!
0@!
xA!
xB!
0C!
xD!
0E!
xF!
xG!
0H!
xI!
0J!
xK!
0L!
xM!
0N!
xO!
0P!
xQ!
0R!
xS!
0T!
xU!
0V!
xW!
0X!
0r!
0q!
0p!
0o!
0n!
0m!
0l!
0k!
0j!
0i!
0h!
0g!
0f!
0e!
0d!
0c!
0b!
0a!
0`!
0_!
0^!
0]!
0\!
0[!
0Z!
0Y!
$end
#145
0J
#416
0U
#417
0M
#429
0A!
#443
03!
#453
01!
#567
0Q!
#578
0F!
#579
0O!
#653
0d
#655
0h
0&!
#657
0*!
#660
0t
#663
0"!
0`
#664
0p
0l
#665
0x
#666
0\
#667
0|
#676
0R
#678
0S
#684
0X
0D!
#687
0N
#695
0T
#697
0O
#715
1P
0W!
#723
0?!
1K
#729
0I!
#737
0:!
19!
#738
0K!
05!
#742
07!
#745
0/!
#751
1U!
#763
0B!
#777
1^
#778
1j
#780
1;!
#782
1(!
#788
1~
1r
1n
#789
1v
1Z
#790
1z
#791
1$!
1f
1b
#809
0S!
#844
1M!
#863
0=!
#881
16!
#899
0G!
#911
08!
#1088
0+!
#1090
0e
#1092
0'!
0i
#1097
0u
#1100
0a
0#!
#1101
0m
0q
#1102
0y
#1103
0]
#1104
0}
#1121
0Y
#1132
0,!
#1141
0V
#1152
0Q
#1214
0_
#1215
0k
#1219
0)!
#1225
0o
0s
0!!
#1226
0[
0w
#1227
0{
#1228
0c
0g
0%!
#1689
0W
#2639
0H
01
#2795
0D
00
#2821
0E
0/
#2942
0@
0)
#2979
0F
0.
#3078
0A
0*
#3096
0B
0+
#3119
0C
0,
#3199
0?
0(
#3212
0<
0%
#3262
1>
1'
#3401
0=
0&
#3406
1;
1$
#3689
09
0"
#4264
0G
0-
#5000
1!
02
#5775
1I
#5938
1J
#7628
1r!
#8278
0K
#8347
1X
#8802
1Y
#10000
0!
12
#10284
1H
11
#10936
0I
#11081
0J
#15000
1!
02
#15775
1I
#15938
1J
#17628
0r!
1q!
#18208
0Z
#18263
0Y
#18312
0X
#18351
1K
#18370
1Z
#18767
1Y
#20000
0!
12
#20267
0H
01
#20936
0I
#21081
0J
#25000
1!
02
#25775
1I
#25938
1J
#27628
1r!
#28278
0K
#28347
1X
#28405
0Z
#28784
0Y
#28860
1[
#30000
0!
12
#30284
1H
11
#30936
0I
#31081
0J
#35000
1!
02
#35775
1I
#35938
1J
#37628
0r!
0q!
1p!
#38259
0[
#38312
0X
#38328
1\
#38351
1K
#38417
1Z
#38475
0\
#38872
1[
#40000
0!
12
#40267
0H
01
#40936
0I
#41081
0J
#45000
1!
02
#45775
1I
#45938
1J
#47628
1r!
#48278
0K
#48347
1X
#48802
1Y
#50000
0!
12
#50284
1H
11
#50936
0I
#51081
0J
#55000
1!
02
#55775
1I
#55938
1J
#57628
0r!
1q!
#58208
0Z
#58263
0Y
#58266
1\
#58312
0X
#58351
1K
#58370
1Z
#58428
0\
#58767
1Y
#60000
0!
12
#60267
0H
01
#60936
0I
#61081
0J
#65000
1!
02
#65775
1I
#65938
1J
#67628
1r!
#68278
0K
#68347
1X
#68405
0Z
#68463
1\
#68784
0Y
#68842
0[
#68918
1]
#70000
0!
12
#70284
1H
11
#70936
0I
#71081
0J
#75000
1!
02
#75775
1I
#75938
1J
#77628
0r!
0q!
0p!
1o!
#78194
0^
#78247
0]
#78294
0\
#78312
0X
#78333
1[
#78351
1K
#78352
1^
#78417
1Z
#78749
1]
#78854
0[
#80000
0!
12
#80267
0H
01
#80936
0I
#81081
0J
#85000
1!
02
#85775
1I
#85938
1J
#87628
1r!
#88278
0K
#88347
1X
#88802
1Y
#90000
0!
12
#90284
1H
11
#90936
0I
#91081
0J
#95000
1!
02
#95775
1I
#95938
1J
#97628
0r!
1q!
#98208
0Z
#98263
0Y
#98312
0X
#98351
1K
#98370
1Z
#98767
1Y
#100000
0!
12
#100267
0H
01
#100936
0I
#101081
0J
#105000
1!
02
#105775
1I
#105938
1J
#107628
1r!
#108278
0K
#108347
1X
#108405
0Z
#108784
0Y
#108860
1[
#110000
0!
12
#110284
1H
11
#110936
0I
#111081
0J
#115000
1!
02
#115775
1I
#115938
1J
#117628
0r!
0q!
1p!
#118259
0[
#118312
0X
#118328
1\
#118351
1K
#118386
0^
#118417
1Z
#118475
0\
#118533
1^
#118872
1[
#120000
0!
12
#120267
0H
01
#120936
0I
#121081
0J
#125000
1!
02
#125775
1I
#125938
1J
#127628
1r!
#128278
0K
#128347
1X
#128802
1Y
#130000
0!
12
#130284
1H
11
#130936
0I
#131081
0J
#135000
1!
02
#135775
1I
#135938
1J
#137628
0r!
1q!
#138208
0Z
#138263
0Y
#138266
1\
#138312
0X
#138324
0^
#138351
1K
#138370
1Z
#138428
0\
#138486
1^
#138767
1Y
#140000
0!
12
#140267
0H
01
#140936
0I
#141081
0J
#145000
1!
02
#145775
1I
#145938
1J
#147628
1r!
#148278
0K
#148347
1X
#148405
0Z
#148463
1\
#148521
0^
#148784
0Y
#148842
0[
#148900
0]
#148976
1_
#150000
0!
12
#150284
1H
11
#150936
0I
#151081
0J
#155000
1!
02
#155775
1I
#155938
1J
#157628
0r!
0q!
0p!
0o!
1n!
#158259
0_
#158294
0\
#158312
0X
#158333
1[
#158336
1`
#158351
1K
#158405
1^
#158417
1Z
#158463
0`
#158854
0[
#158860
1_
#160000
0!
12
#160267
0H
01
#160936
0I
#161081
0J
#165000
1!
02
#165775
1I
#165938
1J
#167628
1r!
#168278
0K
#168347
1X
#168802
1Y
#170000
0!
12
#170284
1H
11
#170936
0I
#171081
0J
#175000
1!
02
#175775
1I
#175938
1J
#177628
0r!
1q!
#178208
0Z
#178263
0Y
#178312
0X
#178351
1K
#178370
1Z
#178767
1Y
#180000
0!
12
#180267
0H
01
#180936
0I
#181081
0J
#185000
1!
02
#185775
1I
#185938
1J
#187628
1r!
#188278
0K
#188347
1X
#188405
0Z
#188784
0Y
#188860
1[
#190000
0!
12
#190284
1H
11
#190936
0I
#191081
0J
#195000
1!
02
#195775
1I
#195938
1J
#197628
0r!
0q!
1p!
#198259
0[
#198312
0X
#198328
1\
#198351
1K
#198417
1Z
#198475
0\
#198872
1[
#200000
0!
12
#200267
0H
01
#200936
0I
#201081
0J
#205000
1!
02
#205775
1I
#205938
1J
#207628
1r!
#208278
0K
#208347
1X
#208802
1Y
#210000
0!
12
#210284
1H
11
#210936
0I
#211081
0J
#215000
1!
02
#215775
1I
#215938
1J
#217628
0r!
1q!
#218208
0Z
#218263
0Y
#218266
1\
#218312
0X
#218351
1K
#218370
1Z
#218428
0\
#218767
1Y
#220000
0!
12
#220267
0H
01
#220936
0I
#221081
0J
#225000
1!
02
#225775
1I
#225938
1J
#227628
1r!
#228278
0K
#228347
1X
#228405
0Z
#228463
1\
#228784
0Y
#228842
0[
#228918
1]
#230000
0!
12
#230284
1H
11
#230936
0I
#231081
0J
#235000
1!
02
#235775
1I
#235938
1J
#237628
0r!
0q!
0p!
1o!
#238194
0^
#238247
0]
#238252
1`
#238294
0\
#238312
0X
#238333
1[
#238351
1K
#238352
1^
#238410
0`
#238417
1Z
#238749
1]
#238854
0[
#240000
0!
12
#240267
0H
01
#240936
0I
#241081
0J
#245000
1!
02
#245775
1I
#245938
1J
#247628
1r!
#248278
0K
#248347
1X
#248802
1Y
#250000
0!
12
#250284
1H
11
#250936
0I
#251081
0J
#255000
1!
02
#255775
1I
#255938
1J
#257628
0r!
1q!
#258208
0Z
#258263
0Y
#258312
0X
#258351
1K
#258370
1Z
#258767
1Y
#260000
0!
12
#260267
0H
01
#260936
0I
#261081
0J
#265000
1!
02
#265775
1I
#265938
1J
#267628
1r!
#268278
0K
#268347
1X
#268405
0Z
#268784
0Y
#268860
1[
#270000
0!
12
#270284
1H
11
#270936
0I
#271081
0J
#275000
1!
02
#275775
1I
#275938
1J
#277628
0r!
0q!
1p!
#278259
0[
#278312
0X
#278328
1\
#278351
1K
#278386
0^
#278417
1Z
#278444
1`
#278475
0\
#278533
1^
#278591
0`
#278872
1[
#280000
0!
12
#280267
0H
01
#280936
0I
#281081
0J
#285000
1!
02
#285775
1I
#285938
1J
#287628
1r!
#288278
0K
#288347
1X
#288802
1Y
#290000
0!
12
#290284
1H
11
#290936
0I
#291081
0J
#295000
1!
02
#295775
1I
#295938
1J
#297628
0r!
1q!
#298208
0Z
#298263
0Y
#298266
1\
#298312
0X
#298324
0^
#298351
1K
#298370
1Z
#298382
1`
#298428
0\
#298486
1^
#298544
0`
#298767
1Y
#300000
0!
12
#300267
0H
01
#300936
0I
#301081
0J
#305000
1!
02
#305775
1I
#305938
1J
#307628
1r!
#308278
0K
#308347
1X
#308405
0Z
#308463
1\
#308521
0^
#308579
1`
#308784
0Y
#308842
0[
#308900
0]
#308958
0_
#309034
1a
#310000
0!
12
#310284
1H
11
#310936
0I
#311081
0J
#315000
1!
02
#315775
1I
#315938
1J
#317628
0r!
0q!
0p!
0o!
0n!
1m!
#318208
0b
#318263
0a
#318291
0`
#318294
0\
#318312
0X
#318328
1_
#318333
1[
#318349
1b
#318351
1K
#318405
1^
#318417
1Z
#318746
1a
#318842
0_
#318854
0[
#320000
0!
12
#320267
0H
01
#320936
0I
#321081
0J
#325000
1!
02
#325775
1I
#325938
1J
#327628
1r!
#328278
0K
#328347
1X
#328802
1Y
#330000
0!
12
#330284
1H
11
#330936
0I
#331081
0J
#335000
1!
02
#335775
1I
#335938
1J
#337628
0r!
1q!
#338208
0Z
#338263
0Y
#338312
0X
#338351
1K
#338370
1Z
#338767
1Y
#340000
0!
12
#340267
0H
01
#340936
0I
#341081
0J
#345000
1!
02
#345775
1I
#345938
1J
#347628
1r!
#348278
0K
#348347
1X
#348405
0Z
#348784
0Y
#348860
1[
#350000
0!
12
#350284
1H
11
#350936
0I
#351081
0J
#355000
1!
02
#355775
1I
#355938
1J
#357628
0r!
0q!
1p!
#358259
0[
#358312
0X
#358328
1\
#358351
1K
#358417
1Z
#358475
0\
#358872
1[
#360000
0!
12
#360267
0H
01
#360936
0I
#361081
0J
#365000
1!
02
#365775
1I
#365938
1J
#367628
1r!
#368278
0K
#368347
1X
#368802
1Y
#370000
0!
12
#370284
1H
11
#370936
0I
#371081
0J
#375000
1!
02
#375775
1I
#375938
1J
#377628
0r!
1q!
#378208
0Z
#378263
0Y
#378266
1\
#378312
0X
#378351
1K
#378370
1Z
#378428
0\
#378767
1Y
#380000
0!
12
#380267
0H
01
#380936
0I
#381081
0J
#385000
1!
02
#385775
1I
#385938
1J
#387628
1r!
#388278
0K
#388347
1X
#388405
0Z
#388463
1\
#388784
0Y
#388842
0[
#388918
1]
#390000
0!
12
#390284
1H
11
#390936
0I
#391081
0J
#395000
1!
02
#395775
1I
#395938
1J
#397628
0r!
0q!
0p!
1o!
#398194
0^
#398247
0]
#398294
0\
#398312
0X
#398333
1[
#398351
1K
#398352
1^
#398417
1Z
#398749
1]
#398854
0[
#400000
0!
12
#400267
0H
01
#400936
0I
#401081
0J
#405000
1!
02
#405775
1I
#405938
1J
#407628
1r!
#408278
0K
#408347
1X
#408802
1Y
#410000
0!
12
#410284
1H
11
#410936
0I
#411081
0J
#415000
1!
02
#415775
1I
#415938
1J
#417628
0r!
1q!
#418208
0Z
#418263
0Y
#418312
0X
#418351
1K
#418370
1Z
#418767
1Y
#420000
0!
12
#420267
0H
01
#420936
0I
#421081
0J
#425000
1!
02
#425775
1I
#425938
1J
#427628
1r!
#428278
0K
#428347
1X
#428405
0Z
#428784
0Y
#428860
1[
#430000
0!
12
#430284
1H
11
#430936
0I
#431081
0J
#435000
1!
02
#435775
1I
#435938
1J
#437628
0r!
0q!
1p!
#438259
0[
#438312
0X
#438328
1\
#438351
1K
#438386
0^
#438417
1Z
#438475
0\
#438533
1^
#438872
1[
#440000
0!
12
#440267
0H
01
#440936
0I
#441081
0J
#445000
1!
02
#445775
1I
#445938
1J
#447628
1r!
#448278
0K
#448347
1X
#448802
1Y
#450000
0!
12
#450284
1H
11
#450936
0I
#451081
0J
#455000
1!
02
#455775
1I
#455938
1J
#457628
0r!
1q!
#458208
0Z
#458263
0Y
#458266
1\
#458312
0X
#458324
0^
#458351
1K
#458370
1Z
#458428
0\
#458486
1^
#458767
1Y
#460000
0!
12
#460267
0H
01
#460936
0I
#461081
0J
#465000
1!
02
#465775
1I
#465938
1J
#467628
1r!
#468278
0K
#468347
1X
#468405
0Z
#468463
1\
#468521
0^
#468784
0Y
#468842
0[
#468900
0]
#468976
1_
#470000
0!
12
#470284
1H
11
#470936
0I
#471081
0J
#475000
1!
02
#475775
1I
#475938
1J
#477628
0r!
0q!
0p!
0o!
1n!
#478259
0_
#478294
0\
#478312
0X
#478333
1[
#478336
1`
#478351
1K
#478394
0b
#478405
1^
#478417
1Z
#478463
0`
#478521
1b
#478854
0[
#478860
1_
#480000
0!
12
#480267
0H
01
#480936
0I
#481081
0J
#485000
1!
02
#485775
1I
#485938
1J
#487628
1r!
#488278
0K
#488347
1X
#488802
1Y
#490000
0!
12
#490284
1H
11
#490936
0I
#491081
0J
#495000
1!
02
#495775
1I
#495938
1J
#497628
0r!
1q!
#498208
0Z
#498263
0Y
#498312
0X
#498351
1K
#498370
1Z
#498767
1Y
#500000
0!
12
#500267
0H
01
#500936
0I
#501081
0J
#505000
1!
02
#505775
1I
#505938
1J
#507628
1r!
#508278
0K
#508347
1X
#508405
0Z
#508784
0Y
#508860
1[
#510000
0!
12
#510284
1H
11
#510936
0I
#511081
0J
#515000
1!
02
#515775
1I
#515938
1J
#517628
0r!
0q!
1p!
#518259
0[
#518312
0X
#518328
1\
#518351
1K
#518417
1Z
#518475
0\
#518872
1[
#520000
0!
12
#520267
0H
01
#520936
0I
#521081
0J
#525000
1!
02
#525775
1I
#525938
1J
#527628
1r!
#528278
0K
#528347
1X
#528802
1Y
#530000
0!
12
#530284
1H
11
#530936
0I
#531081
0J
#535000
1!
02
#535775
1I
#535938
1J
#537628
0r!
1q!
#538208
0Z
#538263
0Y
#538266
1\
#538312
0X
#538351
1K
#538370
1Z
#538428
0\
#538767
1Y
#540000
0!
12
#540267
0H
01
#540936
0I
#541081
0J
#545000
1!
02
#545775
1I
#545938
1J
#547628
1r!
#548278
0K
#548347
1X
#548405
0Z
#548463
1\
#548784
0Y
#548842
0[
#548918
1]
#550000
0!
12
#550284
1H
11
#550936
0I
#551081
0J
#555000
1!
02
#555775
1I
#555938
1J
#557628
0r!
0q!
0p!
1o!
#557983
1M
#558194
0^
#558247
0]
#558252
1`
#558294
0\
#558310
0b
#558312
0X
#558333
1[
#558351
1K
#558352
1^
#558408
0M
#558410
0`
#558417
1Z
#558468
1b
#558749
1]
#558854
0[
#560000
0!
12
#560267
0H
01
#560936
0I
#561081
0J
#565000
1!
02
#565775
1I
#565938
1J
#567628
1r!
#568278
0K
#568347
1X
#568802
1Y
#570000
0!
12
#570284
1H
11
#570936
0I
#571081
0J
#575000
1!
02
#575775
1I
#575938
1J
#577628
0r!
1q!
#578208
0Z
#578263
0Y
#578312
0X
#578351
1K
#578370
1Z
#578767
1Y
#580000
0!
12
#580267
0H
01
#580936
0I
#581081
0J
#585000
1!
02
#585775
1I
#585938
1J
#587628
1r!
#588278
0K
#588347
1X
#588405
0Z
#588784
0Y
#588860
1[
#590000
0!
12
#590284
1H
11
#590936
0I
#591081
0J
#595000
1!
02
#595775
1I
#595938
1J
#597628
0r!
0q!
1p!
#598259
0[
#598312
0X
#598328
1\
#598336
1M
#598351
1K
#598386
0^
#598417
1Z
#598444
1`
#598475
0\
#598502
0b
#598533
1^
#598591
0`
#598649
1b
#598872
1[
#600000
0!
12
#600267
0H
01
#600936
0I
#601081
0J
#605000
1!
02
#605775
1I
#605938
1J
#607628
1r!
#608278
0K
#608347
1X
#608802
1Y
#610000
0!
12
#610284
1H
11
#610936
0I
#611081
0J
#615000
1!
02
#615775
1I
#615938
1J
#617628
0r!
1q!
#618208
0Z
#618263
0Y
#618266
1\
#618312
0X
#618324
0^
#618351
1K
#618370
1Z
#618382
1`
#618428
0\
#618440
0b
#618486
1^
#618544
0`
#618602
1b
#618767
1Y
#620000
0!
12
#620267
0H
01
#620936
0I
#621081
0J
#625000
1!
02
#625775
1I
#625938
1J
#627628
1r!
#628278
0K
#628347
1X
#628405
0Z
#628463
1\
#628521
0^
#628579
1`
#628637
0b
#628784
0Y
#628842
0[
#628900
0]
#628958
0_
#629016
0a
#629092
1c
#630000
0!
12
#630284
1H
11
#630936
0I
#631081
0J
#635000
1!
02
#635775
1I
#635938
1J
#637628
0r!
0q!
0p!
0o!
0n!
0m!
1l!
#638045
0M
#638235
1N
#638247
0c
#638291
0`
#638294
0\
#638312
0X
#638324
1d
#638328
1_
#638333
1[
#638351
1K
#638405
1^
#638417
1Z
#638419
1b
#638477
0d
#638842
0_
#638854
0[
#638874
1c
#640000
0!
12
#640267
0H
01
#640936
0I
#641081
0J
#645000
1!
02
#645775
1I
#645938
1J
#647628
1r!
#648278
0K
#648347
1X
#648802
1Y
#650000
0!
12
#650284
1H
11
#650936
0I
#651081
0J
#655000
1!
02
#655775
1I
#655938
1J
#657628
0r!
1q!
#658208
0Z
#658263
0Y
#658312
0X
#658351
1K
#658370
1Z
