NWPU_DIgitalCircuiitExperiments_Xmk_Xyr/Test/3/experience_3/experience_3/iddisplay_1/simulation/qsim/iddisplay_1.msim.vcd
$comment
	File created using the following command:
		vcd file iddisplay_1.msim.vcd -direction
$end
$date
	Sat May 20 19:58:38 2023
$end
$version
	ModelSim Version 10.1d
$end
$timescale
	1ps
$end
$scope module iddisplay_1_vlg_vec_tst $end
$var reg 1 ! clk $end
$var wire 1 " A $end
$var wire 1 # B $end
$var wire 1 $ C $end
$var wire 1 % D $end
$var wire 1 & E $end
$var wire 1 ' F $end
$var wire 1 ( G $end
$var wire 1 ) H1 $end
$var wire 1 * H2 $end
$var wire 1 + H3 $end
$var wire 1 , H4 $end
$var wire 1 - L1 $end
$var wire 1 . L2 $end
$var wire 1 / L3 $end
$var wire 1 0 L4 $end
$var wire 1 1 sampler $end
$scope module i1 $end
$var wire 1 2 gnd $end
$var wire 1 3 vcc $end
$var wire 1 4 unknown $end
$var tri1 1 5 devclrn $end
$var tri1 1 6 devpor $end
$var tri1 1 7 devoe $end
$var wire 1 8 A~output_o $end
$var wire 1 9 B~output_o $end
$var wire 1 : C~output_o $end
$var wire 1 ; D~output_o $end
$var wire 1 < E~output_o $end
$var wire 1 = F~output_o $end
$var wire 1 > G~output_o $end
$var wire 1 ? H1~output_o $end
$var wire 1 @ H2~output_o $end
$var wire 1 A H3~output_o $end
$var wire 1 B H4~output_o $end
$var wire 1 C L4~output_o $end
$var wire 1 D L3~output_o $end
$var wire 1 E L2~output_o $end
$var wire 1 F L1~output_o $end
$var wire 1 G clk~input_o $end
$var wire 1 H clk~inputclkctrl_outclk $end
$var wire 1 I inst|LPM_COUNTER_component|auto_generated|counter_comb_bita0~combout $end
$var wire 1 J ~GND~combout $end
$var wire 1 K inst|LPM_COUNTER_component|auto_generated|cmpr1|aneb_result_wire[0]~6_combout $end
$var wire 1 L inst|LPM_COUNTER_component|auto_generated|cmpr1|aneb_result_wire[0]~5_combout $end
$var wire 1 M inst|LPM_COUNTER_component|auto_generated|cmpr1|aneb_result_wire[0]~7_combout $end
$var wire 1 N inst|LPM_COUNTER_component|auto_generated|cmpr1|aneb_result_wire[0]~3_combout $end
$var wire 1 O inst|LPM_COUNTER_component|auto_generated|cmpr1|aneb_result_wire[0]~0_combout $end
$var wire 1 P inst|LPM_COUNTER_component|auto_generated|cmpr1|aneb_result_wire[0]~1_combout $end
$var wire 1 Q inst|LPM_COUNTER_component|auto_generated|cmpr1|aneb_result_wire[0]~2_combout $end
$var wire 1 R inst|LPM_COUNTER_component|auto_generated|cmpr1|aneb_result_wire[0]~4_combout $end
$var wire 1 S inst|LPM_COUNTER_component|auto_generated|counter_comb_bita25~COUT $end
$var wire 1 T inst|LPM_COUNTER_component|auto_generated|counter_comb_bita25~0_combout $end
$var wire 1 U inst|LPM_COUNTER_component|auto_generated|cout_actual~combout $end
$var wire 1 V inst|LPM_COUNTER_component|auto_generated|counter_comb_bita0~COUT $end
$var wire 1 W inst|LPM_COUNTER_component|auto_generated|counter_comb_bita1~combout $end
$var wire 1 X inst|LPM_COUNTER_component|auto_generated|counter_comb_bita1~COUT $end
$var wire 1 Y inst|LPM_COUNTER_component|auto_generated|counter_comb_bita2~combout $end
$var wire 1 Z inst|LPM_COUNTER_component|auto_generated|counter_comb_bita2~COUT $end
$var wire 1 [ inst|LPM_COUNTER_component|auto_generated|counter_comb_bita3~combout $end
$var wire 1 \ inst|LPM_COUNTER_component|auto_generated|counter_comb_bita3~COUT $end
$var wire 1 ] inst|LPM_COUNTER_component|auto_generated|counter_comb_bita4~combout $end
$var wire 1 ^ inst|LPM_COUNTER_component|auto_generated|counter_comb_bita4~COUT $end
$var wire 1 _ inst|LPM_COUNTER_component|auto_generated|counter_comb_bita5~combout $end
$var wire 1 ` inst|LPM_COUNTER_component|auto_generated|counter_comb_bita5~COUT $end
$var wire 1 a inst|LPM_COUNTER_component|auto_generated|counter_comb_bita6~combout $end
$var wire 1 b inst|LPM_COUNTER_component|auto_generated|counter_comb_bita6~COUT $end
$var wire 1 c inst|LPM_COUNTER_component|auto_generated|counter_comb_bita7~combout $end
$var wire 1 d inst|LPM_COUNTER_component|auto_generated|counter_comb_bita7~COUT $end
$var wire 1 e inst|LPM_COUNTER_component|auto_generated|counter_comb_bita8~combout $end
$var wire 1 f inst|LPM_COUNTER_component|auto_generated|counter_comb_bita8~COUT $end
$var wire 1 g inst|LPM_COUNTER_component|auto_generated|counter_comb_bita9~combout $end
$var wire 1 h inst|LPM_COUNTER_component|auto_generated|counter_comb_bita9~COUT $end
$var wire 1 i inst|LPM_COUNTER_component|auto_generated|counter_comb_bita10~combout $end
$var wire 1 j inst|LPM_COUNTER_component|auto_generated|counter_comb_bita10~COUT $end
$var wire 1 k inst|LPM_COUNTER_component|auto_generated|counter_comb_bita11~combout $end
$var wire 1 l inst|LPM_COUNTER_component|auto_generated|counter_comb_bita11~COUT $end
$var wire 1 m inst|LPM_COUNTER_component|auto_generated|counter_comb_bita12~combout $end
$var wire 1 n inst|LPM_COUNTER_component|auto_generated|counter_comb_bita12~COUT $end
$var wire 1 o inst|LPM_COUNTER_component|auto_generated|counter_comb_bita13~combout $end
$var wire 1 p inst|LPM_COUNTER_component|auto_generated|counter_comb_bita13~COUT $end
$var wire 1 q inst|LPM_COUNTER_component|auto_generated|counter_comb_bita14~combout $end
$var wire 1 r inst|LPM_COUNTER_component|auto_generated|counter_comb_bita14~COUT $end
$var wire 1 s inst|LPM_COUNTER_component|auto_generated|counter_comb_bita15~combout $end
$var wire 1 t inst|LPM_COUNTER_component|auto_generated|counter_comb_bita15~COUT $end
$var wire 1 u inst|LPM_COUNTER_component|auto_generated|counter_comb_bita16~combout $end
$var wire 1 v inst|LPM_COUNTER_component|auto_generated|counter_comb_bita16~COUT $end
$var wire 1 w inst|LPM_COUNTER_component|auto_generated|counter_comb_bita17~combout $end
$var wire 1 x inst|LPM_COUNTER_component|auto_generated|counter_comb_bita17~COUT $end
$var wire 1 y inst|LPM_COUNTER_component|auto_generated|counter_comb_bita18~combout $end
$var wire 1 z inst|LPM_COUNTER_component|auto_generated|counter_comb_bita18~COUT $end
$var wire 1 { inst|LPM_COUNTER_component|auto_generated|counter_comb_bita19~combout $end
$var wire 1 | inst|LPM_COUNTER_component|auto_generated|counter_comb_bita19~COUT $end
$var wire 1 } inst|LPM_COUNTER_component|auto_generated|counter_comb_bita20~combout $end
$var wire 1 ~ inst|LPM_COUNTER_component|auto_generated|counter_comb_bita20~COUT $end
$var wire 1 !! inst|LPM_COUNTER_component|auto_generated|counter_comb_bita21~combout $end
$var wire 1 "! inst|LPM_COUNTER_component|auto_generated|counter_comb_bita21~COUT $end
$var wire 1 #! inst|LPM_COUNTER_component|auto_generated|counter_comb_bita22~combout $end
$var wire 1 $! inst|LPM_COUNTER_component|auto_generated|counter_comb_bita22~COUT $end
$var wire 1 %! inst|LPM_COUNTER_component|auto_generated|counter_comb_bita23~combout $end
$var wire 1 &! inst|LPM_COUNTER_component|auto_generated|counter_comb_bita23~COUT $end
$var wire 1 '! inst|LPM_COUNTER_component|auto_generated|counter_comb_bita24~combout $end
$var wire 1 (! inst|LPM_COUNTER_component|auto_generated|counter_comb_bita24~COUT $end
$var wire 1 )! inst|LPM_COUNTER_component|auto_generated|counter_comb_bita25~combout $end
$var wire 1 *! inst|LPM_COUNTER_component|auto_generated|counter_reg_bit[25]~clkctrl_outclk $end
$var wire 1 +! inst2|sub|9~0_combout $end
$var wire 1 ,! inst2|sub|87~0_combout $end
$var wire 1 -! inst2|sub|87~q $end
$var wire 1 .! inst2|sub|99~0_combout $end
$var wire 1 /! inst2|sub|99~q $end
$var wire 1 0! inst2|sub|110~0_combout $end
$var wire 1 1! inst2|sub|110~q $end
$var wire 1 2! inst34~combout $end
$var wire 1 3! inst2|sub|9~q $end
$var wire 1 4! inst3|5~0_combout $end
$var wire 1 5! inst3|5~1_combout $end
$var wire 1 6! inst71~0_combout $end
$var wire 1 7! inst3|86~combout $end
$var wire 1 8! inst72~0_combout $end
$var wire 1 9! inst1|sub|77~combout $end
$var wire 1 :! inst1|sub|9~q $end
$var wire 1 ;! inst1|sub|86~combout $end
$var wire 1 <! inst1|sub|87~q $end
$var wire 1 =! inst1|sub|98~combout $end
$var wire 1 >! inst1|sub|99~q $end
$var wire 1 ?! inst1|sub|104~combout $end
$var wire 1 @! inst9|sub|77~combout $end
$var wire 1 A! inst9|sub|9~q $end
$var wire 1 B! inst9|sub|86~0_combout $end
$var wire 1 C! inst9|sub|87~q $end
$var wire 1 D! inst1|sub|107~combout $end
$var wire 1 E! inst1|sub|108~combout $end
$var wire 1 F! inst1|sub|110~q $end
$var wire 1 G! inst26|48~0_combout $end
$var wire 1 H! inst26|40~q $end
$var wire 1 I! inst26|47~0_combout $end
$var wire 1 J! inst26|39~q $end
$var wire 1 K! inst26|46~0_combout $end
$var wire 1 L! inst26|38~q $end
$var wire 1 M! inst26|49~0_combout $end
$var wire 1 N! inst26|41~q $end
$var wire 1 O! inst25|49~0_combout $end
$var wire 1 P! inst25|41~q $end
$var wire 1 Q! inst25|48~0_combout $end
$var wire 1 R! inst25|40~q $end
$var wire 1 S! inst25|47~0_combout $end
$var wire 1 T! inst25|39~q $end
$var wire 1 U! inst25|46~0_combout $end
$var wire 1 V! inst25|38~q $end
$var wire 1 W! inst|LPM_COUNTER_component|auto_generated|counter_reg_bit [25] $end
$var wire 1 X! inst|LPM_COUNTER_component|auto_generated|counter_reg_bit [24] $end
$var wire 1 Y! inst|LPM_COUNTER_component|auto_generated|counter_reg_bit [23] $end
$var wire 1 Z! inst|LPM_COUNTER_component|auto_generated|counter_reg_bit [22] $end
$var wire 1 [! inst|LPM_COUNTER_component|auto_generated|counter_reg_bit [21] $end
$var wire 1 \! inst|LPM_COUNTER_component|auto_generated|counter_reg_bit [20] $end
$var wire 1 ]! inst|LPM_COUNTER_component|auto_generated|counter_reg_bit [19] $end
$var wire 1 ^! inst|LPM_COUNTER_component|auto_generated|counter_reg_bit [18] $end
$var wire 1 _! inst|LPM_COUNTER_component|auto_generated|counter_reg_bit [17] $end
$var wire 1 `! inst|LPM_COUNTER_component|auto_generated|counter_reg_bit [16] $end
$var wire 1 a! inst|LPM_COUNTER_component|auto_generated|counter_reg_bit [15] $end
$var wire 1 b! inst|LPM_COUNTER_component|auto_generated|counter_reg_bit [14] $end
$var wire 1 c! inst|LPM_COUNTER_component|auto_generated|counter_reg_bit [13] $end
$var wire 1 d! inst|LPM_COUNTER_component|auto_generated|counter_reg_bit [12] $end
$var wire 1 e! inst|LPM_COUNTER_component|auto_generated|counter_reg_bit [11] $end
$var wire 1 f! inst|LPM_COUNTER_component|auto_generated|counter_reg_bit [10] $end
$var wire 1 g! inst|LPM_COUNTER_component|auto_generated|counter_reg_bit [9] $end
$var wire 1 h! inst|LPM_COUNTER_component|auto_generated|counter_reg_bit [8] $end
$var wire 1 i! inst|LPM_COUNTER_component|auto_generated|counter_reg_bit [7] $end
$var wire 1 j! inst|LPM_COUNTER_component|auto_generated|counter_reg_bit [6] $end
$var wire 1 k! inst|LPM_COUNTER_component|auto_generated|counter_reg_bit [5] $end
$var wire 1 l! inst|LPM_COUNTER_component|auto_generated|counter_reg_bit [4] $end
$var wire 1 m! inst|LPM_COUNTER_component|auto_generated|counter_reg_bit [3] $end
$var wire 1 n! inst|LPM_COUNTER_component|auto_generated|counter_reg_bit [2] $end
$var wire 1 o! inst|LPM_COUNTER_component|auto_generated|counter_reg_bit [1] $end
$var wire 1 p! inst|LPM_COUNTER_component|auto_generated|counter_reg_bit [0] $end
$upscope $end
$upscope $end
$enddefinitions $end
#0
$dumpvars
1!
x"
0#
x$
x%
x&
x'
x(
x)
x*
x+
x,
x-
x.
x/
x0
x1
02
13
x4
15
16
17
x8
09
x:
x;
x<
x=
x>
x?
x@
xA
xB
xC
xD
xE
xF
1G
xH
xI
0J
xK
xL
xM
xN
xO
xP
xQ
xR
xS
xT
xU
xV
xW
xX
xY
xZ
x[
x\
x]
x^
x_
x`
xa
xb
xc
xd
xe
xf
xg
xh
xi
xj
xk
xl
xm
xn
xo
xp
xq
xr
xs
xt
xu
xv
xw
xx
xy
xz
x{
x|
x}
x~
x!!
x"!
x#!
x$!
x%!
x&!
x'!
x(!
x)!
x*!
1+!
x,!
0-!
x.!
0/!
x0!
01!
x2!
03!
x4!
x5!
x6!
x7!
x8!
x9!
0:!
x;!
0<!
x=!
0>!
x?!
x@!
0A!
xB!
0C!
xD!
xE!
0F!
xG!
0H!
xI!
0J!
xK!
0L!
xM!
0N!
xO!
0P!
xQ!
0R!
xS!
0T!
xU!
0V!
0p!
0o!
0n!
0m!
0l!
0k!
0j!
0i!
0h!
0g!
0f!
0e!
0d!
0c!
0b!
0a!
0`!
0_!
0^!
0]!
0\!
0[!
0Z!
0Y!
0X!
0W!
$end
#163
1H
#419
0P
#420
0Q
#428
02!
#545
0?!
#557
0K
#569
0D!
#570
0G!
#590
0,!
#604
0=!
#610
19!
#613
04!
#618
06!
#649
0r
#654
0~
#656
0v
#658
0z
#662
0b
0^
#663
0$!
#664
0n
0j
0f
0V
#665
0(!
#666
0Z
#685
1O!
#691
0B!
#694
00!
#703
1I
#704
0.!
#711
0I!
#713
0M
#721
0N
#722
0M!
#744
0Q!
#777
1|
#779
1t
#780
1x
#781
1"!
#787
1\
1p
#788
1l
#789
1h
1X
#790
1`
#791
1&!
1d
#797
0S!
#810
1S
#835
0U!
#856
0L
#862
0;!
#874
0@!
#889
0E!
#890
1K!
#962
0O
#1086
0s
#1091
0!!
#1093
0w
15!
#1095
0{
#1099
0_
0c
#1100
0%!
#1101
0W
0g
0k
0o
#1102
0)!
#1103
0[
#1112
18!
#1114
17!
#1214
0}
#1216
0u
#1217
0y
#1218
0#!
#1224
0q
0]
#1225
0m
#1226
0Y
0i
#1227
0a
#1228
0e
0'!
#1247
0T
#1422
0R
#1620
0*!
#2077
0U
#2677
0?
0)
#2688
0@
0*
#2907
0A
0+
#2924
0C
00
#2942
0B
0,
#3044
0D
0/
#3087
0;
0<
0%
0&
#3370
0E
0.
#3551
08
0"
#3628
1=
1'
#3631
1:
1$
#3636
0>
0(
#4426
0F
0-
