NWPU_DIgitalCircuiitExperiments_Xmk_Xyr/Test/4/test4/simulation/qsim/test4.msim.vcd
$comment
	File created using the following command:
		vcd file test4.msim.vcd -direction
$end
$date
	Fri May 26 19:34:47 2023
$end
$version
	ModelSim Version 10.1d
$end
$timescale
	1ps
$end
$scope module test4_vlg_vec_tst $end
$var reg 1 ! clk $end
$var wire 1 " out_1Hz $end
$var wire 1 # out_10Hz $end
$var wire 1 $ sampler $end
$scope module i1 $end
$var wire 1 % gnd $end
$var wire 1 & vcc $end
$var wire 1 ' unknown $end
$var tri1 1 ( devclrn $end
$var tri1 1 ) devpor $end
$var tri1 1 * devoe $end
$var wire 1 + out_10Hz~output_o $end
$var wire 1 , out_1Hz~output_o $end
$var wire 1 - clk~input_o $end
$var wire 1 . clk~inputclkctrl_outclk $end
$var wire 1 / Add0~0_combout $end
$var wire 1 0 Add0~1 $end
$var wire 1 1 Add0~2_combout $end
$var wire 1 2 Add0~3 $end
$var wire 1 3 Add0~4_combout $end
$var wire 1 4 Add0~5 $end
$var wire 1 5 Add0~6_combout $end
$var wire 1 6 Add0~7 $end
$var wire 1 7 Add0~8_combout $end
$var wire 1 8 Add0~9 $end
$var wire 1 9 Add0~10_combout $end
$var wire 1 : Add0~11 $end
$var wire 1 ; Add0~12_combout $end
$var wire 1 < Add0~33 $end
$var wire 1 = Add0~34_combout $end
$var wire 1 > Add0~35 $end
$var wire 1 ? Add0~36_combout $end
$var wire 1 @ count_10Hz~5_combout $end
$var wire 1 A Add0~37 $end
$var wire 1 B Add0~38_combout $end
$var wire 1 C count_10Hz~6_combout $end
$var wire 1 D Add0~39 $end
$var wire 1 E Add0~40_combout $end
$var wire 1 F Add0~41 $end
$var wire 1 G Add0~42_combout $end
$var wire 1 H Add0~43 $end
$var wire 1 I Add0~44_combout $end
$var wire 1 J count_10Hz~7_combout $end
$var wire 1 K Equal0~6_combout $end
$var wire 1 L Add0~13 $end
$var wire 1 M Add0~14_combout $end
$var wire 1 N Add0~15 $end
$var wire 1 O Add0~16_combout $end
$var wire 1 P count_10Hz~1_combout $end
$var wire 1 Q Add0~17 $end
$var wire 1 R Add0~18_combout $end
$var wire 1 S count_10Hz~2_combout $end
$var wire 1 T Add0~19 $end
$var wire 1 U Add0~20_combout $end
$var wire 1 V Add0~21 $end
$var wire 1 W Add0~22_combout $end
$var wire 1 X count_10Hz~3_combout $end
$var wire 1 Y Add0~23 $end
$var wire 1 Z Add0~24_combout $end
$var wire 1 [ Add0~25 $end
$var wire 1 \ Add0~26_combout $end
$var wire 1 ] Add0~27 $end
$var wire 1 ^ Add0~28_combout $end
$var wire 1 _ count_10Hz~4_combout $end
$var wire 1 ` Add0~29 $end
$var wire 1 a Add0~30_combout $end
$var wire 1 b Add0~31 $end
$var wire 1 c Add0~32_combout $end
$var wire 1 d Equal0~5_combout $end
$var wire 1 e count_10Hz~0_combout $end
$var wire 1 f Equal0~1_combout $end
$var wire 1 g Equal0~3_combout $end
$var wire 1 h Equal0~0_combout $end
$var wire 1 i Equal0~2_combout $end
$var wire 1 j Equal0~4_combout $end
$var wire 1 k flipflop_10Hz~0_combout $end
$var wire 1 l flipflop_10Hz~q $end
$var wire 1 m Add1~0_combout $end
$var wire 1 n Add1~1 $end
$var wire 1 o Add1~2_combout $end
$var wire 1 p Add1~3 $end
$var wire 1 q Add1~4_combout $end
$var wire 1 r Add1~5 $end
$var wire 1 s Add1~6_combout $end
$var wire 1 t Add1~7 $end
$var wire 1 u Add1~8_combout $end
$var wire 1 v Equal1~6_combout $end
$var wire 1 w Add1~9 $end
$var wire 1 x Add1~10_combout $end
$var wire 1 y Add1~11 $end
$var wire 1 z Add1~12_combout $end
$var wire 1 { count_1Hz~11_combout $end
$var wire 1 | Add1~13 $end
$var wire 1 } Add1~14_combout $end
$var wire 1 ~ Add1~15 $end
$var wire 1 !! Add1~16_combout $end
$var wire 1 "! Equal1~5_combout $end
$var wire 1 #! Equal1~7_combout $end
$var wire 1 $! Add1~17 $end
$var wire 1 %! Add1~18_combout $end
$var wire 1 &! Add1~19 $end
$var wire 1 '! Add1~20_combout $end
$var wire 1 (! Add1~21 $end
$var wire 1 )! Add1~22_combout $end
$var wire 1 *! count_1Hz~10_combout $end
$var wire 1 +! Add1~23 $end
$var wire 1 ,! Add1~24_combout $end
$var wire 1 -! count_1Hz~9_combout $end
$var wire 1 .! Equal1~3_combout $end
$var wire 1 /! Add1~25 $end
$var wire 1 0! Add1~26_combout $end
$var wire 1 1! count_1Hz~8_combout $end
$var wire 1 2! Add1~27 $end
$var wire 1 3! Add1~28_combout $end
$var wire 1 4! count_1Hz~7_combout $end
$var wire 1 5! Add1~29 $end
$var wire 1 6! Add1~30_combout $end
$var wire 1 7! Add1~31 $end
$var wire 1 8! Add1~32_combout $end
$var wire 1 9! count_1Hz~6_combout $end
$var wire 1 :! Equal1~2_combout $end
$var wire 1 ;! Add1~33 $end
$var wire 1 <! Add1~34_combout $end
$var wire 1 =! Add1~35 $end
$var wire 1 >! Add1~36_combout $end
$var wire 1 ?! count_1Hz~5_combout $end
$var wire 1 @! Add1~37 $end
$var wire 1 A! Add1~38_combout $end
$var wire 1 B! count_1Hz~4_combout $end
$var wire 1 C! Add1~39 $end
$var wire 1 D! Add1~40_combout $end
$var wire 1 E! count_1Hz~3_combout $end
$var wire 1 F! Add1~41 $end
$var wire 1 G! Add1~42_combout $end
$var wire 1 H! count_1Hz~2_combout $end
$var wire 1 I! Add1~43 $end
$var wire 1 J! Add1~44_combout $end
$var wire 1 K! count_1Hz~1_combout $end
$var wire 1 L! Add1~45 $end
$var wire 1 M! Add1~46_combout $end
$var wire 1 N! Add1~47 $end
$var wire 1 O! Add1~48_combout $end
$var wire 1 P! count_1Hz~0_combout $end
$var wire 1 Q! Equal1~0_combout $end
$var wire 1 R! Equal1~1_combout $end
$var wire 1 S! Equal1~4_combout $end
$var wire 1 T! Equal1~8_combout $end
$var wire 1 U! flipflop_1Hz~0_combout $end
$var wire 1 V! flipflop_1Hz~q $end
$var wire 1 W! count_10Hz [22] $end
$var wire 1 X! count_10Hz [21] $end
$var wire 1 Y! count_10Hz [20] $end
$var wire 1 Z! count_10Hz [19] $end
$var wire 1 [! count_10Hz [18] $end
$var wire 1 \! count_10Hz [17] $end
$var wire 1 ]! count_10Hz [16] $end
$var wire 1 ^! count_10Hz [15] $end
$var wire 1 _! count_10Hz [14] $end
$var wire 1 `! count_10Hz [13] $end
$var wire 1 a! count_10Hz [12] $end
$var wire 1 b! count_10Hz [11] $end
$var wire 1 c! count_10Hz [10] $end
$var wire 1 d! count_10Hz [9] $end
$var wire 1 e! count_10Hz [8] $end
$var wire 1 f! count_10Hz [7] $end
$var wire 1 g! count_10Hz [6] $end
$var wire 1 h! count_10Hz [5] $end
$var wire 1 i! count_10Hz [4] $end
$var wire 1 j! count_10Hz [3] $end
$var wire 1 k! count_10Hz [2] $end
$var wire 1 l! count_10Hz [1] $end
$var wire 1 m! count_10Hz [0] $end
$var wire 1 n! count_1Hz [25] $end
$var wire 1 o! count_1Hz [24] $end
$var wire 1 p! count_1Hz [23] $end
$var wire 1 q! count_1Hz [22] $end
$var wire 1 r! count_1Hz [21] $end
$var wire 1 s! count_1Hz [20] $end
$var wire 1 t! count_1Hz [19] $end
$var wire 1 u! count_1Hz [18] $end
$var wire 1 v! count_1Hz [17] $end
$var wire 1 w! count_1Hz [16] $end
$var wire 1 x! count_1Hz [15] $end
$var wire 1 y! count_1Hz [14] $end
$var wire 1 z! count_1Hz [13] $end
$var wire 1 {! count_1Hz [12] $end
$var wire 1 |! count_1Hz [11] $end
$var wire 1 }! count_1Hz [10] $end
$var wire 1 ~! count_1Hz [9] $end
$var wire 1 !" count_1Hz [8] $end
$var wire 1 "" count_1Hz [7] $end
$var wire 1 #" count_1Hz [6] $end
$var wire 1 $" count_1Hz [5] $end
$var wire 1 %" count_1Hz [4] $end
$var wire 1 &" count_1Hz [3] $end
$var wire 1 '" count_1Hz [2] $end
$var wire 1 (" count_1Hz [1] $end
$var wire 1 )" count_1Hz [0] $end
$upscope $end
$upscope $end
$enddefinitions $end
#0
$dumpvars
0!
xe
xf
xg
xh
xi
xj
xk
0l
xm
xn
xo
xp
xq
xr
xs
xt
xu
xv
xw
xx
xy
xz
x{
x|
x}
x~
x!!
x"!
x#!
x$!
x%!
x&!
x'!
x(!
x)!
x*!
x+!
x,!
x-!
x.!
x/!
x0!
x1!
x2!
x3!
x4!
x5!
x6!
x7!
x8!
x9!
x:!
x;!
x<!
x=!
x>!
x?!
x@!
xA!
xB!
x"
x#
x$
0%
1&
x'
1(
1)
1*
x+
x,
0-
x.
x/
x0
x1
x2
x3
x4
x5
x6
x7
x8
x9
x:
x;
x<
x=
x>
x?
x@
xA
xB
xC
xD
xE
xF
xG
xH
xI
xJ
xK
xL
xM
xN
xO
xP
xQ
xR
xS
xT
xU
xV
xW
xX
xY
xZ
x[
x\
x]
x^
x_
x`
xa
xb
xc
xd
xC!
xD!
xE!
xF!
xG!
xH!
xI!
xJ!
xK!
xL!
xM!
xN!
xO!
xP!
xQ!
xR!
xS!
xT!
xU!
0V!
0m!
0l!
0k!
0j!
0i!
0h!
0g!
0f!
0e!
0d!
0c!
0b!
0a!
0`!
0_!
0^!
0]!
0\!
0[!
0Z!
0Y!
0X!
0W!
z)"
0("
0'"
0&"
0%"
0$"
0#"
0""
0!"
0~!
0}!
0|!
0{!
0z!
0y!
0x!
0w!
0v!
0u!
0t!
0s!
0r!
0q!
0p!
0o!
0n!
$end
#378
0.
#413
0v
#414
0f
#423
0i
#531
0d
#539
0h
#550
0Q!
0:!
#646
0$!
#647
08
#648
0r
0w
04
#651
0|
#654
0R!
#655
0L
#657
0(!
#658
0[
#659
0F
#660
0V
#662
0<
0`
0.!
#663
0L!
0F!
#665
0A
#676
0#!
#680
0K
#682
00
#721
1/
#740
0j
#769
0/!
0n
#772
0@!
1~
12
#773
1p
#776
1t
1N
16
#782
1=!
1&!
1>
#783
17!
#784
1N!
#786
1y
1]
1:
#787
1b
#788
1I!
1H
1D
#790
1T
#791
1+!
#799
0;!
#801
05!
#813
0"!
#822
0g
#838
0m
#890
0k
#895
1C!
#923
12!
#946
1Y
#993
0S!
#1081
0Q
#1083
0%!
#1084
09
#1085
05
0x
0s
#1088
0}
#1092
0M
#1094
0)!
#1095
0\
#1096
0G
#1097
0W
#1099
0a
0=
#1100
0G!
0M!
#1102
0B
#1119
01
#1206
0o
00!
#1209
03
0!!
0A!
#1210
0q
#1213
07
0O
0u
#1219
0?
0'!
0>!
#1220
08!
#1221
0O!
#1223
0;
0^
0z
#1224
0c
#1225
0E
0I
0J!
#1227
0U
#1228
0,!
#1236
0<!
#1238
06!
#1310
0T!
#1332
0D!
#1360
03!
#1383
0Z
#1417
0H!
#1419
0C
#1518
0R
#1541
0K!
#1542
0*!
0_
#1649
0E!
#1661
01!
#1665
0@
#1669
0J
#1674
0X
#1692
0P!
#1719
0U!
#1811
0B!
#1821
0?!
#1823
09!
#1829
0{
#1832
0-!
#1834
0e
#1838
0S
#2000
04!
#2218
0P
#3801
0+
0#
#3839
0,
0"
#5000
1!
0$
#5527
1-
#5917
1.
#7547
1m!
#8200
0/
#8269
10
#8299
1m
#8724
11
#10000
0!
1$
#10701
0-
#11079
0.
#15000
1!
0$
#15527
1-
#15917
1.
#17547
0m!
1l!
#17548
1("
#18121
02
#18174
01
#18229
00
#18268
1/
#18287
12
#18684
11
#20000
0!
1$
#20701
0-
#21079
0.
#25000
1!
0$
#25527
1-
#25917
1.
#27547
1m!
#28137
1#!
#28200
0/
#28269
10
#28324
0m
#28327
02
#28401
1n
#28706
01
#28782
13
#28856
1o
#30000
0!
1$
#30701
0-
#31079
0.
#35000
1!
0$
#35527
1-
#35917
1.
#37547
0m!
0l!
1k!
#37548
0("
1'"
#38122
0p
#38170
03
#38175
0o
#38223
0#!
#38229
00
#38247
14
#38268
1/
#38317
0n
#38319
12
#38375
1p
#38377
04
#38772
1o
#38774
13
#40000
0!
1$
#40701
0-
#41079
0.
#45000
1!
0$
#45527
1-
#45917
1.
#47547
1m!
#48200
0/
#48269
10
#48299
1m
#48724
11
#50000
0!
1$
#50701
0-
#51079
0.
#55000
1!
0$
#55527
1-
#55917
1.
#57547
0m!
1l!
#57548
1("
#58121
02
#58174
01
#58179
14
#58229
00
#58268
1/
#58287
12
#58345
04
#58684
11
#60000
0!
1$
#60701
0-
#61079
0.
#65000
1!
0$
#65527
1-
#65917
1.
#67547
1m!
#68137
1#!
#68200
0/
#68269
10
#68324
0m
#68327
02
#68385
14
#68401
1n
#68459
0p
#68706
01
#68764
03
#68838
0o
#68840
15
#68914
1q
#70000
0!
1$
#70701
0-
#71079
0.
#75000
1!
0$
#75527
1-
#75917
1.
#77547
0m!
0l!
0k!
1j!
#77548
0("
0'"
1&"
#78119
06
#78171
0q
#78174
05
#78195
04
#78223
0#!
#78229
00
#78232
13
#78240
1r
#78241
1o
#78253
16
#78268
1/
#78317
0n
#78319
12
#78321
1p
#78379
0r
#78650
15
#78754
0o
#78756
03
#78776
1q
#80000
0!
1$
#80701
0-
#81079
0.
#85000
1!
0$
#85527
1-
#85917
1.
#87547
1m!
#88200
0/
#88269
10
#88299
1m
#88724
11
#90000
0!
1$
#90701
0-
#91079
0.
#95000
1!
0$
#95527
1-
#95917
1.
#97547
0m!
1l!
#97548
1("
#98121
02
#98174
01
#98229
00
#98268
1/
#98287
12
#98684
11
#100000
0!
1$
#100701
0-
#101079
0.
#105000
1!
0$
#105527
1-
#105917
1.
#107547
1m!
#108137
1#!
#108200
0/
#108269
10
#108324
0m
#108327
02
#108401
1n
#108706
01
#108782
13
#108856
1o
#110000
0!
1$
#110701
0-
#111079
0.
#115000
1!
0$
#115527
1-
#115917
1.
#117547
0m!
0l!
1k!
#117548
0("
1'"
#118122
0p
#118170
03
#118175
0o
#118180
1r
#118223
0#!
#118229
00
#118247
14
#118268
1/
#118305
06
#118317
0n
#118319
12
#118375
1p
#118377
04
#118433
0r
#118435
16
#118772
1o
#118774
13
#120000
0!
1$
#120701
0-
#121079
0.
#125000
1!
0$
#125527
1-
#125917
1.
#127547
1m!
#128200
0/
#128269
10
#128299
1m
#128724
11
#130000
0!
1$
#130701
0-
#131079
0.
#135000
1!
0$
#135527
1-
#135917
1.
#137547
0m!
1l!
#137548
1("
#138121
02
#138174
01
#138179
14
#138229
00
#138237
06
#138268
1/
#138287
12
#138345
04
#138403
16
#138684
11
#140000
0!
1$
#140701
0-
#141079
0.
#145000
1!
0$
#145527
1-
#145917
1.
#147547
1m!
#147930
1h
#148137
1#!
#148200
0/
#148269
10
#148324
0m
#148327
02
#148385
14
#148401
1n
#148443
06
#148459
0p
#148517
1r
#148706
01
#148764
03
#148822
05
#148838
0o
#148896
0q
#148898
17
#148972
1s
#150000
0!
1$
#150701
0-
#151079
0.
#155000
1!
0$
#155527
1-
#155917
1.
#157547
0m!
0l!
0k!
0j!
1i!
#157548
0("
0'"
0&"
1%"
#158086
0h
#158120
0t
#158169
07
#158175
0s
#158195
04
#158196
0r
#158223
0#!
#158229
00
#158232
13
#158235
1q
#158241
1o
#158246
18
#158254
1t
#158268
1/
#158317
0n
#158319
12
#158321
1p
#158323
16
#158381
08
#158651
1s
#158754
0o
#158756
03
#158758
0q
#158778
17
#160000
0!
1$
#160701
0-
#161079
0.
#165000
1!
0$
#165527
1-
#165917
1.
#167547
1m!
#168200
0/
#168269
10
#168299
1m
#168724
11
#170000
0!
1$
#170701
0-
#171079
0.
#175000
1!
0$
#175527
1-
#175917
1.
#177547
0m!
1l!
#177548
1("
#178121
02
#178174
01
#178229
00
#178268
1/
#178287
12
#178684
11
#180000
0!
1$
#180701
0-
#181079
0.
#185000
1!
0$
#185527
1-
#185917
1.
#187547
1m!
#188137
1#!
#188200
0/
#188269
10
#188324
0m
#188327
02
#188401
1n
#188706
01
#188782
13
#188856
1o
#190000
0!
1$
#190701
0-
#191079
0.
#195000
1!
0$
#195527
1-
#195917
1.
#197547
0m!
0l!
1k!
#197548
0("
1'"
#198122
0p
#198170
03
#198175
0o
#198223
0#!
#198229
00
#198247
14
#198268
1/
#198317
0n
#198319
12
#198375
1p
#198377
04
#198772
1o
#198774
13
#200000
0!
1$
#200701
0-
#201079
0.
#205000
1!
0$
#205527
1-
#205917
1.
#207547
1m!
#208200
0/
#208269
10
#208299
1m
#208724
11
#210000
0!
1$
#210701
0-
#211079
0.
#215000
1!
0$
#215527
1-
#215917
1.
#217547
0m!
1l!
#217548
1("
#218121
02
#218174
01
#218179
14
#218229
00
#218268
1/
#218287
12
#218345
04
#218684
11
#220000
0!
1$
#220701
0-
#221079
0.
#225000
1!
0$
#225527
1-
#225917
1.
#227547
1m!
#228137
1#!
#228200
0/
#228269
10
#228324
0m
#228327
02
#228385
14
#228401
1n
#228459
0p
#228706
01
#228764
03
#228838
0o
#228840
15
#228914
1q
#230000
0!
1$
#230701
0-
#231079
0.
#235000
1!
0$
#235527
1-
#235917
1.
#237547
0m!
0l!
0k!
1j!
#237548
0("
0'"
1&"
#238119
06
#238171
0q
#238174
05
#238177
18
#238195
04
#238223
0#!
#238229
00
#238232
13
#238240
1r
#238241
1o
#238253
16
#238268
1/
#238298
0t
#238311
08
#238317
0n
#238319
12
#238321
1p
#238379
0r
#238437
1t
#238650
15
#238754
0o
#238756
03
#238776
1q
#240000
0!
1$
#240701
0-
#241079
0.
#245000
1!
0$
#245527
1-
#245917
1.
#247547
1m!
#248200
0/
#248269
10
#248299
1m
#248724
11
#250000
0!
1$
#250701
0-
#251079
0.
#255000
1!
0$
#255527
1-
#255917
1.
#257547
0m!
1l!
#257548
1("
#258121
02
#258174
01
#258229
00
#258268
1/
#258287
12
#258684
11
#260000
0!
1$
#260701
0-
#261079
0.
#265000
1!
0$
#265527
1-
#265917
1.
#267547
1m!
#268137
1#!
#268200
0/
#268269
10
#268324
0m
#268327
02
#268401
1n
#268706
01
#268782
13
#268856
1o
#270000
0!
1$
#270701
0-
#271079
0.
#275000
1!
0$
#275527
1-
#275917
1.
#277547
0m!
0l!
1k!
#277548
0("
1'"
#278122
0p
#278170
03
#278175
0o
#278180
1r
#278223
0#!
#278229
00
#278238
0t
#278247
14
#278268
1/
#278305
06
#278317
0n
#278319
12
#278363
18
#278375
1p
#278377
04
#278433
0r
#278435
16
#278491
1t
#278493
08
#278772
1o
#278774
13
#280000
0!
1$
#280701
0-
#281079
0.
#285000
1!
0$
#285527
1-
#285917
1.
#287547
1m!
#288200
0/
#288269
10
#288299
1m
#288724
11
#290000
0!
1$
#290701
0-
#291079
0.
#295000
1!
0$
#295527
1-
#295917
1.
#297547
0m!
1l!
#297548
1("
#298121
02
#298174
01
#298179
14
#298229
00
#298237
06
#298268
1/
#298287
12
#298295
18
#298345
04
#298403
16
#298461
08
#298684
11
#300000
0!
1$
#300701
0-
#301079
0.
#305000
1!
0$
#305527
1-
#305917
1.
#307547
1m!
#307930
1h
#308137
1#!
#308200
0/
#308269
10
#308324
0m
#308327
02
#308385
14
#308401
1n
#308443
06
#308459
0p
#308501
18
#308517
1r
#308575
0t
#308706
01
#308764
03
#308822
05
#308838
0o
#308880
07
#308896
0q
#308954
0s
#308956
19
#309030
1u
#310000
0!
1$
#310701
0-
#311079
0.
#315000
1!
0$
#315527
1-
#315917
1.
#317547
0m!
0l!
0k!
0j!
0i!
1h!
#317548
0("
0'"
0&"
0%"
1$"
#318086
0h
#318132
0:
#318171
0u
#318187
09
#318194
08
#318195
04
#318196
0r
#318223
0#!
#318229
00
#318231
17
#318232
13
#318235
1q
#318241
1o
#318248
1w
#318252
1:
#318268
1/
#318317
0n
#318319
12
#318321
1p
#318323
16
#318324
1t
#318382
0w
#318649
19
#318754
0o
#318756
03
#318758
0q
#318760
07
#318779
1u
#320000
0!
1$
#320701
0-
#321079
0.
#325000
1!
0$
#325527
1-
#325917
1.
#327547
1m!
#328200
0/
#328269
10
#328299
1m
#328724
11
#330000
0!
1$
#330701
0-
#331079
0.
#335000
1!
0$
#335527
1-
#335917
1.
#337547
0m!
1l!
#337548
1("
#338121
02
#338174
01
#338229
00
#338268
1/
#338287
12
#338684
11
#340000
0!
1$
#340701
0-
#341079
0.
#345000
1!
0$
#345527
1-
#345917
1.
#347547
1m!
#348137
1#!
#348200
0/
#348269
10
#348324
0m
#348327
02
#348401
1n
#348706
01
#348782
13
#348856
1o
#350000
0!
1$
#350701
0-
#351079
0.
#355000
1!
0$
#355527
1-
#355917
1.
#357547
0m!
0l!
1k!
#357548
0("
1'"
#358122
0p
#358170
03
#358175
0o
#358223
0#!
#358229
00
#358247
14
#358268
1/
#358317
0n
#358319
12
#358375
1p
#358377
04
#358772
1o
#358774
13
#360000
0!
1$
#360701
0-
#361079
0.
#365000
1!
0$
#365527
1-
#365917
1.
#367547
1m!
#368200
0/
#368269
10
#368299
1m
#368724
11
#370000
0!
1$
#370701
0-
#371079
0.
#375000
1!
0$
#375527
1-
#375917
1.
#377547
0m!
1l!
#377548
1("
#378121
02
#378174
01
#378179
14
#378229
00
#378268
1/
#378287
12
#378345
04
#378684
11
#380000
0!
1$
#380701
0-
#381079
0.
#385000
1!
0$
#385527
1-
#385917
1.
#387547
1m!
#388137
1#!
#388200
0/
#388269
10
#388324
0m
#388327
02
#388385
14
#388401
1n
#388459
0p
#388706
01
#388764
03
#388838
0o
#388840
15
#388914
1q
#390000
0!
1$
#390701
0-
#391079
0.
#395000
1!
0$
#395527
1-
#395917
1.
#397547
0m!
0l!
0k!
1j!
#397548
0("
0'"
1&"
#398119
06
#398171
0q
#398174
05
#398195
04
#398223
0#!
#398229
00
#398232
13
#398240
1r
#398241
1o
#398253
16
#398268
1/
#398317
0n
#398319
12
#398321
1p
#398379
0r
#398650
15
#398754
0o
#398756
03
#398776
1q
#400000
0!
1$
#400701
0-
#401079
0.
#405000
1!
0$
#405527
1-
#405917
1.
#407547
1m!
#408200
0/
#408269
10
#408299
1m
#408724
11
#410000
0!
1$
#410701
0-
#411079
0.
#415000
1!
0$
#415527
1-
#415917
1.
#417547
0m!
1l!
#417548
1("
#418121
02
#418174
01
#418229
00
#418268
1/
#418287
12
#418684
11
#420000
0!
1$
#420701
0-
#421079
0.
#425000
1!
0$
#425527
1-
#425917
1.
#427547
1m!
#428137
1#!
#428200
0/
#428269
10
#428324
0m
#428327
02
#428401
1n
#428706
01
#428782
13
#428856
1o
#430000
0!
1$
#430701
0-
#431079
0.
#435000
1!
0$
#435527
1-
#435917
1.
#437547
0m!
0l!
1k!
#437548
0("
1'"
#438122
0p
#438170
03
#438175
0o
#438180
1r
#438223
0#!
#438229
00
#438247
14
#438268
1/
#438305
06
#438317
0n
#438319
12
#438375
1p
#438377
04
#438433
0r
#438435
16
#438772
1o
#438774
13
#440000
0!
1$
#440701
0-
#441079
0.
#445000
1!
0$
#445527
1-
#445917
1.
#447547
1m!
#448200
0/
#448269
10
#448299
1m
#448724
11
#450000
0!
1$
#450701
0-
#451079
0.
#455000
1!
0$
#455527
1-
#455917
1.
#457547
0m!
1l!
#457548
1("
#458121
02
#458174
01
#458179
14
#458229
00
#458237
06
#458268
1/
#458287
12
#458345
04
#458403
16
#458684
11
#460000
0!
1$
#460701
0-
#461079
0.
#465000
1!
0$
#465527
1-
#465917
1.
#467547
1m!
#467930
1h
#468137
1#!
#468200
0/
#468269
10
#468324
0m
#468327
02
#468385
14
#468401
1n
#468443
06
#468459
0p
#468517
1r
#468706
01
#468764
03
#468822
05
#468838
0o
#468896
0q
#468898
17
#468972
1s
#470000
0!
1$
#470701
0-
#471079
0.
#475000
1!
0$
#475527
1-
#475917
1.
#477547
0m!
0l!
0k!
0j!
1i!
#477548
0("
0'"
0&"
1%"
#477901
1f
#478086
0h
#478120
0t
#478169
07
#478175
0s
#478178
1w
#478195
04
#478196
0r
#478223
0#!
#478229
00
#478232
13
#478235
1q
#478241
1o
#478246
18
#478254
1t
#478268
1/
#478304
0:
#478312
0w
#478317
0n
#478319
12
#478321
1p
#478323
16
#478381
08
#478439
1:
#478651
1s
#478754
0o
#478756
03
#478758
0q
#478778
17
#480000
0!
1$
#480701
0-
#481079
0.
#485000
1!
0$
#485527
1-
#485917
1.
#487547
1m!
#488200
0/
#488269
10
#488299
1m
#488724
11
#490000
0!
1$
#490701
0-
#491079
0.
#495000
1!
0$
#495527
1-
#495917
1.
#497547
0m!
1l!
#497548
1("
#498121
02
#498174
01
#498229
00
#498268
1/
#498287
12
#498684
11
#500000
0!
1$
#500701
0-
#501079
0.
#505000
1!
0$
#505527
1-
#505917
1.
#507547
1m!
#508137
1#!
#508200
0/
#508269
10
#508324
0m
#508327
02
#508401
1n
#508706
01
#508782
13
#508856
1o
#510000
0!
1$
#510701
0-
#511079
0.
#515000
1!
0$
#515527
1-
#515917
1.
#517547
0m!
0l!
1k!
#517548
0("
1'"
#518122
0p
#518170
03
#518175
0o
#518223
0#!
#518229
00
#518247
14
#518268
1/
#518317
0n
#518319
12
#518375
1p
#518377
04
#518772
1o
#518774
13
#520000
0!
1$
#520701
0-
#521079
0.
#525000
1!
0$
#525527
1-
#525917
1.
#527547
1m!
#528200
0/
#528269
10
#528299
1m
#528724
11
#530000
0!
1$
#530701
0-
#531079
0.
#535000
1!
0$
#535527
1-
#535917
1.
#537547
0m!
1l!
#537548
1("
#538121
02
#538174
01
#538179
14
#538229
00
#538268
1/
#538287
12
#538345
04
#538684
11
#540000
0!
1$
#540701
0-
#541079
0.
#545000
1!
0$
#545527
1-
#545917
1.
#547547
1m!
#548137
1#!
#548200
0/
#548269
10
#548324
0m
#548327
02
#548385
14
#548401
1n
#548459
0p
#548706
01
#548764
03
#548838
0o
#548840
15
#548914
1q
#550000
0!
1$
#550701
0-
#551079
0.
#555000
1!
0$
#555527
1-
#555917
1.
#557547
0m!
0l!
0k!
1j!
#557548
0("
0'"
1&"
#558119
06
#558171
0q
#558174
05
#558177
18
#558195
04
#558223
0#!
#558229
00
#558232
13
#558235
0:
#558240
1r
#558241
1o
#558253
16
#558268
1/
#558298
0t
#558311
08
#558317
0n
#558319
12
#558321
1p
#558356
1w
#558369
1:
#558379
0r
#558437
1t
#558495
0w
#558650
15
#558754
0o
#558756
03
#558776
1q
#560000
0!
1$
#560701
0-
#561079
0.
#565000
1!
0$
#565527
1-
#565917
1.
#567547
1m!
#568200
0/
#568269
10
#568299
1m
#568724
11
#570000
0!
1$
#570701
0-
#571079
0.
#575000
1!
0$
#575527
1-
#575917
1.
#577547
0m!
1l!
#577548
1("
#578121
02
#578174
01
#578229
00
#578268
1/
#578287
12
#578684
11
#580000
0!
1$
#580701
0-
#581079
0.
#585000
1!
0$
#585527
1-
#585917
1.
#587547
1m!
#588137
1#!
#588200
0/
#588269
10
#588324
0m
#588327
02
#588401
1n
#588706
01
#588782
13
#588856
1o
#590000
0!
1$
#590701
0-
#591079
0.
#595000
1!
0$
#595527
1-
#595917
1.
#597547
0m!
0l!
1k!
#597548
0("
1'"
#598107
1v
#598122
0p
#598170
03
#598175
0o
#598180
1r
#598223
0#!
#598229
00
#598238
0t
#598247
14
#598268
1/
#598296
1w
#598305
06
#598317
0n
#598319
12
#598363
18
#598375
1p
#598377
04
#598421
0:
#598433
0r
#598435
16
#598491
1t
#598493
08
#598549
0w
#598551
1:
#598772
1o
#598774
13
#600000
0!
1$
#600701
0-
#601079
0.
#605000
1!
0$
#605527
1-
#605917
1.
#607547
1m!
#608200
0/
#608269
10
#608299
1m
#608724
11
#610000
0!
1$
#610701
0-
#611079
0.
#615000
1!
0$
#615527
1-
#615917
1.
#617547
0m!
1l!
#617548
1("
#618121
02
#618174
01
#618179
14
#618229
00
#618237
06
#618268
1/
#618287
12
#618295
18
#618345
04
#618353
0:
#618403
16
#618461
08
#618519
1:
#618684
11
#620000
0!
1$
#620701
0-
#621079
0.
#625000
1!
0$
#625527
1-
#625917
1.
#627547
1m!
#627930
1h
#628137
1#!
#628200
0/
#628269
10
#628324
0m
#628327
02
#628385
14
#628401
1n
#628443
06
#628459
0p
#628501
18
#628517
1r
#628559
0:
#628575
0t
#628633
1w
#628706
01
#628764
03
#628822
05
#628838
0o
#628880
07
#628896
0q
#628938
09
#628954
0s
#629012
0u
#629014
1;
#629088
1x
#629577
1e
#630000
0!
1$
#630701
0-
#631079
0.
#635000
1!
0$
#635527
1-
#635917
1.
#637547
0m!
0l!
0k!
0j!
0i!
0h!
1g!
#637548
0("
0'"
0&"
0%"
0$"
1#"
#637961
0v
#638086
0h
#638103
0f
#638133
0y
#638174
0;
#638188
0x
#638194
08
#638195
04
#638196
0r
0w
#638223
0#!
#638229
00
#638231
17
#638232
13
#638233
1u
#638235
1q
#638241
1o
#638243
1L
#638254
1y
#638268
1/
#638307
1"!
#638317
0n
#638319
12
#638321
1p
#638323
16
#638324
1t
#638333
1:
#638391
0L
#638651
1x
#638754
0o
#638756
03
#638758
0q
#638760
07
#638761
0u
#638785
0e
#638788
1;
#639351
1e
#640000
0!
1$
#640701
0-
#641079
0.
#645000
1!
0$
#645527
1-
#645917
1.
#647547
1m!
#648200
0/
#648269
10
#648299
1m
#648724
11
#650000
0!
1$
#650701
0-
#651079
0.
#655000
1!
0$
#655527
1-
#655917
1.
#657547
0m!
1l!
#657548
1("
#658121
02
#658174
01
#658229
00
#658268
1/
#658287
12
#658684
11
#660000
0!
1$
#660701
0-
#661079
0.
#665000
1!
0$
#665527
1-
#665917
1.
#667547
1m!
#668137
1#!
#668200
0/
#668269
10
#668324
0m
#668327
02
#668401
1n
#668706
01
#668782
13
#668856
1o
#670000
0!
1$
#670701
0-
#671079
0.
#675000
1!
0$
#675527
1-
#675917
1.
#677547
0m!
0l!
1k!
#677548
0("
1'"
#678122
0p
#678170
03
