NWPU_DIgitalCircuiitExperiments_Xmk_Xyr/Test/4/test2/simulation/qsim/test2.msim.vcd
$comment
	File created using the following command:
		vcd file test2.msim.vcd -direction
$end
$date
	Thu May 25 22:52:15 2023
$end
$version
	ModelSim Version 10.1d
$end
$timescale
	1ps
$end
$scope module test2_vlg_vec_tst $end
$var reg 4 ! bin [3:0] $end
$var wire 1 " seg [6] $end
$var wire 1 # seg [5] $end
$var wire 1 $ seg [4] $end
$var wire 1 % seg [3] $end
$var wire 1 & seg [2] $end
$var wire 1 ' seg [1] $end
$var wire 1 ( seg [0] $end
$var wire 1 ) sampler $end
$scope module i1 $end
$var wire 1 * gnd $end
$var wire 1 + vcc $end
$var wire 1 , unknown $end
$var tri1 1 - devclrn $end
$var tri1 1 . devpor $end
$var tri1 1 / devoe $end
$var wire 1 0 seg[0]~output_o $end
$var wire 1 1 seg[1]~output_o $end
$var wire 1 2 seg[2]~output_o $end
$var wire 1 3 seg[3]~output_o $end
$var wire 1 4 seg[4]~output_o $end
$var wire 1 5 seg[5]~output_o $end
$var wire 1 6 seg[6]~output_o $end
$var wire 1 7 bin[3]~input_o $end
$var wire 1 8 bin[0]~input_o $end
$var wire 1 9 bin[2]~input_o $end
$var wire 1 : bin[1]~input_o $end
$var wire 1 ; Mux6~0_combout $end
$var wire 1 < Mux5~0_combout $end
$var wire 1 = Mux4~0_combout $end
$var wire 1 > Mux3~0_combout $end
$var wire 1 ? Mux2~0_combout $end
$var wire 1 @ Mux1~0_combout $end
$var wire 1 A Mux0~0_combout $end
$upscope $end
$upscope $end
$enddefinitions $end
#0
$dumpvars
b0 !
0(
0'
0&
0%
0$
0#
1"
x)
0*
1+
x,
1-
1.
1/
00
01
02
03
04
05
16
07
08
09
0:
0;
0<
0=
0>
0?
0@
0A
$end
#10000
b1 !
18
0)
1@
1?
1>
1;
15
14
13
10
1#
1$
1%
1(
#20000
b11 !
b10 !
08
1:
1)
1A
0?
0>
1=
0;
06
04
03
12
00
0"
0$
0%
1&
0(
#30000
b11 !
18
0)
1?
0=
14
02
1$
0&
#40000
b111 !
b101 !
b100 !
08
0:
19
1)
0@
1>
1;
05
13
10
0#
1%
1(
#50000
b101 !
18
0)
0>
1<
0;
03
11
00
0%
1'
0(
#60000
b111 !
b110 !
08
1:
1)
0?
04
0$
#70000
b111 !
18
0)
0A
1@
1?
1>
0<
16
15
14
13
01
1"
1#
1$
1%
0'
#80000
b1111 !
b1011 !
b1001 !
b1000 !
08
0:
09
17
1)
1A
0@
0?
0>
06
05
04
03
0"
0#
0$
0%
#90000
b1001 !
18
0)
1?
1>
14
13
1$
1%
#100000
b1011 !
b1010 !
08
1:
1)
0?
04
0$
#110000
b1011 !
18
0)
0>
1<
1;
03
11
10
0%
1'
1(
#120000
b1111 !
b1101 !
b1100 !
08
0:
19
1)
0A
1=
0;
16
12
00
1"
1&
0(
#130000
b1101 !
18
0)
1A
1@
0=
0<
1;
06
15
02
01
10
0"
1#
0&
0'
1(
#140000
b1111 !
b1110 !
08
1:
1)
0@
1=
1<
0;
05
12
11
00
0#
1&
1'
0(
#150000
b1111 !
18
0)
1>
13
1%
#160000
b111 !
b11 !
b1 !
b0 !
08
0:
09
07
1)
0A
0>
0=
0<
16
03
02
01
1"
0%
0&
0'
#170000
b1 !
18
0)
1@
1?
1>
1;
15
14
13
10
1#
1$
1%
1(
#180000
b11 !
b10 !
08
1:
1)
1A
0?
0>
1=
0;
06
04
03
12
00
0"
0$
0%
1&
0(
#190000
b11 !
18
0)
1?
0=
14
02
1$
0&
#200000
b111 !
b101 !
b100 !
08
0:
19
1)
0@
1>
1;
05
13
10
0#
1%
1(
#210000
b101 !
18
0)
0>
1<
0;
03
11
00
0%
1'
0(
#220000
b111 !
b110 !
08
1:
1)
0?
04
0$
#230000
b111 !
18
0)
0A
1@
1?
1>
0<
16
15
14
13
01
1"
1#
1$
1%
0'
#240000
b1111 !
b1011 !
b1001 !
b1000 !
08
0:
09
17
1)
1A
0@
0?
0>
06
05
04
03
0"
0#
0$
0%
#250000
b1001 !
18
0)
1?
1>
14
13
1$
1%
#260000
b1011 !
b1010 !
08
1:
1)
0?
04
0$
#270000
b1011 !
18
0)
0>
1<
1;
03
11
10
0%
1'
1(
#280000
b1111 !
b1101 !
b1100 !
08
0:
19
1)
0A
1=
0;
16
12
00
1"
1&
0(
#290000
b1101 !
18
0)
1A
1@
0=
0<
1;
06
15
02
01
10
0"
1#
0&
0'
1(
#300000
b1111 !
b1110 !
08
1:
1)
0@
1=
1<
0;
05
12
11
00
0#
1&
1'
0(
#310000
b1111 !
18
0)
1>
13
1%
#320000
b111 !
b11 !
b1 !
b0 !
08
0:
09
07
1)
0A
0>
0=
0<
16
03
02
01
1"
0%
0&
0'
#330000
b1 !
18
0)
1@
1?
1>
1;
15
14
13
10
1#
1$
1%
1(
#340000
b11 !
b10 !
08
1:
1)
1A
0?
0>
1=
0;
06
04
03
12
00
0"
0$
0%
1&
0(
#350000
b11 !
18
0)
1?
0=
14
02
1$
0&
#360000
b111 !
b101 !
b100 !
08
0:
19
1)
0@
1>
1;
05
13
10
0#
1%
1(
#370000
b101 !
18
0)
0>
1<
0;
03
11
00
0%
1'
0(
#380000
b111 !
b110 !
08
1:
1)
0?
04
0$
#390000
b111 !
18
0)
0A
1@
1?
1>
0<
16
15
14
13
01
1"
1#
1$
1%
0'
#400000
b1111 !
b1011 !
b1001 !
b1000 !
08
0:
09
17
1)
1A
0@
0?
0>
06
05
04
03
0"
0#
0$
0%
#410000
b1001 !
18
0)
1?
1>
14
13
1$
1%
#420000
b1011 !
b1010 !
08
1:
1)
0?
04
0$
#430000
b1011 !
18
0)
0>
1<
1;
03
11
10
0%
1'
1(
#440000
b1111 !
b1101 !
b1100 !
08
0:
19
1)
0A
1=
0;
16
12
00
1"
1&
0(
#450000
b1101 !
18
0)
1A
1@
0=
0<
1;
06
15
02
01
10
0"
1#
0&
0'
1(
#460000
b1111 !
b1110 !
08
1:
1)
0@
1=
1<
0;
05
12
11
00
0#
1&
1'
0(
#470000
b1111 !
18
0)
1>
13
1%
#480000
b111 !
b11 !
b1 !
b0 !
08
0:
09
07
1)
0A
0>
0=
0<
16
03
02
01
1"
0%
0&
0'
#490000
b1 !
18
0)
1@
1?
1>
1;
15
14
13
10
1#
1$
1%
1(
#500000
b11 !
b10 !
08
1:
1)
1A
0?
0>
1=
0;
06
04
03
12
00
0"
0$
0%
1&
0(
#510000
b11 !
18
0)
1?
0=
14
02
1$
0&
#520000
b111 !
b101 !
b100 !
08
0:
19
1)
0@
1>
1;
05
13
10
0#
1%
1(
#530000
b101 !
18
0)
0>
1<
0;
03
11
00
0%
1'
0(
#540000
b111 !
b110 !
08
1:
1)
0?
04
0$
#550000
b111 !
18
0)
0A
1@
1?
1>
0<
16
15
14
13
01
1"
1#
1$
1%
0'
#560000
b1111 !
b1011 !
b1001 !
b1000 !
08
0:
09
17
1)
1A
0@
0?
0>
06
05
04
03
0"
0#
0$
0%
#570000
b1001 !
18
0)
1?
1>
14
13
1$
1%
#580000
b1011 !
b1010 !
08
1:
1)
0?
04
0$
#590000
b1011 !
18
0)
0>
1<
1;
03
11
10
0%
1'
1(
#600000
b1111 !
b1101 !
b1100 !
08
0:
19
1)
0A
1=
0;
16
12
00
1"
1&
0(
#610000
b1101 !
18
0)
1A
1@
0=
0<
1;
06
15
02
01
10
0"
1#
0&
0'
1(
#620000
b1111 !
b1110 !
08
1:
1)
0@
1=
1<
0;
05
12
11
00
0#
1&
1'
0(
#630000
b1111 !
18
0)
1>
13
1%
#640000
b111 !
b11 !
b1 !
b0 !
08
0:
09
07
1)
0A
0>
0=
0<
16
03
02
01
1"
0%
0&
0'
#650000
b1 !
18
0)
1@
1?
1>
1;
15
14
13
10
1#
1$
1%
1(
#660000
b11 !
b10 !
08
1:
1)
1A
0?
0>
1=
0;
06
04
03
12
00
0"
0$
0%
1&
0(
#670000
b11 !
18
0)
1?
0=
14
02
1$
0&
#680000
b111 !
b101 !
b100 !
08
0:
19
1)
0@
1>
1;
05
13
10
0#
1%
1(
#690000
b101 !
18
0)
0>
1<
0;
03
11
00
0%
1'
0(
#700000
b111 !
b110 !
08
1:
1)
0?
04
0$
#710000
b111 !
18
0)
0A
1@
1?
1>
0<
16
15
14
13
01
1"
1#
1$
1%
0'
#720000
b1111 !
b1011 !
b1001 !
b1000 !
08
0:
09
17
1)
1A
0@
0?
0>
06
05
04
03
0"
0#
0$
0%
#730000
b1001 !
18
0)
1?
1>
14
13
1$
1%
#740000
b1011 !
b1010 !
08
1:
1)
0?
04
0$
#750000
b1011 !
18
0)
0>
1<
1;
03
11
10
0%
1'
1(
#760000
b1111 !
b1101 !
b1100 !
08
0:
19
1)
0A
1=
0;
16
12
00
1"
1&
0(
#770000
b1101 !
18
0)
1A
1@
0=
0<
1;
06
15
02
01
10
0"
1#
0&
0'
1(
#780000
b1111 !
b1110 !
08
1:
1)
0@
1=
1<
0;
05
12
11
00
0#
1&
1'
0(
#790000
b1111 !
18
0)
1>
13
1%
#800000
b111 !
b11 !
b1 !
b0 !
08
0:
09
07
1)
0A
0>
0=
0<
16
03
02
01
1"
0%
0&
0'
#810000
b1 !
18
0)
1@
1?
1>
1;
15
14
13
10
1#
1$
1%
1(
#820000
b11 !
b10 !
08
1:
1)
1A
0?
0>
1=
0;
06
04
03
12
00
0"
0$
0%
1&
0(
#830000
b11 !
18
0)
1?
0=
14
02
1$
0&
#840000
b111 !
b101 !
b100 !
08
0:
19
1)
0@
1>
1;
05
13
10
0#
1%
1(
#850000
b101 !
18
0)
0>
1<
0;
03
11
00
0%
1'
0(
#860000
b111 !
b110 !
08
1:
1)
0?
04
0$
#870000
b111 !
18
0)
0A
1@
1?
1>
0<
16
15
14
13
01
1"
1#
1$
1%
0'
#880000
b1111 !
b1011 !
b1001 !
b1000 !
08
0:
09
17
1)
1A
0@
0?
0>
06
05
04
03
0"
0#
0$
0%
#890000
b1001 !
18
0)
1?
1>
14
13
1$
1%
#900000
b1011 !
b1010 !
08
1:
1)
0?
04
0$
#910000
b1011 !
18
0)
0>
1<
1;
03
11
10
0%
1'
1(
#920000
b1111 !
b1101 !
b1100 !
08
0:
19
1)
0A
1=
0;
16
12
00
1"
1&
0(
#930000
b1101 !
18
0)
1A
1@
0=
0<
1;
06
15
02
01
10
0"
1#
0&
0'
1(
#940000
b1111 !
b1110 !
08
1:
1)
0@
1=
1<
0;
05
12
11
00
0#
1&
1'
0(
#950000
b1111 !
18
0)
1>
13
1%
#960000
b111 !
b11 !
b1 !
b0 !
08
0:
09
07
1)
0A
0>
0=
0<
16
03
02
01
1"
0%
0&
0'
#970000
b1 !
18
0)
1@
1?
1>
1;
15
14
13
10
1#
1$
1%
1(
#980000
b11 !
b10 !
08
1:
1)
1A
0?
0>
1=
0;
06
04
03
12
00
0"
0$
0%
1&
0(
#990000
b11 !
18
0)
1?
0=
14
02
1$
0&
